<?xml version="1.0" encoding="UTF-8" standalone="no"?>
<!-- Created with Inkscape (http://www.inkscape.org/) -->

<svg
   xmlns:dc="http://purl.org/dc/elements/1.1/"
   xmlns:cc="http://creativecommons.org/ns#"
   xmlns:rdf="http://www.w3.org/1999/02/22-rdf-syntax-ns#"
   xmlns:svg="http://www.w3.org/2000/svg"
   xmlns="http://www.w3.org/2000/svg"
   xmlns:xlink="http://www.w3.org/1999/xlink"
   xmlns:sodipodi="http://sodipodi.sourceforge.net/DTD/sodipodi-0.dtd"
   xmlns:inkscape="http://www.inkscape.org/namespaces/inkscape"
   id="svg2"
   version="1.1"
   inkscape:version="0.92.2 (5c3e80d, 2017-08-06)"
   width="2481"
   height="3503"
   sodipodi:docname="E27P01.svg"
   inkscape:export-filename="E:\Users\jamesmichael\Downloads\Compressed\eps\ep27_Coriander-s-Invention_lang-pack\lang\ph\E27P01.png"
   inkscape:export-xdpi="96"
   inkscape:export-ydpi="96">
  <metadata
     id="metadata8">
    <rdf:RDF>
      <cc:Work
         rdf:about="">
        <dc:format>image/svg+xml</dc:format>
        <dc:type
           rdf:resource="http://purl.org/dc/dcmitype/StillImage" />
        <dc:title />
      </cc:Work>
    </rdf:RDF>
  </metadata>
  <defs
     id="defs6">
    <linearGradient
       inkscape:collect="always"
       id="linearGradient964">
      <stop
         style="stop-color:#918a6f;stop-opacity:1;"
         offset="0"
         id="stop960" />
      <stop
         style="stop-color:#c2bb9f;stop-opacity:1"
         offset="1"
         id="stop962" />
    </linearGradient>
    <linearGradient
       inkscape:collect="always"
       id="linearGradient928">
      <stop
         style="stop-color:#f3efe0;stop-opacity:1"
         offset="0"
         id="stop924" />
      <stop
         style="stop-color:#d9cc9d;stop-opacity:1"
         offset="1"
         id="stop926" />
    </linearGradient>
    <radialGradient
       inkscape:collect="always"
       xlink:href="#linearGradient928"
       id="radialGradient932"
       cx="322.14978"
       cy="230.87151"
       fx="322.14978"
       fy="230.87151"
       r="182.11266"
       gradientTransform="matrix(1.118507,-0.00767018,0.00833117,1.2148946,-40.100433,-47.142096)"
       gradientUnits="userSpaceOnUse" />
    <linearGradient
       inkscape:collect="always"
       xlink:href="#linearGradient964"
       id="linearGradient966"
       x1="483.93088"
       y1="252.79726"
       x2="521.5141"
       y2="254.66634"
       gradientUnits="userSpaceOnUse"
       gradientTransform="translate(68.793336)" />
    <filter
       inkscape:collect="always"
       style="color-interpolation-filters:sRGB"
       id="filter4210"
       x="-0.0015578248"
       width="1.0031157"
       y="-0.0045528179"
       height="1.0091056">
      <feGaussianBlur
         inkscape:collect="always"
         stdDeviation="0.2079876"
         id="feGaussianBlur4212" />
    </filter>
    <filter
       inkscape:collect="always"
       style="color-interpolation-filters:sRGB"
       id="filter4210-3"
       x="-0.0015578248"
       width="1.0031157"
       y="-0.0045528179"
       height="1.0091056">
      <feGaussianBlur
         inkscape:collect="always"
         stdDeviation="0.2079876"
         id="feGaussianBlur4212-9" />
    </filter>
  </defs>
  <sodipodi:namedview
     pagecolor="#ffffff"
     bordercolor="#666666"
     borderopacity="1"
     objecttolerance="10"
     gridtolerance="10"
     guidetolerance="10"
     inkscape:pageopacity="0"
     inkscape:pageshadow="2"
     inkscape:window-width="1920"
     inkscape:window-height="1025"
     id="namedview4"
     showgrid="false"
     inkscape:zoom="0.2799099"
     inkscape:cx="1281.7529"
     inkscape:cy="1028.0615"
     inkscape:window-x="0"
     inkscape:window-y="26"
     inkscape:window-maximized="1"
     inkscape:current-layer="layer1"
     inkscape:snap-global="false" />
  <g
     inkscape:groupmode="layer"
     id="layer2"
     inkscape:label="artwork"
     sodipodi:insensitive="true">
    <image
       sodipodi:absref="E:\Users\jamesmichael\Downloads\Compressed\eps\ep27_Coriander-s-Invention_lang-pack\lang\ph\../gfx_Pepper-and-Carrot_by-David-Revoy_E27P01.png"
       xlink:href="../gfx_Pepper-and-Carrot_by-David-Revoy_E27P01.png"
       y="0"
       x="0"
       id="image10"
       height="3503"
       width="2481" />
  </g>
  <g
     inkscape:groupmode="layer"
     id="layer3"
     inkscape:label="speechbubbles">
    <g
       id="g975"
       transform="matrix(1.3757423,0,0,1,247.29017,1035.7648)">
      <path
         inkscape:connector-curvature="0"
         id="path101"
         d="m 549.88676,190.72919 c -3.54348,-0.0348 -7.29462,0.1157 -11.15995,0.53804 0,0 -30.0934,106.15112 -34.39246,120.39084 11.46417,0 17.19658,2.58826 28.66075,3.88278 11.46419,1.29452 32.95953,-2.58907 41.55766,-3.23633 8.59813,-0.64726 15.76193,2.58904 44.42238,0 -2.86603,0.64726 -12.18043,-6.47148 -16.47949,-9.06051 -4.29907,-2.58904 -2.86564,-7.7685 -5.73169,-13.59384 -7.1651,4.53081 -12.18133,-3e-5 -15.76388,-3.23633 -3.58256,-3.2363 0,-4.52924 0,-4.52924 l 11.4634,-8.41405 c 0,0 -3.58217,-14.24033 -5.7317,-17.47663 -2.14954,-3.2363 2.86698,-16.18167 2.86698,-16.18167 0,0 3.58164,-9.0614 0.71562,-14.88673 -2.86604,-5.82535 4.29867,-7.11997 5.73169,-9.70901 1.43304,-2.58904 9.31656,-12.29889 9.31656,-12.29889 l 7.88082,-3.88279 19.34646,-0.64645 10.74778,-5.82622 -16.48174,0.64645 -24.3603,2.58989 -25.79378,-1.29494 c 0,0 -11.46004,-3.62374 -26.81511,-3.77437 z m 14.40511,63.85728 c 0,0 11.92148,1.46891 13.54683,3.42659 1.62535,1.95768 4.33226,0.4895 6.4994,1.95776 2.16714,1.46826 4.87786,9.7878 2.71073,10.76663 -2.16714,0.97885 -5.41927,3.42554 -7.58642,2.44669 -2.16713,-0.97883 -4.87568,-5.87327 -4.87568,-5.87327 -0.54179,-4.40479 0,-6.85113 0,-6.85113 z"
         style="fill:url(#linearGradient966);fill-opacity:1;fill-rule:evenodd;stroke:none;stroke-width:0.99999994px;stroke-linecap:butt;stroke-linejoin:miter;stroke-opacity:1" />
      <path
         inkscape:connector-curvature="0"
         id="path958"
         d="m 504.79715,310.61856 c 0,0 8.1984,-5.23752 15.06909,-6.63932 6.87069,-1.40181 24.66762,-6.18478 30.68906,-7.94356 l 6.13248,-1.15243 -4.75833,-30.62178 -8.70287,-22.89613 -30.68908,2.80361 -5.49655,49.06313 z"
         style="fill:#6c6753;fill-rule:evenodd;stroke:#6c6753;stroke-width:1px;stroke-linecap:butt;stroke-linejoin:miter;stroke-opacity:1"
         sodipodi:nodetypes="ccscccccc" />
      <path
         inkscape:connector-curvature="0"
         id="path99"
         d="m 567.53094,152.34375 c -0.14714,0.0194 -0.29648,0.0584 -0.44937,0.11719 -4.89222,1.87969 -40.11706,-0.93945 -46.96617,3.75976 -6.84911,4.69921 -93.63782,-0.94062 -110.27137,-2.82031 -16.63354,-1.87968 -133.80309,7.8e-4 -147.50129,2.82031 -13.69822,2.81953 -48.9227,6.57969 -91.97424,2.82032 l 2.93411,9.39843 0.98007,7.51758 -3.91418,7.51953 h 2.93411 l 15.65675,5.63867 v 8.45899 l -6.85034,6.57812 -10.76248,1.88086 -13.69865,40.41211 c 0,0 1.9565,6.57852 0.97805,10.33789 -0.97844,3.75937 -10.76128,15.97738 -18.58883,46.99219 18.59043,-1.87969 37.18053,-3.75937 59.68474,-4.69922 22.50421,-0.93984 128.91044,10.33789 143.5871,10.33789 14.67666,0 46.9658,-2.81915 67.51312,-5.63867 20.54732,-2.81953 96.57437,-2.81992 107.33725,-3.75977 10.76288,-0.93985 24.46114,-7.51873 39.1378,-4.69921 -1.95688,-11.27811 -0.97967,-15.03595 -1.95811,-22.55469 -0.97845,-7.51874 8.80561,-29.13674 10.76249,-38.53516 1.95689,-9.39843 1.95811,-18.79493 1.95811,-23.49414 0,-4.69921 4.89223,-6.58008 4.89223,-6.58008 l -4.89223,-9.39843 c 0,0 3.91378,-12.21799 4.89223,-18.79688 0.94786,-6.37331 -0.85928,-24.21344 -5.4209,-23.61328 z m -391.06648,68.12891 c 1.88302,0.02 3.3984,0.6712 3.61122,2.30664 0.48646,3.73815 2.43327,8.87803 -0.97194,11.68164 -3.40522,2.80361 -12.16143,-0.46687 -12.16143,-2.33594 0,-1.86907 2.43188,-9.3457 2.43188,-9.3457 1.64181,-1.31419 4.66925,-2.33231 7.09027,-2.30664 z"
         style="fill:url(#radialGradient932);fill-opacity:1;fill-rule:evenodd;stroke:none;stroke-width:0.99999994px;stroke-linecap:butt;stroke-linejoin:miter;stroke-opacity:1"
         sodipodi:nodetypes="ccsssccccccccccccssssccsscccccccscc" />
      <path
         inkscape:connector-curvature="0"
         id="path109"
         d="m 500.39935,227.45228 c 4.8646,-2.80361 12.64794,-2.33634 14.59378,0.46727 1.94585,2.80361 7.78336,6.07448 6.32398,8.87809 -1.45938,2.80361 -4.8646,8.41082 -7.78336,8.41082 -2.91876,0 -11.18856,1.86907 -13.62086,-2.33634 -2.4323,-4.20541 -4.37814,-8.87809 -3.40521,-11.21443 0.97291,-2.33634 3.89167,-4.20541 3.89167,-4.20541 z"
         style="opacity:0.53299997;fill:#cbc29a;fill-opacity:1;fill-rule:evenodd;stroke:none;stroke-width:0.99999994px;stroke-linecap:butt;stroke-linejoin:miter;stroke-opacity:1" />
      <path
         inkscape:connector-curvature="0"
         id="path111"
         d="m 526.66816,190.53812 c 7.29689,-4.20541 14.59379,-4.20541 16.05316,0.93454 1.45939,5.13994 4.8646,8.87808 0.48646,10.74716 -4.37813,1.86907 -10.7021,9.81262 -13.62086,4.20541 -2.91876,-5.60722 -9.72919,-8.41082 -8.75627,-9.81263 0.97291,-1.4018 5.83751,-6.07448 5.83751,-6.07448 z"
         style="opacity:0.53299997;vector-effect:none;fill:#cbc29a;fill-opacity:1;fill-rule:evenodd;stroke:none;stroke-width:0.99999994px;stroke-linecap:butt;stroke-linejoin:miter;stroke-miterlimit:4;stroke-dasharray:none;stroke-dashoffset:0;stroke-opacity:1" />
      <path
         inkscape:connector-curvature="0"
         id="path113"
         d="m 517.91189,269.50639 c 4.8646,-2.80361 8.75627,0 8.75627,3.27087 0,3.27088 2.4323,6.54175 -2.91875,6.54175 -5.35106,0 -9.72919,0.46727 -9.72919,-3.27087 0,-3.73814 3.89167,-6.54175 3.89167,-6.54175 z"
         style="opacity:0.53299997;vector-effect:none;fill:#cbc29a;fill-opacity:1;fill-rule:evenodd;stroke:none;stroke-width:0.99999994px;stroke-linecap:butt;stroke-linejoin:miter;stroke-miterlimit:4;stroke-dasharray:none;stroke-dashoffset:0;stroke-opacity:1" />
      <path
         inkscape:connector-curvature="0"
         id="path115"
         d="m 499.42643,283.05716 c 3.40522,-6.07449 6.81043,-4.67268 6.81043,-4.67268 l 4.37813,4.67268 -5.35104,5.60721 z"
         style="opacity:0.53299997;vector-effect:none;fill:#cbc29a;fill-opacity:1;fill-rule:evenodd;stroke:none;stroke-width:0.99999994px;stroke-linecap:butt;stroke-linejoin:miter;stroke-miterlimit:4;stroke-dasharray:none;stroke-dashoffset:0;stroke-opacity:1" />
    </g>
    <path
       style="fill:#ffffff;fill-rule:evenodd;stroke:none;stroke-width:1.19862044px;stroke-linecap:butt;stroke-linejoin:miter;stroke-opacity:1"
       d="m 506.43286,1872.1129 c 0.0757,-90.8635 23.94427,-125.4098 35.02379,-138.6812 11.07952,-13.2714 84.32119,-36.7222 104.7529,-33.8822 20.43171,2.8403 80.02179,14.0194 97.02112,48.9014 16.99934,34.8816 29.72155,93.7805 31.38875,136.5538 1.66719,42.7736 -2.20152,96.2065 -11.59158,125.5266 -9.39005,29.3203 -38.80668,71.8231 -54.13658,77.0423 -15.32991,5.219 -94.50697,-0.776 -108.12737,-3.5604 -13.6204,-2.7844 -46.81219,-19.0915 -58.71194,-43.2416 -11.89976,-24.1501 -32.3092,-53.7151 -35.61909,-168.6587 z"
       id="path1371"
       inkscape:connector-curvature="0"
       sodipodi:nodetypes="csccscscsc" />
    <path
       style="fill:#ffffff;fill-rule:evenodd;stroke:none;stroke-width:1px;stroke-linecap:butt;stroke-linejoin:miter;stroke-opacity:1"
       d="m -310.47378,1456.0907 c 44.39811,49.0647 82.31113,72.1949 226.38521,65.9802 144.07415,-6.2147 259.30275,-47.8428 331.33975,-14.2833 -70.9757,-31.1157 -238.5536998,21.7759 -308.13415,25.4908 -85.56941,6.1866 -198.69784,15.5262 -270.73489,-67.7509 -3.85912,-26.1017 21.14408,-9.4368 21.14408,-9.4368 z"
       id="path1373"
       inkscape:connector-curvature="0"
       sodipodi:nodetypes="cscccc" />
    <path
       style="fill:#ffffff;fill-rule:evenodd;stroke:none;stroke-width:1.01354587px;stroke-linecap:butt;stroke-linejoin:miter;stroke-opacity:1"
       d="m 327.52281,2412.5113 c 8.7713,-57.4151 29.2377,-79.1398 43.8565,-91.5537 14.6188,-12.4141 60.8143,-17.0695 74.8484,-13.9659 14.0341,3.1035 76.0179,17.0694 92.9758,38.794 16.9578,21.7247 30.4071,58.9668 28.6529,116.382 -1.0202,33.3884 -2.9238,125.6925 -21.6359,155.176 -18.7121,29.4835 -62.5686,41.8975 -88.2977,45.0011 -25.7292,3.1033 -67.8314,3.1033 -90.6367,-27.9318 -22.8054,-31.0353 -30.992,-83.795 -36.8395,-113.2785 -5.8475,-29.4833 -2.9238,-108.6232 -2.9238,-108.6232 z"
       id="path1381"
       inkscape:connector-curvature="0"
       sodipodi:nodetypes="csssscccsc" />
    <path
       style="fill:#ffffff;fill-rule:evenodd;stroke:none;stroke-width:0.99999994px;stroke-linecap:butt;stroke-linejoin:miter;stroke-opacity:1"
       d="m 496.47866,2367.9738 c 14.59223,33.5128 26.0029,48.9812 67.83396,39.5558 41.83105,-9.4256 108.5282,-16.3248 141.78674,1.4788 29.28137,15.6746 51.90739,13.079 121.7666,131.8501 -56.77814,-114.9266 -99.32551,-134.2862 -123.35037,-143.8201 -24.59626,-9.7606 -55.76454,-20.3814 -126.39262,-4.6406 -32.1029,7.3309 -47.44956,5.5181 -53.3456,-33.119 -10.70097,-20.9453 -28.29871,8.695 -28.29871,8.695 z"
       id="path1383"
       inkscape:connector-curvature="0"
       sodipodi:nodetypes="csscsccc" />
    <path
       style="color:#000000;display:inline;overflow:visible;visibility:visible;fill:#ffffff;fill-opacity:1;fill-rule:nonzero;stroke:none;stroke-width:0.8661676px;marker:none;enable-background:accumulate"
       d="m 1139.9403,2645.2173 c 26.778,-35.9615 92.9974,-23.6223 111.1933,23.55 18.1959,47.1725 18.3572,104.4441 -7.8095,153.7717 -10.3988,19.6033 -61.7799,18.6101 -77.8339,11.648 -21.2149,-9.2001 -44.0223,-38.8082 -47.9924,-79.0811 -3.719,-37.726 -4.3355,-73.9269 22.4425,-109.8886 z"
       id="path4040"
       inkscape:connector-curvature="0"
       sodipodi:nodetypes="zssssz" />
    <path
       style="fill:#ffffff;fill-rule:evenodd;stroke:none;stroke-width:1px;stroke-linecap:butt;stroke-linejoin:miter;stroke-opacity:1"
       d="m 1199.6045,2789.6227 c -4.5861,4.5633 -12.2097,13.8741 -10.6638,23.3587 1.7341,9.649 27.7131,22.0363 25.7905,27.5094 -0.4988,4.7052 -6.4243,19.3424 -30.5039,10.0899 27.1405,13.7041 38.0684,1.3814 41.5034,-6.722 3.435,-8.1035 -21.8142,-21.6601 -19.972,-26.8882 1.8422,-5.2281 12.9924,-16.666 12.9924,-16.666 z"
       id="path1391"
       inkscape:connector-curvature="0"
       sodipodi:nodetypes="cccccccc"
       inkscape:transform-center-x="-1.5459127"
       inkscape:transform-center-y="19.323971" />
    <path
       style="fill:#ffffff;fill-rule:evenodd;stroke:none;stroke-width:1px;stroke-linecap:butt;stroke-linejoin:miter;stroke-opacity:1"
       d="m 1617.0673,2549.1088 c 43.503,83.2771 123.0512,70.8477 152.8818,72.0906 29.8306,1.2429 115.5936,7.4577 136.7236,2.4859 21.13,-4.9718 79.5483,-34.8024 84.5201,-42.26 4.9717,-7.4577 2.4859,-298.3061 2.4859,-298.3061 h -379.0973 z"
       id="path1393"
       inkscape:connector-curvature="0" />
    <path
       style="fill:#ffffff;fill-rule:evenodd;stroke:none;stroke-width:1.23267365px;stroke-linecap:butt;stroke-linejoin:miter;stroke-opacity:1"
       d="m 1737.979,2447.794 c 0,0 70.8835,32.103 89.565,50.6371 18.6814,18.5341 -3.7416,42.5561 20.5222,58.5817 24.2636,16.0256 94.3018,31.1967 111.6489,48.407 17.3471,17.2102 -20.7602,47.7997 -46.7914,66.2301 33.1644,-37.5049 56.7993,-56.3012 -10.9927,-77.2905 -67.7922,-20.9893 -92.9678,-29.873 -102.5808,-41.422 -9.6132,-11.5489 -4.7544,-32.9676 -34.478,-50.3866 -29.7233,-17.4191 -90.2523,-33.4765 -90.2523,-33.4765 z"
       id="path1395"
       inkscape:connector-curvature="0"
       sodipodi:nodetypes="cssscscccc" />
    <path
       style="fill:#ffffff;fill-rule:evenodd;stroke:none;stroke-width:1.43736506px;stroke-linecap:butt;stroke-linejoin:miter;stroke-opacity:1"
       d="m 2064.2281,2343.72 c 4.6992,-59.8966 13.1578,-87.1226 31.0148,-103.458 17.857,-16.3354 78.9468,-21.7806 97.7436,-12.7054 18.7969,9.0752 46.9921,18.1506 55.4507,54.4516 8.4586,36.301 12.218,76.2322 4.6992,96.1978 -7.5187,19.9653 -19.7367,54.4513 -37.5937,68.9717 -17.857,14.5204 -102.4428,-7.2602 -115.6006,-19.9656 -13.1578,-12.7052 -34.7742,-38.116 -35.714,-83.4921 z"
       id="path1397"
       inkscape:connector-curvature="0" />
    <path
       style="fill:#ffffff;fill-rule:evenodd;stroke:none;stroke-width:1px;stroke-linecap:butt;stroke-linejoin:miter;stroke-opacity:1"
       d="m 2169.7497,2291.9656 c 0,0 -15.0375,20.6765 -21.6164,31.0148 -6.5789,10.3383 -24.4359,33.8343 -12.218,71.428 -34.7741,-63.9093 4.6993,-93.0444 15.0375,-108.0819 10.3383,-15.0375 18.7969,5.6391 18.7969,5.6391 z"
       id="path1399"
       inkscape:connector-curvature="0" />
  </g>
  <g
     inkscape:groupmode="layer"
     id="layer1"
     inkscape:label="txt">
    <text
       xml:space="preserve"
       style="font-style:italic;font-variant:normal;font-weight:normal;font-stretch:normal;font-size:45px;line-height:1.20000005;font-family:Fondamento;-inkscape-font-specification:'Fondamento Italic';text-anchor:middle"
       x="729.77295"
       y="1248.8354"
       id="text4246"><tspan
         sodipodi:role="line"
         x="729.77295"
         y="1248.8354"
         id="tspan923">Kinahapunan</tspan><tspan
         sodipodi:role="line"
         x="729.77295"
         y="1302.8354"
         id="tspan4841"> sa Qualicity..</tspan><tspan
         sodipodi:role="line"
         x="729.77295"
         y="1356.8354"
         id="tspan4839" /></text>
    <text
       xml:space="preserve"
       style="font-style:normal;font-variant:normal;font-weight:normal;font-stretch:normal;line-height:0%;font-family:Lavi;-inkscape-font-specification:Lavi;text-align:center;letter-spacing:0px;word-spacing:0px;text-anchor:middle;fill:#000000;fill-opacity:1;stroke:none"
       x="648.39606"
       y="1839.4801"
       id="text4246-4"><tspan
         sodipodi:role="line"
         style="font-size:45px;line-height:1.20000005"
         x="656.30621"
         y="1839.4801"
         id="tspan4252-3"><tspan
   style="font-style:italic;font-variant:normal;font-weight:normal;font-stretch:normal;line-height:1.20000005;font-family:Lavi;-inkscape-font-specification:'Lavi Italic'"
   id="tspan51">Please</tspan>, </tspan><tspan
         sodipodi:role="line"
         style="font-size:45px;line-height:1.20000005"
         x="648.39606"
         y="1893.4801"
         id="tspan4889">Prinsesa</tspan><tspan
         sodipodi:role="line"
         style="font-size:45px;line-height:1.20000005"
         x="648.39606"
         y="1947.4801"
         id="tspan49">Coriander</tspan><tspan
         sodipodi:role="line"
         style="font-size:45px;line-height:1.20000005"
         x="648.39606"
         y="2001.4801"
         id="tspan4891">...</tspan></text>
    <text
       xml:space="preserve"
       style="font-style:normal;font-variant:normal;font-weight:normal;font-stretch:normal;line-height:0%;font-family:Lavi;-inkscape-font-specification:Lavi;text-align:center;letter-spacing:0px;word-spacing:0px;text-anchor:middle;fill:#000000;fill-opacity:1;stroke:none"
       x="451.26367"
       y="2427.1768"
       id="text4246-5"><tspan
         sodipodi:role="line"
         style="font-size:45px;line-height:1.20000005"
         x="459.17383"
         y="2427.1768"
         id="tspan4893">Pumirmis </tspan><tspan
         sodipodi:role="line"
         style="font-size:45px;line-height:1.20000005"
         x="459.17383"
         y="2481.1768"
         id="tspan4857">po kayo ng </tspan><tspan
         sodipodi:role="line"
         style="font-size:45px;line-height:1.20000005"
         x="459.17383"
         y="2535.1768"
         id="tspan4859">kahit saglit </tspan><tspan
         sodipodi:role="line"
         style="font-size:45px;line-height:1.20000005"
         x="451.26367"
         y="2589.1768"
         id="tspan4901">lang?</tspan></text>
    <text
       xml:space="preserve"
       style="font-style:normal;font-variant:normal;font-weight:normal;font-stretch:normal;line-height:0%;font-family:Lavi;-inkscape-font-specification:Lavi;text-align:center;letter-spacing:0px;word-spacing:0px;text-anchor:middle;fill:#000000;fill-opacity:1;stroke:none"
       x="1193.2404"
       y="2727.041"
       id="text4246-8"><tspan
         sodipodi:role="line"
         style="font-size:45px;line-height:1.20000005"
         x="1193.2404"
         y="2727.041"
         id="tspan4252-7">Okay,</tspan><tspan
         sodipodi:role="line"
         style="font-size:45px;line-height:1.20000005"
         x="1193.2404"
         y="2781.041"
         id="tspan73">okay...</tspan></text>
    <text
       xml:space="preserve"
       style="font-style:normal;font-variant:normal;font-weight:normal;font-stretch:normal;line-height:0%;font-family:Lavi;-inkscape-font-specification:Lavi;text-align:center;letter-spacing:0px;word-spacing:0px;text-anchor:middle;fill:#000000;fill-opacity:1;stroke:none"
       x="1812.0574"
       y="2284.2739"
       id="text4246-3"><tspan
         sodipodi:role="line"
         style="font-size:45px;line-height:1.20000005"
         x="1812.0574"
         y="2287.7617"
         id="tspan89" /><tspan
         sodipodi:role="line"
         style="font-size:45px;line-height:1.20000005"
         x="1812.0574"
         y="2287.7617"
         id="tspan4861" /><tspan
         sodipodi:role="line"
         style="font-size:45px;line-height:1.20000005"
         x="1819.9675"
         y="2324.3533"
         id="tspan4863">Tatlong oras </tspan><tspan
         sodipodi:role="line"
         style="font-size:45px;line-height:1.20000005"
         x="1819.9675"
         y="2378.3533"
         id="tspan4867">na lang po at </tspan><tspan
         sodipodi:role="line"
         style="font-size:45px;line-height:1.20000005"
         x="1812.0574"
         y="2432.3533"
         id="tspan4869">seremonyas na</tspan><tspan
         sodipodi:role="line"
         style="font-size:45px;line-height:1.20000005"
         x="1819.9675"
         y="2486.3533"
         id="tspan4865">wala na po </tspan><tspan
         sodipodi:role="line"
         style="font-size:45px;line-height:1.20000005"
         x="1819.9675"
         y="2540.3533"
         id="tspan4871">tayong </tspan><tspan
         sodipodi:role="line"
         style="font-size:45px;line-height:1.20000005"
         x="1812.0574"
         y="2594.3533"
         id="tspan4873">oras</tspan></text>
    <text
       xml:space="preserve"
       style="font-style:normal;font-variant:normal;font-weight:normal;font-stretch:normal;line-height:0%;font-family:Lavi;-inkscape-font-specification:Lavi;text-align:center;letter-spacing:0px;word-spacing:0px;text-anchor:middle;fill:#000000;fill-opacity:1;stroke:none"
       x="2165.603"
       y="2401.189"
       id="text4246-0"><tspan
         sodipodi:role="line"
         style="font-size:45px;line-height:1.25"
         x="2165.603"
         y="2401.189"
         id="tspan4252-1">...</tspan></text>
    <text
       xml:space="preserve"
       style="font-style:normal;font-variant:normal;font-weight:normal;font-stretch:normal;line-height:0%;font-family:Lavi;-inkscape-font-specification:Lavi;text-align:center;letter-spacing:0px;word-spacing:0px;text-anchor:middle;display:inline;opacity:0.6;fill:#fff6d5;fill-opacity:1;stroke:#fff6d5;stroke-width:2.68153024;stroke-miterlimit:4;stroke-dasharray:none;filter:url(#filter4210)"
       x="1174.0292"
       y="1085.962"
       id="text4246-5-9"
       transform="matrix(0.42828256,-0.06375822,-0.01940343,0.6455342,1051.3356,1095.8798)"><tspan
         sodipodi:role="line"
         style="font-style:normal;font-variant:normal;font-weight:normal;font-stretch:normal;font-size:45.00812149px;line-height:1;font-family:Fondamento;-inkscape-font-specification:Fondamento;fill:#fff6d5;stroke:#fff6d5;stroke-width:2.68153024;stroke-miterlimit:4;stroke-dasharray:none;stroke-opacity:1"
         x="1174.0292"
         y="1085.962"
         id="tspan111">ANG</tspan><tspan
         sodipodi:role="line"
         style="font-style:normal;font-variant:normal;font-weight:normal;font-stretch:normal;font-size:45.00812149px;line-height:1;font-family:Fondamento;-inkscape-font-specification:Fondamento;fill:#fff6d5;stroke:#fff6d5;stroke-width:2.68153024;stroke-miterlimit:4;stroke-dasharray:none;stroke-opacity:1"
         x="1174.0292"
         y="1130.9702"
         id="tspan754">CORONACION</tspan><tspan
         sodipodi:role="line"
         style="font-style:normal;font-variant:normal;font-weight:normal;font-stretch:normal;font-size:45.00812149px;line-height:1;font-family:Fondamento;-inkscape-font-specification:Fondamento;fill:#fff6d5;stroke:#fff6d5;stroke-width:2.68153024;stroke-miterlimit:4;stroke-dasharray:none;stroke-opacity:1"
         x="1174.0292"
         y="1175.9783"
         id="tspan4845">ng KAMAHALAN</tspan></text>
    <text
       xml:space="preserve"
       style="font-style:normal;font-variant:normal;font-weight:normal;font-stretch:normal;line-height:0%;font-family:Lavi;-inkscape-font-specification:Lavi;text-align:center;letter-spacing:0px;word-spacing:0px;text-anchor:middle;display:inline;opacity:0.6;fill:#fff6d5;fill-opacity:1;stroke:#fff6d5;stroke-width:2.70249391;stroke-miterlimit:4;stroke-dasharray:none;filter:url(#filter4210-3)"
       x="1174.0292"
       y="1085.962"
       id="text4246-5-9-4"
       transform="matrix(0.52324579,-0.03659865,-0.0134484,0.76213062,932.37771,1247.0066)"><tspan
         sodipodi:role="line"
         style="font-style:normal;font-variant:normal;font-weight:normal;font-stretch:normal;font-size:45.00812149px;line-height:1;font-family:Fondamento;-inkscape-font-specification:Fondamento;fill:#fff6d5;stroke:#fff6d5;stroke-width:2.70249391;stroke-miterlimit:4;stroke-dasharray:none;stroke-opacity:1"
         x="1174.0292"
         y="1085.962"
         id="tspan115">REINA</tspan><tspan
         sodipodi:role="line"
         style="font-style:normal;font-variant:normal;font-weight:normal;font-stretch:normal;font-size:45.00812149px;line-height:1;font-family:Fondamento;-inkscape-font-specification:Fondamento;fill:#fff6d5;stroke:#fff6d5;stroke-width:2.70249391;stroke-miterlimit:4;stroke-dasharray:none;stroke-opacity:1"
         x="1174.0292"
         y="1130.9702"
         id="tspan121">CORIANDER</tspan></text>
    <use
       x="0"
       y="0"
       xlink:href="#text4246-5-9"
       id="use1080"
       transform="matrix(1.1113945,0.36442722,-0.03562426,1.0968541,-1265.0091,-475.27519)"
       width="100%"
       height="100%"
       style="stroke-width:0.90093011"
       inkscape:transform-center-x="4.1379444"
       inkscape:transform-center-y="4.0349738" />
    <use
       x="0"
       y="0"
       xlink:href="#text4246-5-9-4"
       id="use1082"
       transform="matrix(0.98565026,0.2354674,-0.06673647,0.99861562,-1003.2813,-308.32021)"
       width="100%"
       height="100%" />
    <use
       x="0"
       y="0"
       xlink:href="#text4246-5-9"
       id="use1084"
       transform="matrix(0.6150991,0.28683471,0.05373313,0.71811363,1056.6197,358.52827)"
       width="100%"
       height="100%"
       style="stroke-width:1.53159201" />
    <use
       x="0"
       y="0"
       xlink:href="#text4246-5-9-4"
       id="use1086"
       transform="matrix(0.60149161,0.21273108,0.05905291,0.68112177,1054.2567,397.89184)"
       width="100%"
       height="100%"
       style="stroke-width:1.58885944" />
  </g>
  <g
     inkscape:groupmode="layer"
     id="layer4"
     inkscape:label="notes"
     sodipodi:insensitive="true">
    <path
       style="color:#000000;clip-rule:nonzero;display:inline;overflow:visible;visibility:visible;opacity:0.5;isolation:auto;mix-blend-mode:normal;color-interpolation:sRGB;color-interpolation-filters:linearRGB;solid-color:#000000;solid-opacity:1;fill:#ffe680;fill-opacity:1;fill-rule:nonzero;stroke:#565656;stroke-width:1.20000005;stroke-linecap:butt;stroke-linejoin:miter;stroke-miterlimit:4;stroke-dasharray:none;stroke-dashoffset:0;stroke-opacity:1;marker:none;color-rendering:auto;image-rendering:auto;shape-rendering:auto;text-rendering:auto;enable-background:accumulate"
       d="m -491.70805,1691.6386 v 509.9547 h 423.636685 v -373.4851 h 13.923338 v 21.7545 l 43.137977,-37.5533 -43.137977,-37.5506 v 23.1272 h -13.923338 v -106.2474 z"
       id="rect4191-6"
       inkscape:connector-curvature="0"
       sodipodi:nodetypes="cccccccccccc" />
    <flowRoot
       xml:space="preserve"
       id="flowRoot4212-7"
       style="font-style:normal;font-variant:normal;font-weight:normal;font-stretch:normal;line-height:0.01%;font-family:Lavi;-inkscape-font-specification:'Lavi, Normal';text-align:center;letter-spacing:0px;word-spacing:0px;writing-mode:lr-tb;text-anchor:middle;display:inline;opacity:0.5;fill:#000000;fill-opacity:1;stroke:none;stroke-width:0.71836352px;stroke-linecap:butt;stroke-linejoin:miter;stroke-opacity:1"
       transform="matrix(1.3923338,0,0,1.391772,-88.183544,272.03294)"><flowRegion
         id="flowRegion4214-5"
         style="stroke-width:0.71836352px"><rect
           id="rect4216-3"
           width="271.92325"
           height="318.06064"
           x="-275.14545"
           y="1061.6674"
           style="stroke-width:0.71836352px" /></flowRegion><flowPara
         style="font-size:25.3241539px;line-height:1.25;stroke-width:0.71836352px"
         id="flowPara1114">Translate “Her Majesty’s Coronation” and “Queen Coriander”</flowPara><flowPara
         style="font-size:25.3241539px;line-height:1.25;stroke-width:0.71836352px"
         id="flowPara1116">on the banner</flowPara><flowPara
         style="font-size:25.3241539px;line-height:1.25;stroke-width:0.71836352px"
         id="flowPara119">on the building</flowPara><flowPara
         style="font-size:25.3241539px;line-height:1.25;stroke-width:0.71836352px"
         id="flowPara1118">(in the middle).</flowPara><flowPara
         style="font-size:25.3241539px;line-height:1.25;stroke-width:0.71836352px"
         id="flowPara1120" /><flowPara
         style="font-size:25.3241539px;line-height:1.25;stroke-width:0.71836352px"
         id="flowPara1122">The other text boxes</flowPara><flowPara
         style="font-size:25.3241539px;line-height:1.25;stroke-width:0.71836352px"
         id="flowPara1124">will update automatically</flowPara><flowPara
         style="font-size:25.3241539px;line-height:1.25;stroke-width:0.71836352px"
         id="flowPara1126">(they are clones).</flowPara></flowRoot>    <flowRoot
       xml:space="preserve"
       id="flowRoot4212-7-6"
       style="font-style:normal;font-variant:normal;font-weight:normal;font-stretch:normal;line-height:0.01%;font-family:Lavi;-inkscape-font-specification:'Lavi, Normal';text-align:center;letter-spacing:0px;word-spacing:0px;writing-mode:lr-tb;text-anchor:middle;display:inline;opacity:0.5;fill:#000000;fill-opacity:1;stroke:none;stroke-width:0.71836352px;stroke-linecap:butt;stroke-linejoin:miter;stroke-opacity:1"
       transform="matrix(1.3923338,0,0,1.391772,-103.52319,226.44878)"><flowRegion
         id="flowRegion4214-5-2"
         style="stroke-width:0.71836352px"><rect
           id="rect4216-3-6"
           width="294.12939"
           height="323.61441"
           x="-275.14545"
           y="1061.6674"
           style="stroke-width:0.71836352px" /></flowRegion><flowPara
         style="font-style:normal;font-variant:normal;font-weight:bold;font-stretch:normal;font-size:18.66666603px;line-height:1.25;font-family:Lavi;-inkscape-font-specification:'Lavi Bold';stroke-width:0.71836352px"
         id="flowPara1220">NOTE FOR TRANSLATORS</flowPara></flowRoot>    <path
       style="color:#000000;clip-rule:nonzero;display:inline;overflow:visible;visibility:visible;opacity:0.5;isolation:auto;mix-blend-mode:normal;color-interpolation:sRGB;color-interpolation-filters:linearRGB;solid-color:#000000;solid-opacity:1;fill:#ffe680;fill-opacity:1;fill-rule:nonzero;stroke:#565656;stroke-width:1.20000005;stroke-linecap:butt;stroke-linejoin:miter;stroke-miterlimit:4;stroke-dasharray:none;stroke-dashoffset:0;stroke-opacity:1;marker:none;color-rendering:auto;image-rendering:auto;shape-rendering:auto;text-rendering:auto;enable-background:accumulate"
       d="M -430.25364,116.98448 V 365.20819 H -71.78786 V 218.47397 h 13.92334 v 21.7545 l 43.13797,-37.5533 -43.13797,-37.5506 v 23.1272 h -13.92334 v -71.26729 z"
       id="rect4191-6-6"
       inkscape:connector-curvature="0"
       sodipodi:nodetypes="cccccccccccc" />
    <flowRoot
       xml:space="preserve"
       id="flowRoot4212-7-7"
       style="font-style:normal;font-variant:normal;font-weight:normal;font-stretch:normal;line-height:0.01%;font-family:Lavi;-inkscape-font-specification:'Lavi, Normal';text-align:center;letter-spacing:0px;word-spacing:0px;writing-mode:lr-tb;text-anchor:middle;display:inline;opacity:0.5;fill:#000000;fill-opacity:1;stroke:none;stroke-width:0.71836352px;stroke-linecap:butt;stroke-linejoin:miter;stroke-opacity:1"
       transform="matrix(1.3923338,0,0,1.391772,-36.204082,-1303.3246)"><flowRegion
         id="flowRegion4214-5-3"
         style="stroke-width:0.71836352px"><rect
           id="rect4216-3-60"
           width="241.20609"
           height="175.29474"
           x="-275.14545"
           y="1061.6674"
           style="stroke-width:0.71836352px" /></flowRegion><flowPara
         style="font-size:25.3241539px;line-height:1.25;stroke-width:0.71836352px"
         id="flowPara1339">You can strech the scroll and translate “Qualicity” to</flowPara><flowPara
         style="font-size:25.3241539px;line-height:1.25;stroke-width:0.71836352px"
         id="flowPara1357">“City of Qualicity”.</flowPara></flowRoot>    <flowRoot
       xml:space="preserve"
       id="flowRoot4212-7-6-2"
       style="font-style:normal;font-variant:normal;font-weight:normal;font-stretch:normal;line-height:0.01%;font-family:Lavi;-inkscape-font-specification:'Lavi, Normal';text-align:center;letter-spacing:0px;word-spacing:0px;writing-mode:lr-tb;text-anchor:middle;display:inline;opacity:0.5;fill:#000000;fill-opacity:1;stroke:none;stroke-width:0.71836352px;stroke-linecap:butt;stroke-linejoin:miter;stroke-opacity:1"
       transform="matrix(1.3923338,0,0,1.391772,-72.256293,-1348.2053)"><flowRegion
         id="flowRegion4214-5-2-4"
         style="stroke-width:0.71836352px"><rect
           id="rect4216-3-6-0"
           width="294.12939"
           height="323.61441"
           x="-275.14545"
           y="1061.6674"
           style="stroke-width:0.71836352px" /></flowRegion><flowPara
         style="font-style:normal;font-variant:normal;font-weight:bold;font-stretch:normal;font-size:18.66666603px;line-height:1.25;font-family:Lavi;-inkscape-font-specification:'Lavi Bold';stroke-width:0.71836352px"
         id="flowPara1220-6">NOTE FOR TRANSLATORS</flowPara></flowRoot>  </g>
</svg>
