<?xml version="1.0" encoding="UTF-8" standalone="no"?>
<!-- Created with Inkscape (http://www.inkscape.org/) -->

<svg
   xmlns:dc="http://purl.org/dc/elements/1.1/"
   xmlns:cc="http://creativecommons.org/ns#"
   xmlns:rdf="http://www.w3.org/1999/02/22-rdf-syntax-ns#"
   xmlns:svg="http://www.w3.org/2000/svg"
   xmlns="http://www.w3.org/2000/svg"
   xmlns:xlink="http://www.w3.org/1999/xlink"
   xmlns:sodipodi="http://sodipodi.sourceforge.net/DTD/sodipodi-0.dtd"
   xmlns:inkscape="http://www.inkscape.org/namespaces/inkscape"
   id="svg2"
   version="1.1"
   inkscape:version="0.92.3 (2405546, 2018-03-11)"
   width="2481"
   height="3503"
   sodipodi:docname="E14P04.svg.2019_11_22_23_25_12.0.svg">
  <sodipodi:namedview
     pagecolor="#ffffff"
     bordercolor="#666666"
     inkscape:pageopacity="0"
     inkscape:pageshadow="2"
     inkscape:window-width="1813"
     inkscape:window-height="955"
     id="namedview70"
     showgrid="false"
     inkscape:zoom="0.4"
     inkscape:cx="1284.4231"
     inkscape:cy="2718.6204"
     inkscape:current-layer="layer1"
     inkscape:window-x="0"
     inkscape:window-y="0"
     inkscape:window-maximized="0" />
  <metadata
     id="metadata8">
    <rdf:RDF>
      <cc:Work
         rdf:about="">
        <dc:format>image/svg+xml</dc:format>
        <dc:type
           rdf:resource="http://purl.org/dc/dcmitype/StillImage" />
        <dc:title />
      </cc:Work>
    </rdf:RDF>
  </metadata>
  <defs
     id="defs6" />
  <sodipodi:namedview
     pagecolor="#ffffff"
     bordercolor="#666666"
     borderopacity="1"
     objecttolerance="10"
     gridtolerance="10"
     guidetolerance="10"
     inkscape:pageopacity="0"
     inkscape:pageshadow="2"
     inkscape:window-width="1920"
     inkscape:window-height="1025"
     id="namedview4"
     showgrid="false"
     inkscape:zoom="0.3478261"
     inkscape:cx="1818.8013"
     inkscape:cy="803.14507"
     inkscape:window-x="0"
     inkscape:window-y="26"
     inkscape:window-maximized="1"
     inkscape:current-layer="layer3"
     showguides="false" />
  <g
     inkscape:groupmode="layer"
     id="layer2"
     inkscape:label="artwork"
     sodipodi:insensitive="true">
    <image
       xlink:href="../gfx_Pepper-and-Carrot_by-David-Revoy_E14P04.png"
       y="0"
       x="0"
       id="image10"
       height="3503"
       width="2481" />
  </g>
  <g
     inkscape:groupmode="layer"
     id="layer3"
     inkscape:label="speechbubbles">
    <path
       style="color:#000000;display:inline;overflow:visible;visibility:visible;fill:#ffffff;fill-opacity:1;fill-rule:nonzero;stroke:none;stroke-width:1.04924381px;marker:none;enable-background:accumulate"
       d="m 1614.8991,358.98599 c 11.6123,-20.326 60.5826,-17.6728 77.9136,-11.75341 -32.8269,-26.89811 -29.4993,-41.4565 19.9085,-39.27815 -76.3233,-50.03545 -9.9604,-37.4874 4.8288,-47.07518 -62.5697,-20.53598 -31.0792,-36.16477 -17.0116,-53.29185 -74.2049,-7.3692 -45.7885,-34.29072 -45.6516,-57.77429 -7.8317,10.31432 -42.422,40.73998 -39.0237,3.67491 -54.1,30.74469 -116.4922,48.1124 -112.5121,-13.92516 -24.1661,29.19715 -45.7515,40.50459 -39.0239,3.67491 -55.8304,43.62724 -97.4766,22.31788 -139.9078,4.70221 -13.6916,13.45458 -18.1896,35.62602 -55.1348,26.98031 3.257,14.86369 -10.8588,23.59611 -40.4183,26.85913 36.9565,12.15538 42.7305,21.7567 -29.5212,24.96534 53.8139,5.83063 103.849,12.30915 35.9255,39.45537 19.7435,2.5986 70.7199,-20.57052 37.4396,57.75726 37.7656,-22.61401 76.1926,-33.499 114.2875,24.51255 25.4107,-24.94651 64.7855,-34.85784 76.3642,0.23525 7.8822,-13.79701 32.9547,-16.97865 53.6869,-15.75827 7.1798,6.41655 14.3227,14.89498 21.4863,25.80383 17.0369,-19.99328 40.0636,-32.44989 76.3641,0.23524 z"
       id="path3549-3-7"
       inkscape:connector-curvature="0"
       sodipodi:nodetypes="cccccccccccccccccccc" />
    <path
       style="fill:#ffffff;fill-rule:evenodd;stroke:none;stroke-width:1.05785251px;stroke-linecap:butt;stroke-linejoin:miter;stroke-opacity:1"
       d="m 1516.9617,333.23881 c -17.1385,-2.75755 -32.7817,5.52359 -47.2048,12.07893 -9.2881,3.93838 -19.2485,7.60882 -25.6234,14.87533 -6.2948,5.73841 -8.4752,15.9276 -0.2975,21.24242 5.8196,2.76075 14.2389,7.97375 8.7723,14.25838 -3.1488,5.32331 -11.6455,7.01313 -13.0338,13.1085 -3.3864,8.49796 5.0463,16.17783 13.7521,19.25645 6.4519,2.03439 12.4124,2.80096 13.2715,9.29875 6.5757,9.76609 21.0531,11.34577 33.0769,12.19411 10.3221,0.44992 20.7392,1.81986 30.9558,-0.24661 11.455,-1.707 25.2777,-4.58685 34.7294,2.99641 16.6275,8.48643 36.7322,10.30023 55.8195,11.07215 9.6047,0.0565 19.3151,0.95629 28.8591,0.12757 20.1577,-2.8175 40.7718,-3.75591 61.0914,-1.71264 21.195,-0.095 36.5294,-16.69364 57.84,-16.25915 17.551,-3.33988 37.0497,-6.59382 49.4688,-18.5539 5.4139,-4.36517 5.0492,-11.66902 11.9658,-14.45037 5.3037,-6.16102 -2.0668,-14.45989 -9.6782,-15.99606 -7.3716,-0.32119 6.5571,-2.213 8.0543,-5.01905 7.6149,-4.59011 13.0552,-14.65891 5.8377,-21.34731 -16.2435,-12.80871 -40.9034,-13.59931 -57.2326,-26.36988 -13.5942,-5.50852 -28.0469,1.08434 -41.8335,2.33379 -6.7925,-1.26427 -9.6905,-10.50793 -18.2164,-11.5648 -10.9423,-3.81615 -23.0223,-3.95541 -34.6813,-4.03777 -11.2978,6.39721 -25.6319,3.94985 -37.5619,0.29467 -10.4114,-3.10334 -21.5163,-5.53554 -32.5765,-3.50688 -8.1527,0.53179 -17.4246,3.98461 -25.0638,1.19596 -10.7469,-7.44542 -25.4607,-3.72347 -38.1113,-4.54728 -8.6938,-2.01053 -16.6353,2.57428 -24.3018,5.36572 -3.0653,1.11665 -12.646,5.89786 -2.331,3.91252"
       id="path4220"
       inkscape:connector-curvature="0" />
    <path
       style="color:#000000;display:inline;overflow:visible;visibility:visible;fill:#ffffff;fill-opacity:1;fill-rule:nonzero;stroke:none;stroke-width:1px;marker:none;enable-background:accumulate"
       d="m 1280.8534,546.00632 c 21.2486,-41.3416 65.9441,-76.10613 124.561,-90.19986 58.617,-14.09373 167.0584,-10.33545 186.109,-5.63747 19.0504,4.69787 123.8282,21.61029 146.5422,45.09987 22.7142,23.48959 53.4881,52.61665 60.0825,82.68319 6.5945,30.06666 0.7327,102.41451 -20.5159,118.38743 -21.2487,15.97293 -117.9667,50.73746 -174.3856,52.61654 -56.4188,1.87919 -187.5742,-13.15414 -224.9425,-23.48948 -37.3683,-10.33545 -76.9348,-23.48959 -88.6581,-56.37492 -11.7235,-32.88545 -33.7048,-76.10624 -8.7926,-123.0853 z"
       id="path3533"
       inkscape:connector-curvature="0" />
    <path
       style="color:#000000;display:inline;overflow:visible;visibility:visible;fill:#ffffff;fill-opacity:1;fill-rule:nonzero;stroke:none;stroke-width:1px;marker:none;enable-background:accumulate"
       d="m 1678.4528,528.49189 c 30.5923,52.37324 -103.4044,94.84893 -110.4621,125.45674 -2.3684,10.27079 -5.582,32.22619 0.4801,42.42915 10.2279,17.21496 39.4486,19.14791 -24.0871,109.8658 -15.4603,19.92013 12.0481,56.95066 47.151,66.90119 28.0513,17.10155 -7.3932,123.12378 -37.4741,172.62433 43.7979,-42.6678 77.2922,-149.02168 64.215,-140.15631 4.5835,-35.53698 -13.701,-44.07469 -23.5467,-53.21369 -9.8457,-9.13907 -29.5569,-14.98259 -28.3948,-30.06869 1.1623,-15.08705 39.8018,-58.24357 44.8599,-85.55656 5.0578,-27.31218 -22.1531,-43.05915 -16.0064,-68.06815 6.1465,-25.00909 83.9624,-57.20023 102.0984,-79.91604 20.9522,-23.39323 25.1007,-60.90229 25.1007,-60.90229 z"
       id="path3153"
       inkscape:connector-curvature="0"
       sodipodi:nodetypes="cssccccscssccc" />
    <path
       style="color:#000000;display:inline;overflow:visible;visibility:visible;fill:#ffffff;fill-opacity:1;fill-rule:nonzero;stroke:none;stroke-width:1px;marker:none;enable-background:accumulate"
       d="m 1468.0466,926.34512 c 0.7421,-48.54939 15.1995,-94.46231 143.3615,-92.87344 96.0964,1.19134 121.6874,38.59757 123.8165,87.67122 1.5005,34.58313 -50.4883,66.59398 -133.0517,64.89829 -78.9147,-1.62074 -128.3552,-22.67233 -134.1263,-59.69607 z"
       id="path5026"
       inkscape:connector-curvature="0"
       sodipodi:nodetypes="csssc" />
    <path
       style="color:#000000;display:inline;overflow:visible;visibility:visible;fill:#ffffff;fill-opacity:1;fill-rule:nonzero;stroke:none;stroke-width:1.02829087px;marker:none;enable-background:accumulate"
       d="m 174.62463,1924.4114 c 11.1331,-47.2323 34.34411,-96.5528 246.28429,-86.9265 211.9402,9.6263 259.17697,52.3112 259.68151,101.3399 0.6609,64.2246 -54.70441,74.3908 -85.791,82.1087 -31.08646,7.7179 -103.8407,15.9385 -156.15024,17.9745 -28.12572,1.0949 -198.58659,-7.5047 -230.47665,-32.2803 -31.77634,-24.6873 -36.57253,-48.2268 -33.54791,-82.2163 z"
       id="path3365"
       inkscape:connector-curvature="0"
       sodipodi:nodetypes="csssssc" />
    <path
       style="fill:#ffffff;stroke:none"
       d="m 822.15272,2218.8389 c -8.72758,85.5065 -132.14228,98.7311 -189.1148,101.2582 -56.97246,2.5271 -223.49774,28.5551 -274.83324,-42.9686 -51.33552,-71.5236 -13.78782,-119.3326 19.59766,-154.1863 28.46993,-29.7221 95.40268,-44.1015 153.99263,-51.1407 72.75112,-8.7405 193.53448,11.5765 243.97646,48.1556 26.90014,19.507 55.10893,13.3754 46.38129,98.8818 z"
       id="path3100"
       inkscape:connector-curvature="0"
       sodipodi:nodetypes="zsssssz" />
    <path
       style="fill:#ffffff;fill-rule:evenodd;stroke:none;stroke-width:1px;stroke-linecap:butt;stroke-linejoin:miter;stroke-opacity:1"
       d="m 534.12829,1990.1588 c 25.7289,58.6047 40.02273,101.4862 22.87013,151.5146 -17.15259,50.0284 1.42939,104.345 -12.86445,141.509 -14.29383,37.1639 -38.54491,47.2584 -11.43506,107.2037 19.79941,43.7805 -85.08462,39.3605 -44.31895,127.2554 -63.78914,-78.8501 40.07923,-99.8873 25.7289,-127.2151 -28.88282,-55.0024 -7.13885,-80.0858 2.86684,-105.8147 10.00568,-25.7289 -6.87995,-119.2204 10.00568,-151.5146 18.13588,-34.6853 -17.29178,-107.4567 -22.87013,-131.5032 -7.17205,-30.9164 30.01704,-11.4351 30.01704,-11.4351 z"
       id="path4313"
       inkscape:connector-curvature="0"
       sodipodi:nodetypes="cssscssssc" />
  </g>
  <g
     inkscape:groupmode="layer"
     id="layer1"
     inkscape:label="txt">
    <text
       xml:space="preserve"
       style="font-style:normal;font-variant:normal;font-weight:normal;font-stretch:normal;line-height:0%;font-family:Lavi;-inkscape-font-specification:Lavi;text-align:center;letter-spacing:0px;word-spacing:0px;text-anchor:middle;fill:#000000;fill-opacity:1;stroke:none"
       x="1477.0696"
       y="268.59164"
       id="text4246"><tspan
         sodipodi:role="line"
         style="font-size:67.89629364px;line-height:1.25"
         x="1477.0696"
         y="268.59164"
         id="tspan4252">A Churrain!</tspan></text>
    <text
       xml:space="preserve"
       style="font-style:normal;font-variant:normal;font-weight:normal;font-stretch:normal;line-height:0%;font-family:Lavi;-inkscape-font-specification:Lavi;text-align:center;letter-spacing:0px;word-spacing:0px;text-anchor:middle;fill:#000000;fill-opacity:1;stroke:none"
       x="1633.382"
       y="408.19888"
       id="text4246-1"><tspan
         sodipodi:role="line"
         style="font-size:45px;line-height:1.25"
         x="1633.382"
         y="408.19888"
         id="tspan4252-8">Trobhad a-nis ...</tspan></text>
    <text
       xml:space="preserve"
       style="font-style:normal;font-variant:normal;font-weight:normal;font-stretch:normal;line-height:0%;font-family:Lavi;-inkscape-font-specification:Lavi;text-align:center;letter-spacing:0px;word-spacing:0px;text-anchor:middle;fill:#000000;fill-opacity:1;stroke:none"
       x="1538.5493"
       y="541.84924"
       id="text4246-1-3"><tspan
         sodipodi:role="line"
         style="font-size:45px;line-height:1.25"
         x="1545.5806"
         y="541.84924"
         id="tspan3510">... Tha dràgonan </tspan><tspan
         sodipodi:role="line"
         style="font-size:45px;line-height:1.25"
         x="1545.5806"
         y="598.09924"
         id="tspan42">boglaich cliùiteach air </tspan><tspan
         sodipodi:role="line"
         style="font-size:45px;line-height:1.25"
         x="1545.5806"
         y="654.34924"
         id="tspan44">sàilleibh an nàdair </tspan><tspan
         sodipodi:role="line"
         style="font-size:45px;line-height:1.25"
         x="1538.5493"
         y="710.59924"
         id="tspan54">sholta!</tspan></text>
    <text
       xml:space="preserve"
       style="font-style:normal;font-variant:normal;font-weight:normal;font-stretch:normal;line-height:0%;font-family:Lavi;-inkscape-font-specification:Lavi;text-align:center;letter-spacing:0px;word-spacing:0px;text-anchor:middle;fill:#000000;fill-opacity:1;stroke:none"
       x="1601.5629"
       y="902.56146"
       id="text4246-1-3-6"><tspan
         sodipodi:role="line"
         style="font-size:35.54689407px;line-height:1.25"
         x="1607.1171"
         y="902.56146"
         id="tspan3506">seo na shaoil </tspan><tspan
         sodipodi:role="line"
         style="font-size:35.54689407px;line-height:1.25"
         x="1601.5629"
         y="946.99506"
         id="tspan58">mi ge-tà...</tspan></text>
    <text
       xml:space="preserve"
       style="font-style:normal;font-variant:normal;font-weight:normal;font-stretch:normal;line-height:0%;font-family:Lavi;-inkscape-font-specification:Lavi;text-align:center;letter-spacing:0px;word-spacing:0px;text-anchor:middle;fill:#000000;fill-opacity:1;stroke:none"
       x="429.2666"
       y="1921.0948"
       id="text4246-10"><tspan
         sodipodi:role="line"
         style="font-size:45px;line-height:1.25"
         x="436.29785"
         y="1921.0948"
         id="tspan3514">An-dà ... A thaobh </tspan><tspan
         sodipodi:role="line"
         style="font-size:45px;line-height:1.25"
         x="429.2666"
         y="1977.3448"
         id="tspan75">an dràgoin dhealain ...</tspan></text>
    <text
       xml:space="preserve"
       style="font-style:normal;font-variant:normal;font-weight:normal;font-stretch:normal;line-height:0%;font-family:Lavi;-inkscape-font-specification:Lavi;text-align:center;letter-spacing:0px;word-spacing:0px;text-anchor:middle;fill:#000000;fill-opacity:1;stroke:none"
       x="577.8111"
       y="2153.9912"
       id="text4246-10-5"><tspan
         sodipodi:role="line"
         style="font-size:45px;line-height:1.25"
         x="584.84235"
         y="2153.9912"
         id="tspan3531">... Chan eil mi </tspan><tspan
         sodipodi:role="line"
         style="font-size:45px;line-height:1.25"
         x="584.84235"
         y="2210.2412"
         id="tspan71">cinnteach gur e seo </tspan><tspan
         sodipodi:role="line"
         style="font-size:45px;line-height:1.25"
         x="577.8111"
         y="2266.4912"
         id="tspan73">an acainn cheart ...</tspan></text>
  </g>
</svg>
