<?xml version="1.0" encoding="UTF-8" standalone="no"?>
<!-- Created with Inkscape (http://www.inkscape.org/) -->

<svg
   xmlns:dc="http://purl.org/dc/elements/1.1/"
   xmlns:cc="http://creativecommons.org/ns#"
   xmlns:rdf="http://www.w3.org/1999/02/22-rdf-syntax-ns#"
   xmlns:svg="http://www.w3.org/2000/svg"
   xmlns="http://www.w3.org/2000/svg"
   xmlns:xlink="http://www.w3.org/1999/xlink"
   xmlns:sodipodi="http://sodipodi.sourceforge.net/DTD/sodipodi-0.dtd"
   xmlns:inkscape="http://www.inkscape.org/namespaces/inkscape"
   id="svg2"
   version="1.1"
   inkscape:version="0.91 r13725"
   width="2481"
   height="3503"
   sodipodi:docname="go_E28P08.svg">
  <metadata
     id="metadata8">
    <rdf:RDF>
      <cc:Work
         rdf:about="">
        <dc:format>image/svg+xml</dc:format>
        <dc:type
           rdf:resource="http://purl.org/dc/dcmitype/StillImage" />
        <dc:title></dc:title>
      </cc:Work>
    </rdf:RDF>
  </metadata>
  <defs
     id="defs6">
    <filter
       inkscape:collect="always"
       style="color-interpolation-filters:sRGB"
       id="filter983"
       x="-0.2292"
       width="1.4584"
       y="-0.2292"
       height="1.4584">
      <feGaussianBlur
         inkscape:collect="always"
         stdDeviation="14.835322"
         id="feGaussianBlur985" />
    </filter>
    <filter
       inkscape:collect="always"
       style="color-interpolation-filters:sRGB"
       id="filter983-3"
       x="-0.22920001"
       width="1.4584"
       y="-0.22920001"
       height="1.4584">
      <feGaussianBlur
         inkscape:collect="always"
         stdDeviation="14.835322"
         id="feGaussianBlur985-6" />
    </filter>
    <filter
       inkscape:collect="always"
       style="color-interpolation-filters:sRGB"
       id="filter983-5"
       x="-0.22920001"
       width="1.4584"
       y="-0.22920001"
       height="1.4584">
      <feGaussianBlur
         inkscape:collect="always"
         stdDeviation="14.835322"
         id="feGaussianBlur985-3" />
    </filter>
    <filter
       inkscape:collect="always"
       style="color-interpolation-filters:sRGB"
       id="filter983-6"
       x="-0.22920001"
       width="1.4584"
       y="-0.22920001"
       height="1.4584">
      <feGaussianBlur
         inkscape:collect="always"
         stdDeviation="14.835322"
         id="feGaussianBlur985-2" />
    </filter>
  </defs>
  <sodipodi:namedview
     pagecolor="#ffffff"
     bordercolor="#666666"
     borderopacity="1"
     objecttolerance="10"
     gridtolerance="10"
     guidetolerance="10"
     inkscape:pageopacity="0"
     inkscape:pageshadow="2"
     inkscape:window-width="959"
     inkscape:window-height="576"
     id="namedview4"
     showgrid="false"
     inkscape:zoom="0.36415091"
     inkscape:cx="1461.0645"
     inkscape:cy="975.02413"
     inkscape:window-x="65"
     inkscape:window-y="24"
     inkscape:window-maximized="1"
     inkscape:current-layer="layer1" />
  <g
     inkscape:groupmode="layer"
     id="layer2"
     inkscape:label="artwork"
     sodipodi:insensitive="true">
    <image
       sodipodi:absref="/home/denez/Docs Activites/Activite 3- Projet Gallo/Projet ADG/AdG 2-Travaux/5-BD pepper trad/go/../gfx_Pepper-and-Carrot_by-David-Revoy_E28P08.png"
       xlink:href="../gfx_Pepper-and-Carrot_by-David-Revoy_E28P08.png"
       y="0"
       x="0"
       id="image10"
       height="3503"
       width="2481" />
  </g>
  <g
     inkscape:groupmode="layer"
     id="layer3"
     inkscape:label="speechbubbles">
    <path
       style="fill:#ffffff;fill-rule:evenodd;stroke:none;stroke-width:0.98556405px;stroke-linecap:butt;stroke-linejoin:miter;stroke-opacity:1"
       d="m 142.29939,1279.393 c 18.54631,-38.0685 56.72987,-53.988 68.73041,-58.1409 12.00054,-4.1529 68.73041,-11.7666 86.18576,-11.7666 17.45535,0 171.28054,-3.4608 201.82741,1.3843 30.54683,4.8451 87.2767,19.3803 104.73203,39.4527 17.45534,20.0724 39.27454,57.4487 30.54686,80.9819 -8.72768,23.5333 -13.09152,55.3723 -61.09371,75.4447 -48.00218,20.0724 -211.64603,25.6097 -255.28438,24.2254 -43.63835,-1.3843 -100.36821,-3.4607 -136.36985,-20.0724 -36.00165,-16.6117 -58.91179,-53.2959 -57.82083,-76.8291 1.09096,-23.5331 18.5463,-54.68 18.5463,-54.68 z"
       id="path1079"
       inkscape:connector-curvature="0" />
    <path
       style="fill:#ffffff;fill-rule:evenodd;stroke:none;stroke-width:1px;stroke-linecap:butt;stroke-linejoin:miter;stroke-opacity:1"
       d="m 227.53576,1416.2623 c -20.60902,44.7713 -22.74099,55.4311 -24.1623,72.4869 -1.42132,17.0557 14.92377,43.35 35.5328,50.4565 20.60902,7.1066 33.40083,29.8476 24.1623,45.482 -9.23853,15.6345 -46.19264,77.4615 23.45165,96.6493 -66.80167,-29.1369 -24.16231,-76.7509 -17.05575,-87.4107 7.10656,-10.6599 19.89837,-34.8222 -8.52787,-60.4058 -28.42624,-25.5836 -38.37542,-39.7967 0,-89.5427 38.37542,-49.7459 -33.40083,-27.7155 -33.40083,-27.7155 z"
       id="path1081"
       inkscape:connector-curvature="0"
       sodipodi:nodetypes="ccccccssc" />
    <path
       style="fill:#ffffff;fill-rule:evenodd;stroke:none;stroke-width:0.99085414px;stroke-linecap:butt;stroke-linejoin:miter;stroke-opacity:1"
       d="m 356.90293,2090.3614 c 19.17304,-33.5164 51.46448,-45.5479 81.7377,-44.6885 30.27323,0.8594 101.91986,7.7345 119.07469,7.7345 17.15483,0 93.847,-4.297 129.16576,-2.5782 35.31876,1.7188 58.52822,13.7503 68.6193,29.2195 10.09109,15.469 17.15483,34.3757 13.1184,59.2981 -4.03643,24.9224 -28.25501,55.8607 -64.58287,63.5951 -36.32787,7.7346 -137.23863,7.7346 -189.71221,8.594 -52.47359,0.8594 -117.05646,-12.0315 -140.26594,-30.0788 -23.20947,-18.0472 -41.37341,-45.5479 -17.15483,-91.0957 z"
       id="path1083"
       inkscape:connector-curvature="0" />
    <path
       style="fill:#ffffff;fill-rule:evenodd;stroke:none;stroke-width:1px;stroke-linecap:butt;stroke-linejoin:miter;stroke-opacity:1"
       d="m 521.52769,2076.2416 c -21.62867,-11.7413 -40.78548,-28.4263 -40.78548,-37.6957 0,-9.2694 14.83108,-37.0777 -11.74127,-37.6957 -26.57236,-0.6179 -37.69567,6.1796 -37.07771,-3.7077 0.61796,-9.8874 8.03351,-25.9544 21.62866,-30.2802 -31.51605,12.3593 -34.60585,34.6059 -27.19031,40.7855 7.41554,6.1796 10.67283,9.5522 36.18391,8.6549 20.28805,2.4824 -29.05118,18.071 7.69137,66.7364 32.13401,21.6287 51.29083,-6.7975 51.29083,-6.7975 z"
       id="path1085"
       inkscape:connector-curvature="0"
       sodipodi:nodetypes="cscscsccc" />
    <path
       style="fill:#ffffff;fill-rule:evenodd;stroke:none;stroke-width:0.99999994px;stroke-linecap:butt;stroke-linejoin:miter;stroke-opacity:1"
       d="m 1196.7567,1374.4067 c -2.0612,-17.5917 -18.7863,-50.2645 -51.4246,-16.1368 13.4861,-40.6864 -2.0483,-45.8436 -20.2475,-47.7381 14.3275,-14.6662 26.8461,-29.914 8.3492,-55.134 24.1301,-8.2443 29.8524,-28.7456 21.6847,-58.496 24.2775,23.2401 46.106,36.0759 52.4648,-16.8093 7.8988,41.4017 36.9104,48.8809 51.4071,4.7067 -2.1364,34.4681 6.0078,43.2805 21.8243,32.946 -9.212,21.6913 -6.6421,38.149 8.3629,49.0828 -25.8737,22.9443 -22.3046,36.8913 4.6106,43.7038 -43.282,5.9825 -37.4678,34.4558 -39.319,55.8065 -20.9277,-33.2159 -62.9528,-0.075 -57.7125,8.0684 z"
       id="path1087"
       inkscape:connector-curvature="0"
       sodipodi:nodetypes="cccccccccccc" />
    <path
       style="fill:#ffffff;fill-rule:evenodd;stroke:none;stroke-width:1px;stroke-linecap:butt;stroke-linejoin:miter;stroke-opacity:1"
       d="m 1191.0392,1352.1713 c -8.4109,39.2505 -9.8127,49.5304 -9.8127,58.8758 0,9.3453 7.2361,5.602 12.611,1.6262 3.5164,-2.5819 16.3596,-20.7842 5.6125,8.1864 -10.7472,28.9706 -24.2979,69.1557 -28.0361,81.7719 10.2799,-22.4289 27.5688,-57.474 32.7088,-68.6884 5.1399,-11.2144 13.3039,-31.7117 15.4198,-37.8487 2.574,-7.4657 2.2967,-14.9288 -5.6521,-13.2604 -12.5951,3.9915 -24.253,31.4839 -4.6278,-16.1775 19.6253,-47.6613 11.2144,-117.2842 11.2144,-117.2842 z"
       id="path1089"
       inkscape:connector-curvature="0"
       sodipodi:nodetypes="csccccscccc" />
    <path
       style="fill:#ffffff;fill-rule:evenodd;stroke:none;stroke-width:1.01666367px;stroke-linecap:butt;stroke-linejoin:miter;stroke-opacity:1"
       d="m 1370.4492,1203.5944 c 1.2987,-35.3539 -10.3902,-36.4253 11.6891,-37.4965 22.0791,-1.0714 257.1583,-1.0714 300.0182,-1.0714 42.8598,0 76.6281,20.3553 92.2135,49.2812 15.5854,28.9259 41.0002,84.4626 -10.9512,116.6024 -51.9512,32.1401 -204.6464,18.3853 -263.0916,16.2427 -58.445,-2.1428 -122.0853,-8.5825 -137.6707,-38.5798 -15.5854,-29.9972 7.7927,-104.9786 7.7927,-104.9786 z"
       id="path1109"
       inkscape:connector-curvature="0"
       sodipodi:nodetypes="ccsccccc" />
    <path
       style="fill:#ffffff;fill-rule:evenodd;stroke:none;stroke-width:1px;stroke-linecap:butt;stroke-linejoin:miter;stroke-opacity:1"
       d="m 1639.998,1307.0864 c 41.353,7.5187 60.1499,15.9773 68.6085,23.4961 8.4586,7.5187 44.1726,33.8343 14.0976,68.6085 46.9921,-37.5937 7.5188,-93.0445 -46.0522,-115.6007 -15.0375,-3.7593 -36.6539,23.4961 -36.6539,23.4961 z"
       id="path1111"
       inkscape:connector-curvature="0"
       sodipodi:nodetypes="ccccc" />
    <path
       style="fill:#ffffff;fill-rule:evenodd;stroke:none;stroke-width:0.99061108px;stroke-linecap:butt;stroke-linejoin:miter;stroke-opacity:1"
       d="m 1966.0641,2048.2356 c -4.5709,-15.5563 2.4646,-32.8788 21.1418,-44.3355 26.0765,-16.2322 63.8485,-22.2937 99.0159,-22.4575 16.7222,-0.088 33.2773,1.6727 49.0627,4.7448 52.4399,5.2503 106.9196,-4.8072 158.8096,3.1826 21.818,3.4666 42.5704,11.6326 53.5514,24.1166 19.2516,28.0302 18.0648,59.6454 16.0896,89.9449 -0.8699,8.5918 -0.5678,17.2348 -1.9984,25.7929 -5.4897,20.8284 -27.8501,39.4293 -57.4474,49.5023 -29.6201,10.3854 -64.3366,13.9013 -97.2738,11.6511 -52.0743,1.9171 -105.935,4.1662 -155.6643,-6.2041 -31.9461,-6.8294 -62.163,-20.0688 -76.0826,-39.8926 -17.0218,-23.2086 -14.5031,-49.8467 -11.5216,-75.0476 0.8311,-6.9978 1.7322,-13.9947 2.3171,-20.9979 z"
       id="path1113"
       inkscape:connector-curvature="0" />
    <path
       style="fill:#ffffff;fill-rule:evenodd;stroke:none;stroke-width:1px;stroke-linecap:butt;stroke-linejoin:miter;stroke-opacity:1"
       d="m 1888.6765,2156.0399 c 42.1519,38.9095 103.7586,57.2834 162.1228,3.2424 58.3643,-54.0409 82.1423,-58.3642 82.1423,-58.3642 0,0 -3.2425,50.7985 -58.3642,83.2231 -55.1218,32.4245 -125.375,41.0711 -185.9009,-28.1013 z"
       id="path1128"
       inkscape:connector-curvature="0" />
    <circle
       style="color:#000000;clip-rule:nonzero;display:inline;overflow:visible;visibility:visible;opacity:1;isolation:auto;mix-blend-mode:normal;color-interpolation:sRGB;color-interpolation-filters:linearRGB;solid-color:#000000;solid-opacity:1;vector-effect:none;fill:#ffffff;fill-opacity:0.98863639;fill-rule:nonzero;stroke:none;stroke-width:1.5;stroke-linecap:butt;stroke-linejoin:miter;stroke-miterlimit:4;stroke-dasharray:none;stroke-dashoffset:0;stroke-opacity:1;marker:none;paint-order:stroke fill markers;filter:url(#filter983);color-rendering:auto;image-rendering:auto;shape-rendering:auto;text-rendering:auto;enable-background:accumulate"
       id="path84"
       cx="405.83536"
       cy="2462.1973"
       r="77.671844" />
    <circle
       style="color:#000000;clip-rule:nonzero;display:inline;overflow:visible;visibility:visible;opacity:1;isolation:auto;mix-blend-mode:normal;color-interpolation:sRGB;color-interpolation-filters:linearRGB;solid-color:#000000;solid-opacity:1;vector-effect:none;fill:#ffffff;fill-opacity:0.98863639;fill-rule:nonzero;stroke:none;stroke-width:1.5;stroke-linecap:butt;stroke-linejoin:miter;stroke-miterlimit:4;stroke-dasharray:none;stroke-dashoffset:0;stroke-opacity:1;marker:none;paint-order:stroke fill markers;filter:url(#filter983-3);color-rendering:auto;image-rendering:auto;shape-rendering:auto;text-rendering:auto;enable-background:accumulate"
       id="path84-7"
       cx="817.49609"
       cy="2456.3718"
       r="77.671844" />
    <circle
       style="color:#000000;clip-rule:nonzero;display:inline;overflow:visible;visibility:visible;opacity:1;isolation:auto;mix-blend-mode:normal;color-interpolation:sRGB;color-interpolation-filters:linearRGB;solid-color:#000000;solid-opacity:1;vector-effect:none;fill:#ffffff;fill-opacity:0.98863639;fill-rule:nonzero;stroke:none;stroke-width:1.5;stroke-linecap:butt;stroke-linejoin:miter;stroke-miterlimit:4;stroke-dasharray:none;stroke-dashoffset:0;stroke-opacity:1;marker:none;paint-order:stroke fill markers;filter:url(#filter983-5);color-rendering:auto;image-rendering:auto;shape-rendering:auto;text-rendering:auto;enable-background:accumulate"
       id="path84-5"
       cx="1293.2361"
       cy="2530.1602"
       r="77.671844" />
    <circle
       style="color:#000000;clip-rule:nonzero;display:inline;overflow:visible;visibility:visible;opacity:1;isolation:auto;mix-blend-mode:normal;color-interpolation:sRGB;color-interpolation-filters:linearRGB;solid-color:#000000;solid-opacity:1;vector-effect:none;fill:#ffffff;fill-opacity:0.98863639;fill-rule:nonzero;stroke:none;stroke-width:1.5;stroke-linecap:butt;stroke-linejoin:miter;stroke-miterlimit:4;stroke-dasharray:none;stroke-dashoffset:0;stroke-opacity:1;marker:none;paint-order:stroke fill markers;filter:url(#filter983-6);color-rendering:auto;image-rendering:auto;shape-rendering:auto;text-rendering:auto;enable-background:accumulate"
       id="path84-9"
       cx="1444.6963"
       cy="2530.1602"
       r="77.671844" />
  </g>
  <g
     inkscape:groupmode="layer"
     id="layer1"
     inkscape:label="txt">
    <text
       xml:space="preserve"
       style="font-style:normal;font-variant:normal;font-weight:normal;font-stretch:normal;line-height:0%;font-family:Lavi;-inkscape-font-specification:Lavi;text-align:center;letter-spacing:0px;word-spacing:0px;text-anchor:middle;fill:#000000;fill-opacity:1;stroke:none"
       x="380.51514"
       y="1276.4037"
       id="text4246"
       sodipodi:linespacing="0%"><tspan
         sodipodi:role="line"
         style="font-size:45px;line-height:1.20000005"
         x="380.51514"
         y="1276.4037"
         id="tspan873">Je sonje, Pepper,</tspan><tspan
         sodipodi:role="line"
         style="font-size:45px;line-height:1.20000005"
         x="387.67822"
         y="1330.4037"
         id="tspan6280"> je me sei trouey </tspan><tspan
         sodipodi:role="line"
         style="font-size:45px;line-height:1.20000005"
         x="380.51514"
         y="1384.4037"
         id="tspan6278">od tez marraenes.</tspan></text>
    <text
       xml:space="preserve"
       style="font-style:normal;font-variant:normal;font-weight:normal;font-stretch:normal;line-height:0%;font-family:Lavi;-inkscape-font-specification:Lavi;text-align:center;letter-spacing:0px;word-spacing:0px;text-anchor:middle;fill:#000000;fill-opacity:1;stroke:none"
       x="551.51831"
       y="2118.9434"
       id="text4246-3"
       sodipodi:linespacing="0%"><tspan
         sodipodi:role="line"
         style="font-size:45px;line-height:1.20000005"
         x="551.51831"
         y="2118.9434"
         id="tspan878">Il sont vrai</tspan><tspan
         sodipodi:role="line"
         style="font-size:45px;line-height:1.20000005"
         x="551.51831"
         y="2172.9434"
         id="tspan6309">« especiale ».</tspan></text>
    <text
       xml:space="preserve"
       style="font-style:normal;font-variant:normal;font-weight:normal;font-stretch:normal;font-size:24.34302139px;line-height:0%;font-family:Lavi;-inkscape-font-specification:Lavi;text-align:center;letter-spacing:0px;word-spacing:0px;text-anchor:middle;fill:#000000;fill-opacity:1;stroke:none;stroke-width:0.99999994"
       x="1522.0032"
       y="1199.5613"
       id="text4246-3-5"
       transform="matrix(0.91106211,0,-0.15422983,1.09762,0,0)"><tspan
         sodipodi:role="line"
         style="font-size:91.28633118px;line-height:1.20000005;stroke-width:0.99999994"
         x="1522.0032"
         y="1199.5613"
         id="tspan872-2">!!!</tspan></text>
    <text
       xml:space="preserve"
       style="font-style:normal;font-variant:normal;font-weight:normal;font-stretch:normal;line-height:0%;font-family:Lavi;-inkscape-font-specification:Lavi;text-align:center;letter-spacing:0px;word-spacing:0px;text-anchor:middle;fill:#000000;fill-opacity:1;stroke:none"
       x="1570.0366"
       y="1223.6084"
       id="text4246-3-9"
       sodipodi:linespacing="0%"><tspan
         sodipodi:role="line"
         style="font-size:45px;line-height:1.20000005"
         x="1570.0366"
         y="1223.6084"
         id="tspan886">Je veuz dire,</tspan><tspan
         sodipodi:role="line"
         style="font-size:45px;line-height:1.20000005"
         x="1570.0366"
         y="1277.6084"
         id="tspan6303">t’as de la chance</tspan><tspan
         sodipodi:role="line"
         style="font-size:45px;line-height:1.20000005"
         x="1570.0366"
         y="1331.6084"
         id="tspan6305">hardiment.</tspan></text>
    <text
       xml:space="preserve"
       style="font-style:normal;font-variant:normal;font-weight:normal;font-stretch:normal;line-height:0%;font-family:Lavi;-inkscape-font-specification:Lavi;text-align:center;letter-spacing:0px;word-spacing:0px;text-anchor:middle;fill:#000000;fill-opacity:1;stroke:none"
       x="2169.0884"
       y="2033.5469"
       id="text4246-3-9-0"
       sodipodi:linespacing="0%"><tspan
         sodipodi:role="line"
         style="font-size:45px;line-height:1.20000005"
         x="2176.2515"
         y="2033.5469"
         id="tspan905">Je sei sure </tspan><tspan
         sodipodi:role="line"
         style="font-size:45px;line-height:1.20000005"
         x="2169.0884"
         y="2087.5469"
         id="tspan6326">q’il te laessent</tspan><tspan
         sodipodi:role="line"
         style="font-size:45px;line-height:1.20000005"
         x="2169.0884"
         y="2141.5469"
         id="tspan6320">faere a ton bada.</tspan></text>
    <text
       xml:space="preserve"
       style="font-style:normal;font-variant:normal;font-weight:normal;font-stretch:normal;line-height:0%;font-family:Lavi;-inkscape-font-specification:Lavi;text-align:center;letter-spacing:0px;word-spacing:0px;text-anchor:middle;fill:#000000;fill-opacity:1;stroke:none"
       x="611.8161"
       y="2368.4385"
       id="text4246-3-9-0-6"
       sodipodi:linespacing="0%"><tspan
         sodipodi:role="line"
         style="font-size:45px;line-height:1.20000005"
         x="611.8161"
         y="2368.4385"
         id="tspan918">Come de laesser chair</tspan><tspan
         sodipodi:role="line"
         style="font-size:45px;line-height:1.20000005"
         x="618.97919"
         y="2422.4385"
         id="tspan6350"> lez pozes oficiale </tspan><tspan
         sodipodi:role="line"
         style="font-size:45px;line-height:1.20000005"
         x="611.8161"
         y="2476.4385"
         id="tspan6348">e lez petaceriys</tspan><tspan
         sodipodi:role="line"
         style="font-size:45px;line-height:1.20000005"
         x="618.97919"
         y="2530.4385"
         id="tspan6352"> a peine de ren </tspan><tspan
         sodipodi:role="line"
         style="font-size:45px;line-height:1.20000005"
         x="611.8161"
         y="2584.4385"
         id="tspan6354">san se risqer den</tspan><tspan
         sodipodi:role="line"
         style="font-size:45px;line-height:1.20000005"
         x="611.8161"
         y="2638.4385"
         id="tspan6356"> ûne malbaçadey.</tspan></text>
    <text
       xml:space="preserve"
       style="font-style:normal;font-variant:normal;font-weight:normal;font-stretch:normal;line-height:0%;font-family:Lavi;-inkscape-font-specification:Lavi;text-align:center;letter-spacing:0px;word-spacing:0px;text-anchor:middle;fill:#000000;fill-opacity:1;stroke:none"
       x="1364.0729"
       y="2373.8469"
       id="text4246-3-9-0-6-1"
       sodipodi:linespacing="0%"><tspan
         sodipodi:role="line"
         style="font-size:45px;line-height:1.20000005"
         x="1364.0729"
         y="2373.8469"
         id="tspan972">ou ben dancer</tspan><tspan
         sodipodi:role="line"
         style="font-size:45px;line-height:1.20000005"
         x="1371.236"
         y="2427.8469"
         id="tspan6376"> e drujer </tspan><tspan
         sodipodi:role="line"
         style="font-size:45px;line-height:1.20000005"
         x="1364.0729"
         y="2481.8469"
         id="tspan6372">san regarder</tspan><tspan
         sodipodi:role="line"
         style="font-size:45px;line-height:1.20000005"
         x="1364.0729"
         y="2535.8469"
         id="tspan6374">ez aotrs.</tspan></text>
    <text
       xml:space="preserve"
       style="font-style:normal;font-variant:normal;font-weight:normal;font-stretch:normal;line-height:0%;font-family:Lavi;-inkscape-font-specification:Lavi;text-align:center;letter-spacing:0px;word-spacing:0px;text-anchor:middle;fill:#000000;fill-opacity:1;stroke:none"
       x="1873.4949"
       y="2390.1528"
       id="text4246-3-9-0-6-1-0"
       sodipodi:linespacing="0%"><tspan
         sodipodi:role="line"
         style="font-size:45px;line-height:1.20000005"
         x="1873.4949"
         y="2390.1528"
         id="tspan942">ou ben pouair</tspan><tspan
         sodipodi:role="line"
         style="font-size:45px;line-height:1.20000005"
         x="1873.4949"
         y="2444.1528"
         id="tspan6391">goutir ez pllats</tspan><tspan
         sodipodi:role="line"
         style="font-size:45px;line-height:1.20000005"
         x="1880.658"
         y="2498.1528"
         id="tspan6387"> sus le bufet ao </tspan><tspan
         sodipodi:role="line"
         style="font-size:45px;line-height:1.20000005"
         x="1873.4949"
         y="2552.1528"
         id="tspan6395">devant du monde !</tspan></text>
  </g>
</svg>
