<?xml version="1.0" encoding="UTF-8" standalone="no"?>
<!-- Created with Inkscape (http://www.inkscape.org/) -->

<svg
   xmlns:dc="http://purl.org/dc/elements/1.1/"
   xmlns:cc="http://creativecommons.org/ns#"
   xmlns:rdf="http://www.w3.org/1999/02/22-rdf-syntax-ns#"
   xmlns:svg="http://www.w3.org/2000/svg"
   xmlns="http://www.w3.org/2000/svg"
   xmlns:xlink="http://www.w3.org/1999/xlink"
   xmlns:sodipodi="http://sodipodi.sourceforge.net/DTD/sodipodi-0.dtd"
   xmlns:inkscape="http://www.inkscape.org/namespaces/inkscape"
   id="svg2"
   version="1.1"
   inkscape:version="0.92.3 (unknown)"
   width="2481"
   height="3503"
   sodipodi:docname="E32P02.svg">
  <metadata
     id="metadata8">
    <rdf:RDF>
      <cc:Work
         rdf:about="">
        <dc:format>image/svg+xml</dc:format>
        <dc:type
           rdf:resource="http://purl.org/dc/dcmitype/StillImage" />
        <dc:title />
      </cc:Work>
    </rdf:RDF>
  </metadata>
  <defs
     id="defs6" />
  <sodipodi:namedview
     pagecolor="#ffffff"
     bordercolor="#666666"
     borderopacity="1"
     objecttolerance="10"
     gridtolerance="10"
     guidetolerance="10"
     inkscape:pageopacity="0"
     inkscape:pageshadow="2"
     inkscape:window-width="3840"
     inkscape:window-height="1899"
     id="namedview4"
     showgrid="false"
     inkscape:zoom="0.46000001"
     inkscape:cx="644.72849"
     inkscape:cy="1046.0395"
     inkscape:window-x="0"
     inkscape:window-y="55"
     inkscape:window-maximized="1"
     inkscape:current-layer="layer1"
     inkscape:snap-global="false" />
  <g
     inkscape:groupmode="layer"
     id="layer2"
     inkscape:label="artwork"
     sodipodi:insensitive="true">
    <image
       sodipodi:absref="/home/thomas/Dropbox/Egne filer (udelt)/PepperGulrot/webcomics-master-ep32_The-Battlefield-lang/webcomics-master-ep32_The-Battlefield-lang/ep32_The-Battlefield/lang/no/../gfx_Pepper-and-Carrot_by-David-Revoy_E32P02.png"
       xlink:href="../gfx_Pepper-and-Carrot_by-David-Revoy_E32P02.png"
       width="2481"
       height="3503"
       id="image10"
       x="0"
       y="0" />
  </g>
  <g
     inkscape:groupmode="layer"
     id="layer3"
     inkscape:label="speechbubbles"
     style="display:inline">
    <path
       style="color:#000000;display:inline;overflow:visible;visibility:visible;fill:#ffffff;fill-opacity:1;fill-rule:nonzero;stroke:none;stroke-width:0.99999994px;marker:none;enable-background:accumulate"
       d="m 297.26962,231.7097 c 5.69731,-11.91191 29.72345,-10.35714 38.22648,-6.88777 -16.10573,-15.76338 -14.47312,-24.29557 9.76762,-23.01859 -37.4462,-29.32322 -4.88683,-21.96956 2.36915,-27.58853 -30.69834,-12.03499 -15.24827,-21.19366 -8.34635,-31.23081 -36.40688,-4.31913 -22.46504,-20.09598 -22.39785,-33.85861 -3.84248,6.04503 -20.81334,23.87538 -19.14605,2.15371 -26.54291,18.01788 -57.15412,28.19627 -55.20142,-8.16064 -11.85648,17.11068 -22.44688,23.73765 -19.14611,2.1537 -27.39189,25.56728 -47.8246,13.0793 -68.64244,2.75558 -6.71746,7.88519 -8.92428,20.87834 -27.05057,15.81142 1.59794,8.71095 -5.32763,13.82885 -19.8303,15.74111 18.13184,7.12336 20.9647,12.74994 -14.483869,14.63056 26.402519,3.41721 50.951029,7.21359 17.626009,23.12231 9.68664,1.52313 34.69703,-12.05491 18.36885,33.84865 18.52879,-13.25277 37.38209,-19.63185 56.07244,14.36509 12.46716,-14.61943 31.78546,-20.42829 37.46624,0.13771 3.86722,-8.08563 16.16844,-9.94983 26.34024,-9.23486 3.52255,3.76064 7.02707,8.7291 10.54174,15.12224 8.35872,-11.71675 19.65621,-19.01709 37.46619,0.13773 z"
       id="path3549-3-7-5"
       inkscape:connector-curvature="0"
       sodipodi:nodetypes="cccccccccccccccccccc" />
    <path
       style="color:#000000;display:inline;overflow:visible;visibility:visible;fill:#ffffff;fill-opacity:1;fill-rule:nonzero;stroke:none;stroke-width:0.90038055px;marker:none;enable-background:accumulate"
       d="m 488.02539,117.04492 c -43.36645,1.3872 -87.07806,9.51496 -126.39412,28.37405 -27.16622,13.98704 -45.41393,42.51815 -49.09939,72.58419 -4.40338,28.23568 -0.12028,58.39433 14.89077,82.99821 10.22415,13.84081 25.81988,21.96458 40.31304,30.52003 23.89633,14.30829 49.69504,26.62403 77.52826,30.55502 31.47768,5.19976 63.53486,4.01527 95.26928,2.58956 28.57369,-2.14058 57.49759,-9.02478 81.77996,-24.77181 26.47283,-16.7871 47.47006,-43.16897 55.02079,-73.86292 6.77172,-26.96736 4.13917,-56.89816 -10.24414,-81.02344 C 655.5035,165.85138 636.06472,152.7485 615.53147,144.71888 580.56021,130.50081 543.8185,119.2794 505.91276,117.257 c -5.95564,-0.31714 -11.92611,-0.42708 -17.88737,-0.21208 z"
       id="path3970-3"
       inkscape:connector-curvature="0"
       sodipodi:nodetypes="cccscsc" />
    <path
       style="color:#000000;display:inline;overflow:visible;visibility:visible;fill:#ffffff;fill-opacity:1;fill-rule:nonzero;stroke:none;stroke-width:1px;marker:none;enable-background:accumulate"
       d="m 577.63531,468.51204 c 24.15675,-46.43871 15.15598,-67.79787 10.19676,-83.83511 -5.04081,0.18752 -14.08073,-1.23448 -14.08073,-1.23448 0,0 -7.00281,-32.37916 -13.50272,-43.8635 -6.49993,-11.48435 -19.9552,-4.33851 -19.9552,-4.33851 0,0 12.13026,63.2638 10.96525,77.57434 13.78917,-1.09946 20.70461,0.20644 25.45323,-2.31613 5.66701,8.19382 8.96155,41.29633 0.92341,58.01339 z"
       id="path4456-8"
       inkscape:connector-curvature="0" />
    <path
       style="color:#000000;display:inline;overflow:visible;visibility:visible;opacity:1;fill:#ffffff;fill-opacity:1;fill-rule:nonzero;stroke:none;stroke-width:0.93505698px;marker:none;enable-background:accumulate"
       d="m 764.98569,625.23467 c 36.24147,-45.16756 255.17561,-59.34939 314.13471,13.30349 41.0887,50.6312 30.4695,130.36782 -9.9803,173.00242 -39.1959,41.31286 -205.24946,32.39541 -253.57526,19.52271 -43.45719,-11.57441 -89.07188,-36.48936 -91.47678,-102.80163 -0.98142,-27.064 4.65617,-57.85944 40.89763,-103.02699 z"
       id="path4040-5"
       inkscape:connector-curvature="0"
       sodipodi:nodetypes="zssssz" />
    <path
       style="color:#000000;display:inline;overflow:visible;visibility:visible;fill:#ffffff;fill-opacity:1;fill-rule:nonzero;stroke:none;stroke-width:1px;marker:none;enable-background:accumulate"
       d="m 1172.2087,638.16525 c -22.426,10.78245 -21.9205,17.27525 -23.5228,31.76828 -1.6032,14.49315 -6.5002,31.6111 -27.1248,48.30404 -30.1996,17.58679 -94.1328,69.98654 -71.7029,5.83439 5.3345,-23.46958 48.5109,-22.99772 64.4153,-32.38817 15.9045,-9.39055 14.6245,-34.55514 25.6984,-44.48017 11.0738,-9.92492 18.2375,-9.80409 32.2368,-9.03837 z"
       id="path4538-0"
       inkscape:connector-curvature="0"
       sodipodi:nodetypes="ccccccc" />
    <path
       style="fill:#ffffff;stroke:none;stroke-width:0.99999994"
       d="m 742.10595,540.16433 c -9.45735,-38.80164 16.27356,-88.11058 131.74823,-88.14796 121.27091,-0.0389 143.66602,25.32295 145.05722,89.39769 1.7746,81.72984 -66.59841,84.82282 -138.21731,86.44662 -110.03114,2.49471 -137.99564,-30.03767 -138.58814,-87.69635 z"
       id="path3280-10"
       inkscape:connector-curvature="0"
       sodipodi:nodetypes="csssc" />
    <path
       style="display:inline;fill:#ffffff;fill-rule:evenodd;stroke:none;stroke-width:1px;stroke-linecap:butt;stroke-linejoin:miter;stroke-opacity:1"
       d="m 1440.0581,2558.7383 c 1.2088,83.556 -38.8981,98.1743 -109.3086,62.2285 21.5592,50.8236 46.6813,105.7613 -8.5733,67.8848 35.7627,46.1464 20.652,57.7631 -30.0062,45.2558 44.9382,42.4785 19.7012,66.0928 -23.5764,84.8555 29.0106,0.6495 52.5981,3.6856 70.502,9.2207 -30.0541,12.3695 -55.3334,11.9323 -55.3334,11.9323 0,0 28.9194,9.4949 42.0272,21.61 4.9919,8.6293 -1.2445,19.5993 -27.6823,2.4279 0,0 7.4791,10.8395 10.6324,16.8816 -8.4561,-1.392 -15.4634,-6.5084 -38.8739,-22.5706 26.7659,27.9782 40.0185,49.5137 1.687,46.461 18.3163,20.7761 5.2437,23.3642 -15.7384,21.3652 34.9108,15.2284 16.0774,17.3687 21.3816,22.7402 8.8581,49.9862 -31.5344,36.7455 -48.4252,46.1723 86.2546,28.4818 56.1553,40.1481 47.1053,54.8574 59.4747,-4.1188 -14.0107,49.8315 -33.2096,87.9182 45.2811,-34.7278 76.7925,-57.5369 58.2355,-10.0041 49.0306,-42.059 40.6013,-22.1564 26.9214,3.4082 28.1593,-22.9597 36.3942,-13.5217 11.974,49.0117 36.503,-50.0042 93.7602,-105.4003 101.5722,-59.0101 40.9573,-23.0015 46.3406,-12.9656 50.1178,-1.4414 69.1472,-24.759 51.2709,-4.4182 55.6888,4.3711 14.8999,-1.1098 32.8148,-15.4504 38.7716,22.6914 22.9629,-28.2308 50.5208,-38.275 91.485,4.7304 15.948,-46.7456 30.4593,-37.1935 56.1616,21.3223 3.5911,-89.1587 84.6382,-80.9951 150.8938,-39.134 -18.0169,-55.2759 -30.5671,-62.5172 20.8756,-19.3574 -32.0622,-51.0007 -16.7411,-62.6312 31.6891,-46.7539 -41.1726,-47.5497 -15.345,-71.4639 27.7082,-89.3008 -22.2868,-1.7028 -41.1768,-4.8342 -56.55,-9.4472 -0.9264,-2.69 6.535,-10.5879 29.1669,-13.5832 -31.7482,0 -28.4136,-4.1096 -26.7427,-14.0612 2.5351,-9.9516 14.6962,-7.4757 53.3077,-0.9377 -22.5219,-14.4681 -65.6041,-30.8829 -18.1797,-33.9063 -24.7776,-12.7672 -0.6685,-24.394 58.8113,-35.9679 -50.7918,1.2155 -102.5544,-35.6771 -62.9823,-34.6754 -19.9709,-18.5446 -6.6759,-21.5953 15.0031,-20.7402 -36.7247,-12.554 -17.4817,-15.4673 -23.2295,-20.2344 -42.9008,-40.7819 8.5275,-26.7052 25.3728,-36.3379 -90.2339,-22.4665 -59.934,-34.8334 -51.4393,-49.0273 -60.9127,6.7273 31.5675,-74.4218 66.4424,-122.5704 -69.7197,65.1359 -112.9125,96.2647 -96.4487,50.9141 -48.091,41.7047 -40.5207,22.6848 -27.863,-1.8848 -27.6855,22.8335 -36.6696,14.4049 -15.0032,-45.2578 -34.776,48.5294 -68.7222,93.9211 -79.3023,50.9141 -40.8393,23.4915 -46.9231,14.3665 -51.4395,3.7715 -69.7212,26.498 -52.4625,6.6097 -57.4872,-1.3965 -15.2559,1.7582 -32.885,16.037 -41.1049,-19.3457 -22.0538,27.512 -49.8314,38.2388 -94.3055,0 -13.8252,44.4881 -37.1366,24.2932 -70.7292,-66 z"
       id="path4508-2"
       inkscape:connector-curvature="0"
       sodipodi:nodetypes="ccccccccccccccccccccccccccccccccccccccccccccccccccc" />
    <path
       style="color:#000000;display:inline;overflow:visible;visibility:visible;fill:#ffffff;fill-opacity:1;fill-rule:nonzero;stroke:none;stroke-width:0.99999988px;marker:none;enable-background:accumulate"
       d="m 1159.215,2912.3636 c 24.9289,15.9696 53.0046,32.3355 73.7186,51.7212 l -4.4671,-22.5612 c 12.3017,3.6243 20.5576,9.2984 29.8695,16.4802 l 0.282,-14.4184 c 28.8782,8.8394 47.895,25.3613 71.6781,38.17 l -1.1627,-32.9839 c -26.1704,-10.6456 -58.8089,-18.5611 -82.5747,-33.2158 l 0.2558,18.7223 c -9.1838,-4.1156 -21.518,-9.7867 -29.518,-15.5652 l 2.2339,19.9359 z"
       id="path4032-7"
       inkscape:connector-curvature="0"
       sodipodi:nodetypes="cccccccccccc" />
    <path
       style="fill:#ffffff;fill-rule:evenodd;stroke:none;stroke-width:1px;stroke-linecap:butt;stroke-linejoin:miter;stroke-opacity:1"
       d="m 1753.7087,204.34351 c 1.185,-20.50278 15.4056,-58.09068 36.7365,-64.92493 21.3308,-6.83426 80.5831,-6.83426 92.4336,-3.41661 11.8505,3.41661 30.8112,28.4752 35.5515,38.72712 4.7402,10.25086 17.7757,46.69954 -3.5551,61.50728 -21.3309,14.80774 -42.6617,26.19782 -65.1777,25.0586 -22.5159,-1.13922 -67.5477,-9.1127 -78.2131,-22.78016 -10.6654,-13.66852 -17.7757,-34.1713 -17.7757,-34.1713 z"
       id="path1355"
       inkscape:connector-curvature="0" />
    <path
       style="fill:#ffffff;stroke:none"
       d="m 1847.3696,354.09054 c -13.8328,-28.3217 -7.9502,-36.13851 -0.501,-44.49778 7.4497,-8.36018 15.1632,-15.13458 14.5125,-22.36198 -0.6506,-7.22728 -5.6372,-15.60621 -10.1839,-21.34253 -4.5468,-5.73632 4.0413,-9.66514 7.9076,-16.31667 3.8657,-6.6508 10.7042,-47.80659 10.7042,-47.80659 0,0 -26.0852,17.5715 -32.236,25.43439 -6.1509,7.86277 -8.4405,10.70667 -10.0173,14.51431 -1.5759,3.80696 -4.0646,13.75357 -0.9533,20.82655 3.1118,7.07218 9.494,12.21912 13.0595,17.0376 3.5649,4.81933 -1.3116,12.15392 -5.5827,19.6909 -4.2712,7.53691 -6.1414,13.7099 -2.3508,27.83912 3.2494,12.11102 15.6412,26.98268 15.6412,26.98268 z"
       id="path3023-4"
       inkscape:connector-curvature="0"
       sodipodi:nodetypes="csssscssssssc" />
    <path
       style="color:#000000;display:inline;overflow:visible;visibility:visible;fill:#ffffff;fill-opacity:1;fill-rule:nonzero;stroke:none;stroke-width:1px;marker:none;enable-background:accumulate"
       d="m 1776.3464,1315.529 c 3.2527,-11.321 20.627,-46.387 25.7118,-9.291 37.4381,-49.672 83.6395,-32.169 93.8806,-24.931 -4.7258,-14.705 4.8022,-41.137 32.0153,-34.638 -5.1706,-14.206 2.6362,-24.873 22.022,-32.381 -27.4731,-6.646 -33.2796,-15.291 15.0553,-28.938 -37.6389,2.046 -72.8702,2.901 -32.2408,-33.757 -13.9008,0.297 -43.8343,30.571 -36.8893,-51.608 -21.0909,27.809 -44.9596,44.128 -82.345,-7.637 -7.5628,22.215 -20.6761,37.852 -51.7969,10.837 -3.8196,21.757 -37.5549,26.216 -50.4824,22.884 27.6128,21.802 28.2717,36.657 -5.6527,41.671 61.708,38.345 14.2263,35.6 6.113,47.213 46.5049,11.207 28.2717,31.183 22.1502,50.136 51.7672,-3.483 37.8708,27.229 42.4589,50.44 z"
       id="path3549-3-8"
       inkscape:connector-curvature="0"
       sodipodi:nodetypes="ccccccccccccccc" />
    <path
       style="color:#000000;display:inline;overflow:visible;visibility:visible;fill:#ffffff;fill-opacity:1;fill-rule:nonzero;stroke:none;stroke-width:1px;marker:none;enable-background:accumulate"
       d="m 1862.3291,1246.0499 c 14.3861,24.2296 28.6134,53.9163 31.3484,61.3263 -9.104,1.8541 -16.3446,4.7584 -22.9617,5.3139 6.2417,13.3724 31.8119,68.3466 45.0873,79.3414 -33.7825,-25.8525 -61.563,-70.2493 -70.1237,-92.8544 8.499,-2.3387 14.007,-2.5569 18.4447,-3.9047 -3.7254,-11.4708 -23.6989,-46.1206 -23.6989,-46.1206 z"
       id="path5066-8"
       inkscape:connector-curvature="0"
       sodipodi:nodetypes="cccccccc" />
    <path
       style="fill:#ffffff;stroke:none;stroke-width:0.99999988"
       d="m 585.04713,1483.669 c -1.37338,-27.1718 23.25103,-95.1953 143.36788,-90.0791 120.11691,5.1162 157.71158,35.0056 161.23156,83.3044 5.56834,76.4076 -57.625,96.826 -148.365,102.4861 -93.54306,5.8339 -157.68622,-46.6144 -156.23444,-95.7114 z"
       id="path3280-7"
       inkscape:connector-curvature="0"
       sodipodi:nodetypes="csssc" />
    <path
       style="color:#000000;display:inline;overflow:visible;visibility:visible;fill:#ffffff;fill-opacity:1;fill-rule:nonzero;stroke:none;stroke-width:1px;marker:none;enable-background:accumulate"
       d="m 869.08895,1636.9955 c -67.24677,1.2844 -93.00504,-48.0053 -100.0269,-87.4546 -9.92573,-55.7646 -2.09042,-31.0329 -2.09042,-31.0329 l -33.99104,26.0816 c -4.43616,0.2077 36.58553,127.7062 136.10836,92.4059 z"
       id="path3072-12"
       inkscape:connector-curvature="0"
       sodipodi:nodetypes="csccc" />
    <path
       style="fill:#ffffff;fill-rule:evenodd;stroke:none;stroke-width:1px;stroke-linecap:butt;stroke-linejoin:miter;stroke-opacity:1"
       d="m 542.83913,1378.9971 c 1.0808,-19.455 14.0506,-55.122 33.5054,-61.607 19.4547,-6.485 73.4956,-6.485 84.3038,-3.242 10.8082,3.242 28.1013,27.02 32.4246,36.748 4.3233,9.727 16.2123,44.313 -3.2424,58.364 -19.4548,14.051 -38.9095,24.859 -59.4451,23.778 -20.5356,-1.081 -61.6067,-8.647 -71.334,-21.616 -9.7274,-12.97 -16.2123,-32.425 -16.2123,-32.425 z"
       id="path1355-3"
       inkscape:connector-curvature="0" />
  </g>
  <g
     inkscape:groupmode="layer"
     id="layer1"
     inkscape:label="txt">
    <text
       xml:space="preserve"
       style="font-style:normal;font-variant:normal;font-weight:normal;font-stretch:normal;line-height:0%;font-family:Lavi;-inkscape-font-specification:Lavi;text-align:center;letter-spacing:0px;word-spacing:0px;text-anchor:middle;fill:#000000;fill-opacity:1;stroke:none"
       x="219.87317"
       y="182.54718"
       id="text4246-3-3"><tspan
         sodipodi:role="line"
         style="font-style:normal;font-variant:normal;font-weight:bold;font-stretch:normal;font-size:45px;line-height:1.25;font-family:Lavi;-inkscape-font-specification:'Lavi Bold'"
         x="219.87317"
         y="182.54718"
         id="tspan67">Major!</tspan><tspan
         sodipodi:role="line"
         style="font-style:normal;font-variant:normal;font-weight:bold;font-stretch:normal;font-size:45px;line-height:1.25;font-family:Lavi;-inkscape-font-specification:'Lavi Bold'"
         x="219.87317"
         y="202.09991"
         id="tspan852" /></text>
    <text
       xml:space="preserve"
       style="font-style:normal;font-variant:normal;font-weight:normal;font-stretch:normal;line-height:0%;font-family:Lavi;-inkscape-font-specification:Lavi;text-align:center;letter-spacing:0px;word-spacing:0px;text-anchor:middle;fill:#000000;fill-opacity:1;stroke:none"
       x="498.49622"
       y="206.7603"
       id="text4246-3-5-9"><tspan
         sodipodi:role="line"
         style="font-size:45px;line-height:1.25"
         x="498.49622"
         y="206.7603"
         id="tspan868">Skaffet du</tspan><tspan
         sodipodi:role="line"
         style="font-size:45px;line-height:1.25"
         x="498.49622"
         y="263.01031"
         id="tspan869">en heks, slik</tspan><tspan
         sodipodi:role="line"
         style="font-size:45px;line-height:1.25"
         x="498.49622"
         y="319.26031"
         id="tspan877">jeg ba deg?</tspan></text>
    <text
       xml:space="preserve"
       style="font-style:normal;font-variant:normal;font-weight:normal;font-stretch:normal;line-height:0%;font-family:Lavi;-inkscape-font-specification:Lavi;text-align:center;letter-spacing:0px;word-spacing:0px;text-anchor:middle;fill:#000000;fill-opacity:1;stroke:none"
       x="883.4093"
       y="509.67288"
       id="text4246-1-6"><tspan
         sodipodi:role="line"
         style="font-style:normal;font-variant:normal;font-weight:normal;font-stretch:normal;font-size:45px;line-height:1.25;font-family:Lavi;-inkscape-font-specification:Lavi"
         x="883.4093"
         y="509.67288"
         id="tspan915">Ja,</tspan><tspan
         sodipodi:role="line"
         style="font-style:normal;font-variant:normal;font-weight:normal;font-stretch:normal;font-size:45px;line-height:1.25;font-family:Lavi;-inkscape-font-specification:Lavi"
         x="883.4093"
         y="565.92285"
         id="tspan881">min herre!</tspan></text>
    <text
       xml:space="preserve"
       style="font-style:normal;font-variant:normal;font-weight:normal;font-stretch:normal;line-height:0%;font-family:Lavi;-inkscape-font-specification:Lavi;text-align:center;letter-spacing:0px;word-spacing:0px;text-anchor:middle;display:inline;fill:#000000;fill-opacity:1;stroke:none"
       x="921.22192"
       y="680.36499"
       id="text4246-7-6-1-7-6-3-5"><tspan
         sodipodi:role="line"
         style="font-size:45px;line-height:1.25"
         x="921.22192"
         y="680.36499"
         id="tspan890">Hun står der...</tspan><tspan
         sodipodi:role="line"
         style="font-size:45px;line-height:1.25"
         x="921.22192"
         y="736.61499"
         id="tspan892">Ehm... rett ved</tspan><tspan
         sodipodi:role="line"
         style="font-size:45px;line-height:1.25"
         x="921.22192"
         y="792.86499"
         id="tspan900">siden av deg...</tspan></text>
    <text
       xml:space="preserve"
       style="font-style:normal;font-variant:normal;font-weight:normal;font-stretch:normal;font-size:15.90748692px;line-height:0%;font-family:Lavi;-inkscape-font-specification:Lavi;text-align:center;letter-spacing:0px;word-spacing:0px;text-anchor:middle;fill:#000000;fill-opacity:1;stroke:none;stroke-width:0.99999988"
       x="1859.6963"
       y="214.15907"
       id="text4246-86-3-3"
       transform="scale(0.98795945,1.0121873)"><tspan
         sodipodi:role="line"
         style="font-size:59.65306854px;line-height:1.20000005;stroke-width:0.99999988"
         x="1859.6963"
         y="214.15907"
         id="tspan1044-3"><tspan
           style="font-style:normal;font-variant:normal;font-weight:bold;font-stretch:normal;font-family:Lavi;-inkscape-font-specification:'Lavi Bold';stroke-width:0.99999988"
           id="tspan1046-9">...?</tspan></tspan></text>
    <text
       xml:space="preserve"
       style="font-style:normal;font-variant:normal;font-weight:normal;font-stretch:normal;line-height:0%;font-family:Lavi;-inkscape-font-specification:Lavi;text-align:center;letter-spacing:0px;word-spacing:0px;text-anchor:middle;fill:#000000;fill-opacity:1;stroke:none"
       x="622.40643"
       y="1389.9771"
       id="text4246-3-7-7-6-7-2-9-6-1-4"><tspan
         sodipodi:role="line"
         style="font-size:45px;line-height:1.20000005"
         x="622.40643"
         y="1389.9771"
         id="tspan1183-0">Hei!</tspan></text>
    <text
       xml:space="preserve"
       style="font-style:normal;font-variant:normal;font-weight:normal;font-stretch:normal;line-height:0%;font-family:Lavi;-inkscape-font-specification:Lavi;text-align:center;letter-spacing:0px;word-spacing:0px;text-anchor:middle;fill:#000000;fill-opacity:1;stroke:none"
       x="736.13556"
       y="1470.2469"
       id="text4246-7-5"><tspan
         sodipodi:role="line"
         style="font-size:45px;line-height:1.25"
         x="736.13556"
         y="1470.2469"
         id="tspan1089">Jeg er</tspan><tspan
         sodipodi:role="line"
         style="font-size:45px;line-height:1.25"
         x="736.13556"
         y="1526.4969"
         id="tspan914">Pepp...</tspan></text>
    <text
       xml:space="preserve"
       style="font-style:normal;font-variant:normal;font-weight:normal;font-stretch:normal;line-height:0%;font-family:Lavi;-inkscape-font-specification:Lavi;text-align:center;letter-spacing:0px;word-spacing:0px;text-anchor:middle;display:inline;fill:#000000;fill-opacity:1;stroke:none"
       x="2271.7188"
       y="1112.7358"
       id="text4246-2-3-1-3-9-9-7"
       transform="matrix(0.89365154,0,-0.19329856,1.1190044,0,0)"><tspan
         sodipodi:role="line"
         style="font-size:104.29582214px;line-height:1.25;letter-spacing:-5px"
         x="2269.2188"
         y="1112.7358"
         id="tspan4161-6">?!!</tspan></text>
    <text
       xml:space="preserve"
       style="font-style:normal;font-variant:normal;font-weight:normal;font-stretch:normal;font-size:28.73172379px;line-height:0%;font-family:Lavi;-inkscape-font-specification:Lavi;text-align:center;letter-spacing:29.10897446px;word-spacing:0px;text-anchor:middle;fill:#000000;fill-opacity:1;stroke:none;stroke-width:1"
       x="2303.9653"
       y="2642.1401"
       id="text4246-6-6-3-6"
       transform="matrix(0.94427779,0,-0.21829887,1.0590104,0,0)"><tspan
         sodipodi:role="line"
         style="font-style:normal;font-variant:normal;font-weight:bold;font-stretch:normal;font-size:107.74396515px;line-height:1.20000005;font-family:Lavi;-inkscape-font-specification:'Lavi Bold';letter-spacing:4px;stroke-width:1"
         x="2305.9653"
         y="2642.1401"
         id="tspan4252-00-4-7-3">IDIOT!!!</tspan></text>
    <text
       xml:space="preserve"
       style="font-style:normal;font-variant:normal;font-weight:normal;font-stretch:normal;font-size:14.11471462px;line-height:0%;font-family:Lavi;-inkscape-font-specification:Lavi;text-align:center;letter-spacing:14.30004215px;word-spacing:0px;text-anchor:middle;fill:#000000;fill-opacity:1;stroke:none;stroke-width:1"
       x="1683.9858"
       y="2730.9927"
       id="text4246-6-3"
       transform="scale(0.94973823,1.0529217)"><tspan
         sodipodi:role="line"
         style="font-style:normal;font-variant:normal;font-weight:bold;font-stretch:normal;font-size:52.9301796px;line-height:1.20000005;font-family:Lavi;-inkscape-font-specification:'Lavi Bold';letter-spacing:0.90000004px;stroke-width:1"
         x="1684.4358"
         y="2730.9927"
         id="tspan918">Hun er jo bare</tspan><tspan
         sodipodi:role="line"
         style="font-style:normal;font-variant:normal;font-weight:bold;font-stretch:normal;font-size:52.9301796px;line-height:1.20000005;font-family:Lavi;-inkscape-font-specification:'Lavi Bold';letter-spacing:0.90000004px;stroke-width:1"
         x="1684.4358"
         y="2794.5088"
         id="tspan930">barnet?!</tspan></text>
    <text
       xml:space="preserve"
       style="font-style:normal;font-variant:normal;font-weight:normal;font-stretch:normal;font-size:14.11471462px;line-height:0%;font-family:Lavi;-inkscape-font-specification:Lavi;text-align:center;letter-spacing:14.30004215px;word-spacing:0px;text-anchor:middle;fill:#000000;fill-opacity:1;stroke:none;stroke-width:1"
       x="1689.1677"
       y="2859.0725"
       id="text4246-6-3-4"
       transform="scale(0.94973823,1.0529217)"><tspan
         sodipodi:role="line"
         style="font-style:normal;font-variant:normal;font-weight:bold;font-stretch:normal;font-size:52.9301796px;line-height:1.20000005;font-family:Lavi;-inkscape-font-specification:'Lavi Bold';letter-spacing:0.90000004px;stroke-width:1"
         x="1689.6177"
         y="2859.0725"
         id="tspan922">Jeg trenger en orntli'</tspan><tspan
         sodipodi:role="line"
         style="font-style:normal;font-variant:normal;font-weight:bold;font-stretch:normal;font-size:52.9301796px;line-height:1.20000005;font-family:Lavi;-inkscape-font-specification:'Lavi Bold';letter-spacing:0.90000004px;stroke-width:1"
         x="1689.6177"
         y="2922.5886"
         id="tspan934">krigerheks!</tspan></text>
  </g>
</svg>
