{
   "id": 0,
   "original-language": "en",
   "supporters": 0,
   "published": "2017-12-15",
   "pluxmlID": 0,
   "background-color": "#FFFFFF",
   "credits": {
      "art":[
         "David Revoy"
      ],
      "scenario":[
         "David Revoy"
      ]
   },
   "software":[
      {
         "name": "Krita"
      }
   ]
}
