<?xml version="1.0" encoding="UTF-8" standalone="no"?>
<svg
   xmlns:dc="http://purl.org/dc/elements/1.1/"
   xmlns:cc="http://creativecommons.org/ns#"
   xmlns:rdf="http://www.w3.org/1999/02/22-rdf-syntax-ns#"
   xmlns:svg="http://www.w3.org/2000/svg"
   xmlns="http://www.w3.org/2000/svg"
   xmlns:xlink="http://www.w3.org/1999/xlink"
   xmlns:sodipodi="http://sodipodi.sourceforge.net/DTD/sodipodi-0.dtd"
   xmlns:inkscape="http://www.inkscape.org/namespaces/inkscape"
   id="svg2"
   version="1.1"
   inkscape:version="1.0 (4035a4fb49, 2020-05-01)"
   width="2481"
   height="3503"
   sodipodi:docname="E28P07.svg">
  <metadata
     id="metadata8">
    <rdf:RDF>
      <cc:Work
         rdf:about="">
        <dc:format>image/svg+xml</dc:format>
        <dc:type
           rdf:resource="http://purl.org/dc/dcmitype/StillImage" />
        <dc:title />
      </cc:Work>
    </rdf:RDF>
  </metadata>
  <defs
     id="defs6" />
  <sodipodi:namedview
     pagecolor="#ffffff"
     bordercolor="#666666"
     borderopacity="1"
     objecttolerance="10"
     gridtolerance="10"
     guidetolerance="10"
     inkscape:pageopacity="0"
     inkscape:pageshadow="2"
     inkscape:window-width="1871"
     inkscape:window-height="1056"
     id="namedview4"
     showgrid="false"
     inkscape:zoom="0.38319192"
     inkscape:cx="1295.4224"
     inkscape:cy="969.82883"
     inkscape:window-x="49"
     inkscape:window-y="24"
     inkscape:window-maximized="1"
     inkscape:current-layer="layer1"
     inkscape:document-rotation="0" />
  <g
     inkscape:groupmode="layer"
     id="layer2"
     inkscape:label="artwork"
     sodipodi:insensitive="true">
    <image
       sodipodi:absref="C:\Users\stero\Documents\Kernewek\Pepper and Carrot\webcomics\ep28_The-Festivities\lang\gfx_Pepper-and-Carrot_by-David-Revoy_E28P07.png"
       xlink:href="../gfx_Pepper-and-Carrot_by-David-Revoy_E28P07.png"
       width="2481"
       height="3503"
       id="image10"
       x="0"
       y="0" />
  </g>
  <g
     inkscape:groupmode="layer"
     id="layer3"
     inkscape:label="speechbubbles">
    <path
       style="fill:#ffffff;fill-rule:evenodd;stroke:none;stroke-width:1.08203px;stroke-linecap:butt;stroke-linejoin:miter;stroke-opacity:1"
       d="m 139.4599,125.81206 c 58.20387,-45.021404 160.13208,-44.889715 216.01266,-43.762263 55.88058,1.127451 192.35159,0.03126 224.826,27.633963 32.4744,27.60273 53.81219,29.95805 52.90585,91.53405 -0.90633,61.57602 -14.50788,92.09875 -52.76262,122.12406 -38.25473,30.02532 -189.60263,36.59582 -232.36316,37.6579 -42.76053,1.06208 -149.5344,-4.94184 -182.03715,-30.62031 -32.50273,-25.67844 -61.40681,-72.45735 -59.19681,-110.90919 2.21002,-38.45184 14.2813,-76.70473 32.61523,-93.65821 z"
       id="path1035"
       inkscape:connector-curvature="0" />
    <path
       style="fill:#ffffff;fill-rule:evenodd;stroke:none;stroke-width:1px;stroke-linecap:butt;stroke-linejoin:miter;stroke-opacity:1"
       d="m 196.4271,253.96422 c -32.89449,39.47339 -40.41323,56.39055 -51.69134,74.24756 -11.27811,17.85701 -8.45859,59.21009 6.57889,70.4882 15.03749,11.27811 23.49607,17.857 15.97733,33.83433 -7.51874,15.97732 -7.37083,33.58627 -0.79194,42.9847 6.5789,9.39842 29.92706,24.68396 29.92706,24.68396 0,0 -21.13136,-17.00501 -23.34412,-22.26143 -3.75295,-8.91514 -2.08603,-20.48379 2.61318,-28.94238 4.69922,-8.45858 19.28439,-35.64147 -2.76513,-53.11871 -14.61974,-11.58813 -21.61638,-35.71402 -1.87968,-65.78898 19.73669,-30.07496 90.22489,-81.76631 90.22489,-81.76631 z"
       id="path1037"
       inkscape:connector-curvature="0"
       sodipodi:nodetypes="csssccscsscc" />
    <path
       style="fill:#ffffff;fill-rule:evenodd;stroke:none;stroke-width:1.1523px;stroke-linecap:butt;stroke-linejoin:miter;stroke-opacity:1"
       d="m 115.75391,957.56102 c 23.75846,-70.87399 63.0316,-77.69329 122.76482,-82.58907 59.73321,-4.89578 275.30748,-13.37551 327.80031,5.47753 52.49281,18.85301 67.13552,42.78349 82.31658,90.30006 13.23034,41.41086 17.06604,128.80376 4.39536,158.42446 -12.67068,29.6212 -34.49123,67.6654 -88.79415,70.6689 -54.30291,3.0036 -320.90775,4.6931 -353.48949,4.1073 -32.58176,-0.5857 -96.03444,-19.7641 -108.70521,-73.7198 -12.67069,-53.9553 -10.046696,-101.7954 13.71178,-172.66938 z"
       id="path1039"
       inkscape:connector-curvature="0"
       sodipodi:nodetypes="zsssccssz" />
    <path
       style="fill:#ffffff;fill-rule:evenodd;stroke:none;stroke-width:1px;stroke-linecap:butt;stroke-linejoin:miter;stroke-opacity:1"
       d="m 197.23517,923.5374 c -17.7664,-36.95411 -18.47706,-61.82707 -3.55328,-69.64429 14.92378,-7.81721 21.31968,-12.7918 12.79181,-21.31968 -8.52787,-8.52787 -16.34509,-27.71558 -9.94919,-39.08608 6.39591,-11.37049 16.34509,-17.05574 26.29428,-18.47705 -15.63444,9.23852 -19.89837,17.05574 -19.18772,25.58361 0.71066,8.52787 2.84263,19.18771 12.79181,25.58362 9.94919,6.3959 23.45165,22.74099 2.13197,39.08608 -21.31968,16.34509 43.35002,66.09101 43.35002,66.09101 z"
       id="path1041"
       inkscape:connector-curvature="0" />
    <path
       style="fill:#ffffff;fill-rule:evenodd;stroke:none;stroke-width:0.859785px;stroke-linecap:butt;stroke-linejoin:miter;stroke-opacity:1"
       d="m 1809.7218,188.73057 c 8.0013,-30.89516 25.7822,-41.58964 37.3396,-43.96619 11.5575,-2.37655 40.8958,1.18827 57.7875,2.37655 16.8918,1.18827 68.4561,1.18827 72.9012,0 4.4453,-1.18828 78.2355,7.12965 88.904,4.7531 10.6685,-2.37655 37.4342,-4.4733 49.8807,-2.09675 12.4466,2.37655 32.8946,20.20068 34.6726,29.70689 1.778,9.5062 6.1287,25.86225 2.5725,41.30983 -3.5561,15.44758 -24.8931,32.08343 -46.23,40.40137 -21.337,8.31792 -82.6806,1.18827 -91.571,-1.18829 -8.8905,-2.37654 -40.8958,-10.69447 -58.6766,-5.94136 -17.7808,4.75309 -68.456,11.88274 -96.0162,7.12965 -27.5602,-4.75311 -50.6752,-19.01241 -51.5643,-33.27171 -0.889,-14.25931 -2.6672,-10.69448 0,-39.21309 z"
       id="path1043"
       inkscape:connector-curvature="0"
       sodipodi:nodetypes="csscssccsccscc" />
    <path
       style="fill:#ffffff;fill-rule:evenodd;stroke:none;stroke-width:1px;stroke-linecap:butt;stroke-linejoin:miter;stroke-opacity:1"
       d="m 1944.3016,233.0595 c -22.8961,17.75617 -71.9593,58.40848 -78.0338,64.01569 -6.0744,5.60722 -9.8126,23.83066 4.2055,19.15798 14.018,-4.67267 32.2414,-13.0835 37.8487,-14.01803 5.6072,-0.93454 9.8126,-1.86907 13.5507,-1.4018 -18.2234,4.20541 -68.2211,21.49432 -96.7244,92.51903 35.5123,-65.4175 80.37,-77.0992 89.2481,-80.37007 8.8781,-3.27088 23.8307,-7.47629 24.298,-14.95257 0.4672,-7.47629 -9.8127,-14.95257 -27.5688,-10.27989 22.4288,-13.08351 59.343,-45.32499 73.8283,-45.32499 14.4853,0 -40.6523,-9.34535 -40.6523,-9.34535 z"
       id="path1045"
       inkscape:connector-curvature="0" />
    <path
       style="fill:#ffffff;fill-rule:evenodd;stroke:none;stroke-width:1.04479074px;stroke-linecap:butt;stroke-linejoin:miter;stroke-opacity:1"
       d="m 210.95062,1362.7906 c 37.22801,-28.0194 50.02516,-26.1515 65.14906,-28.9534 15.12387,-2.8018 130.29809,-6.5378 152.40224,-4.6699 22.10415,1.8681 120.9911,9.3398 152.40226,35.4912 31.41113,26.1515 61.65892,48.5669 58.1688,87.794 -3.49014,39.2271 -12.79715,110.2096 -33.73791,133.5589 -20.94078,23.3495 -66.31243,39.2272 -117.50097,47.633 -51.18855,8.4058 -198.93731,-3.7359 -221.04145,-5.6039 -22.10414,-1.8679 -75.61944,-19.6136 -93.07006,-42.963 -17.45065,-23.3495 -43.04493,-75.6523 -34.90129,-110.2095 8.14363,-34.5571 27.92102,-81.2562 72.12932,-112.0774 z"
       id="path1047"
       inkscape:connector-curvature="0" />
    <path
       style="fill:#ffffff;fill-rule:evenodd;stroke:none;stroke-width:1px;stroke-linecap:butt;stroke-linejoin:miter;stroke-opacity:1"
       d="m 271.50243,1608.4597 c 44.91316,-22.9051 72.62553,-25.7681 98.4267,-27.6769 25.80118,-1.9088 84.09273,0.9543 111.8051,13.3612 27.71238,12.4069 46.82436,36.2663 53.51355,48.6732 6.68919,12.4068 12.42279,52.4905 1.9112,70.6237 -10.51159,18.133 -45.86876,44.8555 -66.89194,53.4449 -21.02317,8.5894 -113.71629,11.4525 -151.94025,0 -38.22397,-11.4525 -65.93634,-29.5856 -75.49234,-55.3537 -9.55599,-25.7681 -9.55599,-82.0762 28.66798,-103.0724 z"
       id="path1049"
       inkscape:connector-curvature="0" />
    <path
       style="fill:#ffffff;fill-rule:evenodd;stroke:none;stroke-width:1px;stroke-linecap:butt;stroke-linejoin:miter;stroke-opacity:1"
       d="m 571.51827,1489.8102 c 22.69719,-37.8287 85.61623,-110.0078 124.52571,-129.4625 38.90949,-19.4548 94.88053,-25.0946 113.25446,-22.933 15.70987,1.7353 35.90084,19.0754 55.12176,42.152 -15.13146,-30.263 -47.25978,-48.6478 -52.66387,-49.7286 -18.40862,-4.2887 -108.87383,-25.5751 -222.35983,69.5369 -113.48599,95.1121 -51.38362,121.779 -51.38362,121.779 z"
       id="path1051"
       inkscape:connector-curvature="0"
       sodipodi:nodetypes="cccccscc" />
    <path
       style="fill:#ffffff;fill-rule:evenodd;stroke:none;stroke-width:0.94600838px;stroke-linecap:butt;stroke-linejoin:miter;stroke-opacity:1"
       d="m 165.3529,2222.383 c -1.5114,-31.4542 28.71667,-42.3423 54.41053,-45.9716 25.69386,-3.6294 114.86667,-3.6294 129.9807,-1.2098 15.11403,2.4195 104.28684,0 122.42368,1.2098 18.13684,1.2097 77.08157,9.6782 87.66141,31.4543 10.57982,21.776 25.69385,27.8249 10.57982,48.3912 -15.11404,20.5663 -33.25088,38.713 -95.21843,43.5521 -61.96753,4.8392 -194.97104,1.2098 -250.89297,-10.888 -55.92193,-12.0978 -58.94474,-36.2934 -58.94474,-66.538 z"
       id="path1053"
       inkscape:connector-curvature="0" />
    <path
       style="fill:#ffffff;fill-rule:evenodd;stroke:none;stroke-width:1px;stroke-linecap:butt;stroke-linejoin:miter;stroke-opacity:1"
       d="m 348.19942,2246.5661 c -29.42116,45.7663 -39.16091,33.6645 -43.24718,61.4512 -4.08627,27.7866 9.73975,53.7817 22.81582,64.406 13.07607,10.6243 34.32468,25.3349 15.52783,41.68 -18.79685,16.3451 -40.04547,26.1521 -35.95919,72.7356 4.08627,46.5835 21.24861,49.0353 27.78665,53.1215 -25.33489,-10.1025 -30.23842,-73.5529 -15.52784,-93.167 14.71058,-19.6141 16.91712,-15.0754 32.69018,-26.1521 13.88076,-9.7478 27.00207,-30.3114 -3.85728,-57.4442 -30.85936,-27.1329 -14.46952,-78.6996 28.77766,-101.4055 85.22691,-44.7462 -29.00665,-15.2255 -29.00665,-15.2255 z"
       id="path1055"
       inkscape:connector-curvature="0"
       sodipodi:nodetypes="csssscsszsc" />
    <path
       style="fill:#ffffff;fill-rule:evenodd;stroke:none;stroke-width:0.99320918px;stroke-linecap:butt;stroke-linejoin:miter;stroke-opacity:1"
       d="m 809.43922,2233.5425 c 25.53242,-51.8725 53.52609,-57.7001 91.72949,-65.9004 82.78977,-9.5251 153.09259,3.1037 232.52299,0.297 41.1247,-1.5256 97.2884,19.8337 115.6921,47.2955 18.404,27.4619 46.8394,109.8475 40.321,135.7837 -6.5184,25.9363 -18.5233,94.5911 -46.1203,112.8989 -27.597,18.3079 -47.9854,35.0903 -94.6021,39.6673 -46.6167,4.5769 -223.47398,7.6283 -244.82618,6.1026 -21.35224,-1.5257 -82.80266,-24.4106 -100.31685,-71.7061 -17.51419,-47.2954 -19.65884,-158.6686 5.59985,-204.4385 z"
       id="path1057"
       inkscape:connector-curvature="0"
       sodipodi:nodetypes="cccscssssc" />
    <path
       style="fill:#ffffff;fill-rule:evenodd;stroke:none;stroke-width:1px;stroke-linecap:butt;stroke-linejoin:miter;stroke-opacity:1"
       d="m 1078.5698,2470.4285 c 7.4155,31.516 12.9772,52.5267 19.7748,59.9423 6.7976,7.4155 22.8646,14.2131 33.3699,15.449 10.5054,1.236 21.0107,6.1796 6.1796,23.4826 -14.831,17.3029 -1.8538,54.9986 45.1112,57.4704 -46.965,-11.7413 -43.8752,-47.583 -27.8082,-54.3806 16.067,-6.7976 20.3927,-39.5496 -16.685,-50.6729 -32.752,-8.6514 -11.1233,-129.7719 -11.1233,-129.7719 z"
       id="path1059"
       inkscape:connector-curvature="0" />
  </g>
  <g
     inkscape:groupmode="layer"
     id="layer1"
     inkscape:label="txt"
     style="opacity:1">
    <text
       xml:space="preserve"
       style="font-style:normal;font-variant:normal;font-weight:normal;font-stretch:normal;line-height:0%;font-family:Lavi;-inkscape-font-specification:Lavi;text-align:center;letter-spacing:0px;word-spacing:0px;text-anchor:middle;fill:#000000;fill-opacity:1;stroke:none"
       x="375.40958"
       y="155.38466"
       id="text4246"><tspan
         sodipodi:role="line"
         style="font-size:45px;line-height:1.2"
         x="375.40958"
         y="155.38466"
         id="tspan825">Omglewans koynt</tspan><tspan
         sodipodi:role="line"
         style="font-size:45px;line-height:1.2"
         x="375.40958"
         y="209.38466"
         id="tspan58">yw bos res dhymm</tspan><tspan
         sodipodi:role="line"
         style="font-size:45px;line-height:1.2"
         x="375.40958"
         y="263.38467"
         id="tspan60">skolkya a-dro rag dybri</tspan><tspan
         sodipodi:role="line"
         style="font-size:45px;line-height:1.2"
         x="375.40958"
         y="317.38467"
         id="tspan62">boos.</tspan></text>
    <text
       xml:space="preserve"
       style="font-style:normal;font-variant:normal;font-weight:normal;font-stretch:normal;line-height:0%;font-family:Lavi;-inkscape-font-specification:Lavi;text-align:center;letter-spacing:0px;word-spacing:0px;text-anchor:middle;fill:#000000;fill-opacity:1;stroke:none"
       x="386.66486"
       y="943.6015"
       id="text4246-3"><tspan
         sodipodi:role="line"
         style="font-size:45px;line-height:1.2"
         x="386.66486"
         y="943.6015"
         id="tspan868">Mes agan dyskador a</tspan><tspan
         sodipodi:role="line"
         style="font-size:45px;line-height:1.2"
         x="386.66486"
         y="997.6015"
         id="tspan75">lever dhyn y tal dhyn</tspan><tspan
         sodipodi:role="line"
         style="font-size:45px;line-height:1.2"
         x="386.66486"
         y="1051.6016"
         id="tspan77">perthi semlans haval</tspan><tspan
         sodipodi:role="line"
         style="font-size:45px;line-height:1.2"
         x="386.66486"
         y="1105.6016"
         id="tspan87">orth spyrysyon pur heb</tspan><tspan
         sodipodi:role="line"
         style="font-size:45px;line-height:1.2"
         x="386.66486"
         y="1159.6016"
         id="tspan79">hwansow denel kemmyn.</tspan></text>
    <text
       xml:space="preserve"
       style="font-style:normal;font-variant:normal;font-weight:normal;font-stretch:normal;line-height:0%;font-family:Lavi;-inkscape-font-specification:Lavi;text-align:center;letter-spacing:0px;word-spacing:0px;text-anchor:middle;fill:#000000;fill-opacity:1;stroke:none"
       x="1989.1042"
       y="217.40169"
       id="text4246-3-3"><tspan
         sodipodi:role="line"
         style="font-size:45px;line-height:1.2"
         x="1989.1042"
         y="217.40169"
         id="tspan868-9">Ha! Ottahwi!</tspan></text>
    <text
       xml:space="preserve"
       style="font-style:normal;font-variant:normal;font-weight:normal;font-stretch:normal;line-height:0%;font-family:Lavi;-inkscape-font-specification:Lavi;text-align:center;letter-spacing:0px;word-spacing:0px;text-anchor:middle;fill:#000000;fill-opacity:1;stroke:none"
       x="391.99753"
       y="1404.5085"
       id="text4246-3-3-1"><tspan
         sodipodi:role="line"
         style="font-size:45px;line-height:1.2"
         x="391.99753"
         y="1404.5085"
         id="tspan928">Wortiwedh!</tspan><tspan
         sodipodi:role="line"
         style="font-size:45px;line-height:1.2"
         x="391.99753"
         y="1458.5085"
         id="tspan102">Neb le may hallav</tspan><tspan
         sodipodi:role="line"
         style="font-size:45px;line-height:1.2"
         x="391.99753"
         y="1512.5085"
         id="tspan104">mos rag avoydya an</tspan><tspan
         sodipodi:role="line"
         style="font-size:45px;line-height:1.2"
         x="391.99753"
         y="1566.5085"
         id="tspan106">skeusenoryon.</tspan></text>
    <text
       xml:space="preserve"
       style="font-style:normal;font-variant:normal;font-weight:normal;font-stretch:normal;line-height:0%;font-family:Lavi;-inkscape-font-specification:Lavi;text-align:center;letter-spacing:0px;word-spacing:0px;text-anchor:middle;fill:#000000;fill-opacity:1;stroke:none"
       x="390.59467"
       y="1680.9772"
       id="text4246-3-3-1-7"><tspan
         sodipodi:role="line"
         style="font-size:45px;line-height:1.2"
         x="390.59467"
         y="1680.9772"
         id="tspan966">I a'm gwra</tspan><tspan
         sodipodi:role="line"
         style="font-size:45px;line-height:1.2"
         x="390.59467"
         y="1734.9772"
         id="tspan114">fol.</tspan></text>
    <text
       xml:space="preserve"
       style="font-style:normal;font-variant:normal;font-weight:normal;font-stretch:normal;line-height:0%;font-family:Lavi;-inkscape-font-specification:Lavi;text-align:center;letter-spacing:0px;word-spacing:0px;text-anchor:middle;fill:#000000;fill-opacity:1;stroke:none"
       x="370.32666"
       y="2251.155"
       id="text4246-3-3-1-7-0"><tspan
         sodipodi:role="line"
         style="font-size:45px;line-height:1.2"
         x="370.32666"
         y="2251.155"
         id="tspan966-2">Skeusenoryon?</tspan></text>
    <text
       xml:space="preserve"
       style="font-style:normal;font-variant:normal;font-weight:normal;font-stretch:normal;line-height:0%;font-family:Lavi;-inkscape-font-specification:Lavi;text-align:center;letter-spacing:0px;word-spacing:0px;text-anchor:middle;fill:#000000;fill-opacity:1;stroke:none"
       x="1037.3441"
       y="2243.0564"
       id="text4246-3-3-1-7-0-6"><tspan
         sodipodi:role="line"
         style="font-size:45px;line-height:1.2"
         x="1037.3441"
         y="2243.0564"
         id="tspan1023">Assay avoydya</tspan><tspan
         sodipodi:role="line"
         style="font-size:45px;line-height:1.2"
         x="1037.3441"
         y="2297.0564"
         id="tspan134">dadhlow skwithus</tspan><tspan
         sodipodi:role="line"
         style="font-size:45px;line-height:1.2"
         x="1037.3441"
         y="2351.0564"
         id="tspan136">gans politegoryon</tspan><tspan
         sodipodi:role="line"
         style="font-size:45px;line-height:1.2"
         x="1037.3441"
         y="2405.0564"
         id="tspan138">ha'n dra ma</tspan><tspan
         sodipodi:role="line"
         style="font-size:45px;line-height:1.2"
         x="1037.3441"
         y="2459.0564"
         id="tspan140">war dha benn.</tspan></text>
    <text
       xml:space="preserve"
       style="font-style:normal;font-variant:normal;font-weight:normal;font-stretch:normal;font-size:13.6717px;line-height:0%;font-family:Lavi;-inkscape-font-specification:Lavi;text-align:center;letter-spacing:0px;word-spacing:0px;text-anchor:middle;fill:#ffffff;fill-opacity:0.431373;stroke:#ffffff;stroke-width:0.410156;stroke-miterlimit:4;stroke-dasharray:none;stroke-opacity:1"
       x="1673.4884"
       y="2527.4509"
       id="text4246-8"
       transform="matrix(0.89761483,-0.24846861,0.02683826,1.1066345,0,0)"><tspan
         sodipodi:role="line"
         style="font-size:35.0469px;line-height:1.25;fill:#ffffff;fill-opacity:0.431373;stroke:#ffffff;stroke-width:0.410156;stroke-miterlimit:4;stroke-dasharray:none;stroke-opacity:1"
         x="1673.4884"
         y="2527.4509"
         id="tspan1033">kravas</tspan><tspan
         sodipodi:role="line"
         style="font-size:35.0469px;line-height:1.25;fill:#ffffff;fill-opacity:0.431373;stroke:#ffffff;stroke-width:0.410156;stroke-miterlimit:4;stroke-dasharray:none;stroke-opacity:1"
         x="1673.4884"
         y="2571.2595"
         id="tspan118">kravas</tspan></text>
  </g>
</svg>
