<?xml version="1.0" encoding="UTF-8" standalone="no"?>
<!-- Created with Inkscape (http://www.inkscape.org/) -->

<svg
   xmlns:dc="http://purl.org/dc/elements/1.1/"
   xmlns:cc="http://creativecommons.org/ns#"
   xmlns:rdf="http://www.w3.org/1999/02/22-rdf-syntax-ns#"
   xmlns:svg="http://www.w3.org/2000/svg"
   xmlns="http://www.w3.org/2000/svg"
   xmlns:xlink="http://www.w3.org/1999/xlink"
   xmlns:sodipodi="http://sodipodi.sourceforge.net/DTD/sodipodi-0.dtd"
   xmlns:inkscape="http://www.inkscape.org/namespaces/inkscape"
   id="svg2"
   version="1.1"
   inkscape:version="0.92.4 (5da689c313, 2019-01-14)"
   width="2481"
   height="663"
   sodipodi:docname="E13P00.svg">
  <metadata
     id="metadata8">
    <rdf:RDF>
      <cc:Work
         rdf:about="">
        <dc:format>image/svg+xml</dc:format>
        <dc:type
           rdf:resource="http://purl.org/dc/dcmitype/StillImage" />
        <dc:title />
      </cc:Work>
    </rdf:RDF>
  </metadata>
  <defs
     id="defs6">
    <linearGradient
       id="linearGradient4561"
       inkscape:collect="always">
      <stop
         id="stop4563"
         offset="0"
         style="stop-color:#774e33;stop-opacity:1" />
      <stop
         id="stop4565"
         offset="1"
         style="stop-color:#ffd42a;stop-opacity:1" />
    </linearGradient>
    <linearGradient
       inkscape:collect="always"
       id="linearGradient4290">
      <stop
         style="stop-color:#e80000;stop-opacity:1"
         offset="0"
         id="stop4292" />
      <stop
         id="stop4298"
         offset="0.5"
         style="stop-color:#9e1900;stop-opacity:1;" />
      <stop
         style="stop-color:#2b0000;stop-opacity:1"
         offset="1"
         id="stop4294" />
    </linearGradient>
    <filter
       inkscape:menu-tooltip="Transparent plastic with deep colors"
       inkscape:menu="Bevels"
       inkscape:label="Pepper-title-style"
       style="color-interpolation-filters:sRGB;"
       id="filter4268">
      <feGaussianBlur
         in="SourceGraphic"
         result="result6"
         stdDeviation="0.20000000000000001"
         id="feGaussianBlur4270" />
      <feComposite
         in2="SourceGraphic"
         in="result6"
         operator="xor"
         id="feComposite4272" />
      <feGaussianBlur
         result="result2"
         stdDeviation="6.0001843317972341"
         id="feGaussianBlur4274" />
      <feComposite
         in2="SourceGraphic"
         operator="atop"
         result="result91"
         id="feComposite4276"
         stdDeviation="6" />
      <feComposite
         result="result4"
         in="result2"
         operator="xor"
         in2="result91"
         id="feComposite4278"
         stdDeviation="3.7000000000000002" />
      <feGaussianBlur
         in="result4"
         result="result3"
         stdDeviation="3.6962672811059902"
         id="feGaussianBlur4280" />
      <feSpecularLighting
         lighting-color="rgb(216,189,109)"
         in="result3"
         result="result5"
         specularExponent="35"
         specularConstant="3"
         surfaceScale="12"
         id="feSpecularLighting4282">
        <feDistantLight
           elevation="45"
           azimuth="235"
           id="feDistantLight4284" />
      </feSpecularLighting>
      <feComposite
         in2="result5"
         in="SourceGraphic"
         k3="0.7"
         k2="0.8"
         operator="arithmetic"
         result="result7"
         id="feComposite4286" />
      <feComposite
         in="result7"
         operator="in"
         in2="SourceGraphic"
         id="feComposite4288" />
    </filter>
    <linearGradient
       inkscape:collect="always"
       xlink:href="#linearGradient4290"
       id="linearGradient4327-3"
       gradientUnits="userSpaceOnUse"
       x1="1243.5789"
       y1="254.0174"
       x2="1240.9818"
       y2="421.95773"
       gradientTransform="translate(-300.09377,-152.28618)" />
    <filter
       inkscape:menu-tooltip="Transparent plastic with deep colors"
       inkscape:menu="Bevels"
       inkscape:label="Pepper-title-style"
       style="color-interpolation-filters:sRGB"
       id="filter4268-0">
      <feGaussianBlur
         in="SourceGraphic"
         result="result6"
         stdDeviation="0.20000000000000001"
         id="feGaussianBlur4270-9" />
      <feComposite
         in2="SourceGraphic"
         in="result6"
         operator="xor"
         id="feComposite4272-3" />
      <feGaussianBlur
         result="result2"
         stdDeviation="6.0001843317972341"
         id="feGaussianBlur4274-4" />
      <feComposite
         in2="SourceGraphic"
         operator="atop"
         result="result91"
         id="feComposite4276-3"
         stdDeviation="6" />
      <feComposite
         result="result4"
         in="result2"
         operator="xor"
         in2="result91"
         id="feComposite4278-2"
         stdDeviation="3.7000000000000002" />
      <feGaussianBlur
         in="result4"
         result="result3"
         stdDeviation="3.6962672811059902"
         id="feGaussianBlur4280-5" />
      <feSpecularLighting
         lighting-color="#d8bd6d"
         in="result3"
         result="result5"
         specularExponent="35"
         specularConstant="3"
         surfaceScale="12"
         id="feSpecularLighting4282-0">
        <feDistantLight
           elevation="45"
           azimuth="235"
           id="feDistantLight4284-6" />
      </feSpecularLighting>
      <feComposite
         k4="0"
         k1="0"
         in2="result5"
         in="SourceGraphic"
         k3="0.7"
         k2="0.8"
         operator="arithmetic"
         result="result7"
         id="feComposite4286-6" />
      <feComposite
         in="result7"
         operator="in"
         in2="SourceGraphic"
         id="feComposite4288-4" />
    </filter>
    <filter
       id="filter4140"
       style="color-interpolation-filters:sRGB;"
       inkscape:label="Dark And Glow"
       inkscape:menu="Shadows and Glows"
       inkscape:menu-tooltip="Darkens the edge with an inner blur and adds a flexible glow"
       height="1.5"
       y="-0.25">
      <feGaussianBlur
         id="feGaussianBlur4142"
         result="result6"
         stdDeviation="4.6710210876803542" />
      <feComposite
         stdDeviation="4.7000000000000002"
         id="feComposite4144"
         in2="result6"
         operator="atop"
         in="SourceGraphic"
         result="result8" />
      <feComposite
         id="feComposite4146"
         in="result8"
         in2="SourceAlpha"
         operator="over"
         result="result9" />
      <feColorMatrix
         id="feColorMatrix4148"
         result="result10"
         values="1 0 0 0 0 0 1 0 0 0 0 0 1 0 0 0 0 0 1 0 " />
      <feBlend
         id="feBlend4150"
         in2="result6"
         mode="normal"
         in="result10" />
    </filter>
    <linearGradient
       inkscape:collect="always"
       xlink:href="#linearGradient4290"
       id="linearGradient2304"
       x1="1529.4971"
       y1="-175.39542"
       x2="1532.4559"
       y2="103.37798"
       gradientUnits="userSpaceOnUse"
       gradientTransform="matrix(0.99101676,0,0,0.9787933,-336.61217,339.90422)" />
    <linearGradient
       gradientTransform="translate(-37.821509,604.02335)"
       inkscape:collect="always"
       xlink:href="#linearGradient4561"
       id="linearGradient4559-6"
       gradientUnits="userSpaceOnUse"
       x1="1224.7605"
       y1="-120.70979"
       x2="1227.4819"
       y2="-294.11374" />
    <filter
       inkscape:menu-tooltip="Transparent plastic with deep colors"
       inkscape:menu="Bevels"
       inkscape:label="Pepper-title-style"
       style="color-interpolation-filters:sRGB"
       id="filter4268-09">
      <feGaussianBlur
         in="SourceGraphic"
         result="result6"
         stdDeviation="0.20000000000000001"
         id="feGaussianBlur4270-6" />
      <feComposite
         in2="SourceGraphic"
         in="result6"
         operator="xor"
         id="feComposite4272-0" />
      <feGaussianBlur
         result="result2"
         stdDeviation="6.0001843317972341"
         id="feGaussianBlur4274-1" />
      <feComposite
         in2="SourceGraphic"
         operator="atop"
         result="result91"
         id="feComposite4276-4"
         stdDeviation="6" />
      <feComposite
         result="result4"
         in="result2"
         operator="xor"
         in2="result91"
         id="feComposite4278-8"
         stdDeviation="3.7000000000000002" />
      <feGaussianBlur
         in="result4"
         result="result3"
         stdDeviation="3.6962672811059902"
         id="feGaussianBlur4280-7" />
      <feSpecularLighting
         lighting-color="#d8bd6d"
         in="result3"
         result="result5"
         specularExponent="35"
         specularConstant="3"
         surfaceScale="12"
         id="feSpecularLighting4282-2">
        <feDistantLight
           elevation="45"
           azimuth="235"
           id="feDistantLight4284-8" />
      </feSpecularLighting>
      <feComposite
         k4="0"
         k1="0"
         in2="result5"
         in="SourceGraphic"
         k3="0.7"
         k2="0.8"
         operator="arithmetic"
         result="result7"
         id="feComposite4286-1" />
      <feComposite
         in="result7"
         operator="in"
         in2="SourceGraphic"
         id="feComposite4288-2" />
    </filter>
    <linearGradient
       inkscape:collect="always"
       xlink:href="#linearGradient4290"
       id="linearGradient4327"
       gradientUnits="userSpaceOnUse"
       x1="1243.5789"
       y1="254.0174"
       x2="1240.9818"
       y2="421.95773"
       gradientTransform="translate(-10.435182,-4.30511)" />
    <filter
       inkscape:menu-tooltip="Transparent plastic with deep colors"
       inkscape:menu="Bevels"
       inkscape:label="Pepper-title-style"
       style="color-interpolation-filters:sRGB"
       id="filter4268-6">
      <feGaussianBlur
         in="SourceGraphic"
         result="result6"
         stdDeviation="0.20000000000000001"
         id="feGaussianBlur4270-0" />
      <feComposite
         in2="SourceGraphic"
         in="result6"
         operator="xor"
         id="feComposite4272-5" />
      <feGaussianBlur
         result="result2"
         stdDeviation="6.0001843317972341"
         id="feGaussianBlur4274-9" />
      <feComposite
         in2="SourceGraphic"
         operator="atop"
         result="result91"
         id="feComposite4276-5"
         stdDeviation="6" />
      <feComposite
         result="result4"
         in="result2"
         operator="xor"
         in2="result91"
         id="feComposite4278-20"
         stdDeviation="3.7000000000000002" />
      <feGaussianBlur
         in="result4"
         result="result3"
         stdDeviation="3.6962672811059902"
         id="feGaussianBlur4280-9" />
      <feSpecularLighting
         lighting-color="#d8bd6d"
         in="result3"
         result="result5"
         specularExponent="35"
         specularConstant="3"
         surfaceScale="12"
         id="feSpecularLighting4282-3">
        <feDistantLight
           elevation="45"
           azimuth="235"
           id="feDistantLight4284-0" />
      </feSpecularLighting>
      <feComposite
         k4="0"
         k1="0"
         in2="result5"
         in="SourceGraphic"
         k3="0.7"
         k2="0.8"
         operator="arithmetic"
         result="result7"
         id="feComposite4286-7" />
      <feComposite
         in="result7"
         operator="in"
         in2="SourceGraphic"
         id="feComposite4288-5" />
    </filter>
  </defs>
  <sodipodi:namedview
     pagecolor="#ffffff"
     bordercolor="#666666"
     borderopacity="1"
     objecttolerance="10"
     gridtolerance="10"
     guidetolerance="10"
     inkscape:pageopacity="0"
     inkscape:pageshadow="2"
     inkscape:window-width="1920"
     inkscape:window-height="977"
     id="namedview4"
     showgrid="false"
     inkscape:zoom="0.36745568"
     inkscape:cx="821.27108"
     inkscape:cy="212.24159"
     inkscape:window-x="0"
     inkscape:window-y="62"
     inkscape:window-maximized="1"
     inkscape:current-layer="layer1" />
  <g
     inkscape:groupmode="layer"
     id="layer2"
     inkscape:label="artwork"
     sodipodi:insensitive="true">
    <image
       sodipodi:absref="/felles/omsetting/pepper-carrot/webcomics/ep13_The-Pyjama-Party/lang/nn/../gfx_Pepper-and-Carrot_by-David-Revoy_E13P00.png"
       xlink:href="../gfx_Pepper-and-Carrot_by-David-Revoy_E13P00.png"
       y="0"
       x="0"
       id="image10"
       height="663"
       width="2481" />
  </g>
  <g
     inkscape:groupmode="layer"
     id="layer1"
     inkscape:label="txt"
     style="display:inline">
    <path
       inkscape:connector-curvature="0"
       id="path4544-7"
       style="display:inline;fill:url(#linearGradient4559-6);fill-opacity:1;stroke:#774e33;stroke-width:5.48286772;stroke-miterlimit:4;stroke-dasharray:none;stroke-opacity:1;filter:url(#filter4268-09)"
       d="m 1181.1229,376.41392 7.7925,-6.6489 1.9463,-3.192 1.9464,-3.192 v -3.2028 -3.2029 l -2.5028,-2.9745 -2.5029,-2.9745 -3.0316,-1.2557 -3.0316,-1.2558 -3.4886,0.6545 -3.4886,0.6545 -2.7372,3.2459 c -1.5054,1.7853 -3.3495,4.7076 -4.0981,6.4939 l -1.3616,3.2479 v 3.9093 3.9093 l 1.4294,4.7493 c 1.4196,4.7171 3.1941,7.6835 4.5962,7.6835 0.4024,0 4.2383,-2.9921 8.5242,-6.649 z m 5.3994,62.03241 4.4373,-2.148 0.4942,-1.2879 0.4942,-1.28791 -10.4164,-10.1838 -10.4165,-10.1839 -1.2186,-0.01 -1.2187,-0.01 -2.8186,3.7153 c -1.5503,2.0434 -4.2948,5.0793 -6.099,6.7463 l -3.2803,3.031 v 1.365 1.365 l 4.2896,4.3767 c 2.3593,2.40721 5.198,4.87491 6.3083,5.48391 l 2.0187,1.1072 6.4942,0.031 6.4943,0.031 4.4373,-2.1481 z m -24.4911,24.42559 c -2.7757,-0.9893 -7.3585,-2.9708 -10.1841,-4.4034 l -5.1375,-2.6046 -3.1833,-3.62549 c -1.7508,-1.994 -4.193,-5.5432 -5.4273,-7.8871 l -2.244,-4.2616 -0.033,-7.56991 -0.033,-7.5699 3.1865,-6.7259 3.1865,-6.7258 7.8321,-8.1978 7.8321,-8.1977 -2.8354,-5.9323 -2.8353,-5.9322 0.6055,-3.0276 0.6055,-3.0276 -1.4446,-1.1989 -1.4445,-1.1989 1.5666,-3.0294 1.5666,-3.0295 -2.24,-2.3843 -2.24,-2.3843 0.6401,-4.6695 0.64,-4.6694 2.0103,-4.5447 2.0104,-4.5448 4.2924,-5.1269 4.2924,-5.1268 4.4309,-2.8099 4.4309,-2.81 5.4663,-1.2234 5.4663,-1.2232 5.255,1.6601 5.2549,1.6601 5.762,3.6087 5.762,3.6087 3.6768,6.0527 3.6769,6.0528 0.5164,3.8503 0.5165,3.8504 -2.2282,7.06 -2.2282,7.06 -3.8778,4.938 c -2.1329,2.7159 -5.5453,7.4361 -7.5832,10.4893 -2.0379,3.0532 -5.0652,6.7583 -6.7273,8.2336 l -3.0219,2.6822 0.8594,1.466 c 0.4726,0.8063 4.995,5.8566 10.0497,11.2228 l 9.1904,9.7568 1.2054,-1.4524 1.2054,-1.4524 0.2022,-2.8641 0.2021,-2.8641 -3.7799,-0.3129 -3.7798,-0.313 -2.5284,-3.3149 -2.5285,-3.315 v -2.1036 -2.1036 l 1.4459,-1.4459 1.4459,-1.4459 8.395,-2.6099 c 4.6173,-1.4354 10.666,-3.1259 13.4417,-3.7566 l 5.0466,-1.1467 12.1119,-0.3982 c 6.6616,-0.219 14.4965,-0.6682 17.4109,-0.9982 l 5.2989,-0.6 -5e-4,1.3343 -5e-4,1.3343 -7.1781,6.5606 c -3.9479,3.6084 -8.6032,7.9788 -10.345,9.7121 l -3.167,3.1515 -4.9233,0.7147 c -2.7079,0.3931 -5.5467,0.9538 -6.3083,1.2461 l -1.385,0.5315 v 4.9008 4.9007 l -2.1535,5.7557 -2.1535,5.7557 2.9001,2.10441 c 1.595,1.1575 4.7215,3.5063 6.9478,5.2197 l 4.0477,3.1151 -0.1874,1.4268 c -0.1031,0.7848 -0.8155,3.1266 -1.5831,5.204 l -1.3956,3.7772 -2.3778,2.53109 -2.3779,2.5311 h -3.1044 -3.1044 l -3.3047,-2.0149 c -1.8176,-1.1076 -3.9138,-2.0143 -4.6582,-2.0143 -0.7444,0 -2.5083,-0.90839 -3.9198,-2.01869 -1.4115,-1.1102 -3.176,-2.007 -3.9211,-1.9928 -0.7451,0.014 -3.8529,1.6206 -6.9061,3.5698 l -5.5513,3.54409 -9.5484,2.9907 -9.5485,2.9908 -5.0867,-0.074 -5.0868,-0.074 -5.0466,-1.7988 z"
       transform="matrix(0.99101676,0,0,0.9787933,4.2328172,10.641266)" />
    <flowRoot
       transform="translate(-286.66777,-1591.47)"
       xml:space="preserve"
       id="flowRoot2987-3"
       style="font-style:normal;font-variant:normal;font-weight:normal;font-stretch:normal;line-height:0.01%;font-family:Lavi;-inkscape-font-specification:Lavi;letter-spacing:0px;word-spacing:0px;fill:#000000;fill-opacity:1;stroke:none;stroke-width:1px;stroke-linecap:butt;stroke-linejoin:miter;stroke-opacity:1"><flowRegion
         id="flowRegion2989-5"><rect
           id="rect2991-6"
           width="721.75812"
           height="55.156185"
           x="502.10858"
           y="-1050.8098"
           style="font-style:normal;font-variant:normal;font-weight:normal;font-stretch:normal;font-family:Lavi;-inkscape-font-specification:Lavi" /></flowRegion><flowPara
         id="flowPara2993-2"
         style="font-size:8.52000046px;line-height:1.25"> </flowPara></flowRoot>    <path
       style="display:inline;opacity:1;fill:url(#linearGradient2304);fill-opacity:1;stroke:#774e33;stroke-width:5.4000001;stroke-linecap:butt;stroke-miterlimit:4;stroke-dasharray:none;stroke-opacity:1;paint-order:normal;enable-background:new;filter:url(#filter4268)"
       d="m 746.40801,496.10037 c -5.38627,-5.31988 -5.7587,-6.01533 -5.7587,-10.75567 0,-6.35506 2.06271,-9.34236 7.43798,-10.77189 2.38399,-0.63404 4.75421,-2.10907 5.51382,-3.43124 0.95554,-1.66359 1.43707,-10.6233 1.70316,-31.69578 l 0.37104,-29.37669 -6.1885,-1.33661 c -8.5277,-1.8418 -15.19507,-4.85263 -15.19507,-6.86176 0,-0.9138 -0.71521,-1.93257 -1.58939,-2.26385 -0.87417,-0.33133 -1.58939,-1.27975 -1.58939,-2.10764 0,-1.18089 0.85624,-1.33655 3.97348,-0.72241 5.7804,1.13878 8.00553,0.85998 14.56349,-1.82458 l 5.88307,-2.40832 -0.38412,-38.78044 c -0.21118,-21.32924 -0.75159,-40.29936 -1.20062,-42.15581 -0.96723,-3.99789 -3.74743,-4.81619 -16.73976,-4.92689 -10.21401,-0.087 -10.678,-1.52163 -2.65186,-8.19896 6.31417,-5.25294 8.10355,-6.26499 21.71427,-12.28114 6.82593,-3.01717 10.51845,-4.11188 12.18534,-3.61257 3.41425,1.02278 7.11154,4.6355 8.78765,8.58643 l 1.44272,3.40121 h 12.18475 c 18.65738,0 31.74653,4.53626 48.00653,16.63746 13.00601,9.67938 17.26738,17.31042 17.26738,30.92113 0,8.98975 -2.03,16.33236 -7.24938,26.22155 -4.99622,9.46626 -20.00962,24.60924 -30.43175,30.6943 -7.59109,4.43218 -31.55269,13.78307 -35.31905,13.78307 -5.48735,0 -5.40996,-0.33991 -5.40996,23.7276 0,13.40117 0.44002,23.26908 1.09101,24.47059 1.2693,2.34224 6.37204,5.17465 9.3227,5.17465 1.12312,0 2.6142,0.68089 3.31346,1.51308 0.91194,1.08532 1.96796,1.25149 3.73534,0.5878 1.44788,-0.54369 5.38311,-0.517 9.54201,0.0647 5.84799,0.81795 7.71546,0.69123 10.74648,-0.72936 2.67089,-1.25179 5.26874,-1.55623 9.55281,-1.11953 3.23636,0.3299 7.09558,0.14495 8.57606,-0.41099 3.29989,-1.23913 3.97031,-0.71431 2.5159,1.96963 -1.17079,2.16071 -6.47551,3.81745 -6.47551,2.02242 0,-0.57452 -2.36367,1.13904 -5.25258,3.80799 -2.88892,2.6689 -5.95423,4.85256 -6.81166,4.85256 -0.85752,0 -2.29172,0.72354 -3.18711,1.60785 -2.08579,2.06009 -7.58227,4.3222 -13.8994,5.72046 -2.73531,0.60543 -6.4871,2.24123 -8.33743,3.6351 -3.95207,2.9773 -12.02946,5.98321 -22.37904,8.32824 -4.07942,0.92432 -7.57603,2.14213 -7.77036,2.70625 -0.19424,0.56413 -2.49023,1.02569 -5.10215,1.02569 -4.33669,0 -5.24902,-0.49385 -10.50766,-5.68764 z m 45.97842,-109.9372 c 17.38938,-8.23087 34.50998,-23.51365 41.10451,-36.69215 3.42574,-6.84609 3.79668,-8.36593 3.34735,-13.71721 -0.46795,-5.57286 -0.86842,-6.34275 -5.41412,-10.4075 -6.07691,-5.43388 -12.53963,-7.24113 -25.60966,-7.16156 -10.27327,0.0625 -21.98511,2.56461 -25.11979,5.36655 -1.74538,1.56003 -1.89998,4.22106 -1.89998,32.72244 0,31.88836 0.20712,33.53596 4.21539,33.53596 0.91966,0 5.13901,-1.64096 9.3763,-3.64653 z m 576.60317,53.22272 c -9.4627,-1.84989 -19.5047,-5.30747 -25.4948,-8.7781 -16.9971,-9.84824 -28.6452,-21.38599 -35.9055,-35.56547 -4.6786,-9.13731 -6.41,-14.70344 -9.9536,-32.0003 -2.4448,-11.93253 -2.5108,-13.16183 -1.1801,-21.97706 3.399,-22.51681 11.3488,-50.9691 18.415,-65.90831 8.8171,-18.64071 27.7013,-45.49316 41.9336,-59.62781 11.2092,-11.13215 19.1289,-16.97457 30.9721,-22.84827 l 9.7801,-4.8505 11.4119,0.006 c 10.7791,0.005 12.0158,0.23754 22.3085,4.1861 14.6565,5.62248 14.6862,5.61849 15.5917,-2.08655 0.4453,-3.79008 1.5825,-7.3294 2.8775,-8.95539 1.997,-2.50733 2.5438,-2.64002 8.1094,-1.96834 6.9562,0.83947 17.208,5.55547 22.1269,10.17848 2.9232,2.74743 3.4368,3.95682 3.3975,8.00228 -0.086,8.87559 -1.5994,13.61709 -5.6561,17.72033 -4.4273,4.47808 -5.0021,7.44123 -1.4498,7.47591 1.3112,0.0128 3.5268,0.89113 4.9237,1.95185 l 2.5396,1.92859 -1.7487,18.73146 c -3.1018,33.22722 -13.8127,78.87785 -18.5067,78.87785 -1.2781,0 -2.3074,-5.20843 -2.3074,-11.67622 0,-2.82449 -0.6692,-6.71712 -1.4869,-8.65029 -0.8353,-1.97429 -1.8269,-9.64276 -2.2626,-17.49573 -0.7071,-12.74234 -1.1922,-15.18392 -5.4778,-27.5624 -9.0635,-26.17833 -19.0105,-41.37479 -27.0668,-41.35084 -8.4996,0.0253 -22.9196,9.39053 -37.5249,24.37112 -8.4052,8.62106 -11.2452,10.92803 -12.9203,10.49536 -1.4151,-0.36553 -3.0707,0.35752 -4.8559,2.12079 -2.9075,2.8717 -3.3279,4.90512 -1.6529,7.99612 1.4239,2.62778 0.3255,5.0468 -2.4699,5.4401 -1.7332,0.24386 -2.3268,1.09085 -2.4267,3.46239 -0.072,1.72678 -4.073,11.38097 -8.8896,21.4538 -11.0095,23.02324 -19.6415,48.31575 -20.7157,60.69856 -0.6106,7.03821 -1.3063,9.5897 -3.3324,12.22061 -2.4148,3.13568 -2.4685,3.50128 -0.9423,6.41615 0.8901,1.70003 2.9908,4.23147 4.668,5.62542 1.6773,1.39392 4.392,4.8643 6.0326,7.71196 4.1536,7.20985 11.7521,14.80461 17.9484,17.9397 4.9725,2.51597 5.8949,2.62364 18.5429,2.16523 12.189,-0.44175 14.3365,-0.83974 25.4955,-4.72501 6.7019,-2.33345 13.9582,-4.99492 16.1248,-5.91436 2.1667,-0.91943 5.2433,-1.6717 6.8369,-1.6717 1.7097,0 4.2215,-1.21081 6.1268,-2.95355 1.776,-1.62447 6.6306,-4.23473 10.7881,-5.80064 4.1572,-1.56588 8.4475,-3.81701 9.5337,-5.00254 1.0864,-1.18547 3.2453,-2.80423 4.7979,-3.59713 3.3072,-1.68916 3.0786,-4.16188 -0.7638,-8.25663 -2.3368,-2.4902 -3.1056,-2.64574 -13.081,-2.64574 -8.8845,0 -11.7627,-0.44228 -17.7988,-2.73512 -17.7447,-6.74037 -21.0991,-7.67662 -27.5977,-7.7031 -3.6424,-0.0148 -6.606,-0.38024 -6.5857,-0.81195 0.02,-0.43169 4.5632,-3.7776 10.0958,-7.43539 5.8729,-3.88277 12.5505,-9.43576 16.0455,-13.3432 3.2923,-3.681 6.5645,-6.69272 7.2714,-6.69272 0.7068,0 5.7389,2.88843 11.1825,6.41871 l 9.8972,6.41867 9.0266,-0.68437 c 4.9646,-0.37643 12.0627,-1.33423 15.7734,-2.1285 6.3687,-1.36316 7.152,-1.30795 13.9794,0.98565 3.9784,1.33635 8.208,2.17792 9.3994,1.8702 3.1822,-0.82189 3.7318,1.89624 1.6408,8.11407 -1.4732,4.38094 -2.4707,5.64811 -5.3961,6.85536 -4.0764,1.68224 -4.2977,2.86386 -1.8241,9.74258 l 1.7647,4.90772 -5.9281,10.43192 c -8.1656,14.36917 -21.1751,26.604 -28.2888,26.604 -1.5954,0 -2.9584,1.56093 -5.0623,5.79786 -2.6752,5.38739 -3.7271,6.31306 -14.8582,13.07444 -8.282,5.0307 -15.4841,8.43901 -23.3344,11.04286 -10.3959,3.44802 -12.564,3.79649 -25.6598,4.12367 -7.8676,0.19654 -15.4967,0.12431 -16.9536,-0.16052 z M 489.14074,420.79568 c -8.00861,-2.96973 -14.04648,-11.09039 -15.16187,-20.39206 -0.50532,-4.21386 -0.21435,-5.39778 1.93259,-7.86291 2.05735,-2.36233 3.76239,-3.04592 9.1671,-3.67533 9.36808,-1.09093 10.19419,-2.19804 10.64134,-14.26062 0.35577,-9.59801 0.43823,-9.8833 2.69537,-9.32379 1.55986,0.3867 2.99772,-0.15336 4.35661,-1.63642 2.4154,-2.63605 1.46244,-4.78231 -3.27452,-7.3747 l -3.08484,-1.68824 -0.27996,-31.88756 -0.27986,-31.88755 3.59293,0.41428 c 2.84412,0.32794 3.95832,-0.0972 5.34564,-2.03982 1.64152,-2.29845 1.63131,-2.55371 -0.16045,-4.02393 -1.05226,-0.86338 -3.52494,-3.79725 -5.49499,-6.5197 l -3.58173,-4.94994 0.89568,-17.02711 c 0.49264,-9.36494 0.92423,-21.34627 0.95901,-26.62518 0.0575,-8.68715 -0.17363,-9.84686 -2.43245,-12.2199 -1.37266,-1.44205 -5.18728,-3.67251 -8.47676,-4.95663 -3.28958,-1.28411 -7.01531,-3.24874 -8.27945,-4.36585 -3.63644,-3.21344 -6.79124,-11.67076 -6.98954,-18.73748 -0.1656,-5.90064 0.0565,-6.55195 3.16966,-9.29939 7.24226,-6.39109 40.71365,-14.11671 66.37692,-15.32058 14.17263,-0.66484 32.25115,0.68867 45.70094,3.42156 9.86061,2.00361 27.11679,10.53988 34.57053,17.10134 9.68798,8.52824 21.88501,27.50596 28.01336,43.58684 12.1048,31.76264 -2.6247,63.3308 -41.5119,88.96833 -14.15519,9.33228 -47.28201,23.64397 -64.03108,27.66328 -12.301,2.95186 -14.71393,4.02897 -15.44173,6.89288 -1.00083,3.93865 0.0129,28.45586 1.22628,29.65353 0.6068,0.59898 3.3657,1.50651 6.13093,2.01675 2.76513,0.51022 5.88238,1.69169 6.92711,2.62552 1.31607,1.1763 3.88904,1.69787 8.37607,1.69787 3.56211,0 6.7078,0.36964 6.99053,0.82147 0.64278,1.02723 32.66075,0.87192 34.36222,-0.16668 0.68559,-0.41853 2.91815,-0.30511 4.96113,0.25202 2.13108,0.58118 3.96139,0.61841 4.29368,0.0873 0.50433,-0.80606 6.65914,-0.25321 7.80029,0.70064 1.13383,0.94775 -2.6697,3.56465 -6.08524,4.18672 -2.12682,0.3874 -5.4931,1.55831 -7.48059,2.60206 -1.98748,1.04375 -3.98111,1.67346 -4.43014,1.39936 -0.44903,-0.2741 -2.00314,0.58792 -3.45359,1.91556 -1.51408,1.38591 -6.39622,3.43172 -11.46389,4.80376 -4.85469,1.31442 -10.39249,3.06146 -12.30634,3.88231 -1.91376,0.82086 -4.94488,1.49248 -6.73585,1.49248 -1.79096,0 -6.18533,1.36029 -9.76528,3.02288 -13.56206,6.29841 -48.79816,10.55002 -58.28387,7.03256 z m 71.37729,-113.62956 c 2.62252,-0.71373 7.79167,-2.65112 11.48717,-4.30527 6.06066,-2.71294 6.99499,-2.86834 9.53635,-1.58623 5.22474,2.6359 9.58036,-1.08458 8.0982,-6.91726 -0.92581,-3.64285 2.98623,-7.02037 5.98722,-5.16931 3.1222,1.92576 5.54118,-0.29575 4.72279,-4.33718 -0.5294,-2.61474 0.21337,-3.93972 5.31344,-9.47734 7.17248,-7.78794 14.71501,-20.11326 16.98553,-27.75607 2.33454,-7.85823 1.57473,-17.91262 -1.91762,-25.37761 -8.36061,-17.87092 -25.77813,-24.95754 -52.85023,-21.50309 -12.17256,1.55326 -15.83962,1.14159 -15.83962,-1.77814 0,-0.74588 -1.24323,-2.01329 -2.76275,-2.8165 -2.54701,-1.34628 -2.92638,-1.26095 -4.85549,1.09202 -1.31686,1.60619 -1.93456,3.61568 -1.66629,5.42071 0.34546,2.32519 -0.11605,3.09018 -2.43731,4.03983 -4.58553,1.87596 -8.58865,6.75704 -9.57491,11.67498 -1.14978,5.733 -2.59815,86.32474 -1.62051,90.17183 0.40107,1.57813 1.70901,3.22733 2.90665,3.6649 2.03486,0.74343 16.89971,-1.88661 28.48738,-5.04027 z m 107.54902,111.2163 c -15.56077,-2.03841 -21.34276,-7.06759 -28.05729,-24.40446 -4.50655,-11.63587 -4.66828,-12.46426 -5.0965,-26.10428 -0.82403,-26.24993 4.46136,-44.05133 18.65549,-62.83263 9.35462,-12.37775 15.03731,-17.38963 25.15222,-22.18322 15.43241,-7.31365 20.59839,-6.73499 33.46704,3.74871 7.6112,6.20071 12.62605,14.27345 14.57141,23.45701 1.48405,7.00581 1.52161,30.85382 0.0565,36.06354 -1.44203,5.12859 -4.07377,6.69529 -13.71825,8.16681 -11.25052,1.71657 -53.0626,12.49215 -55.64054,14.3394 -2.5807,1.84917 -3.22766,6.94188 -1.49138,11.73888 2.68526,7.41881 3.33676,8.67761 6.04491,11.67951 6.36104,7.05113 15.20438,6.72926 31.23536,-1.13691 16.4482,-8.07087 21.78255,-11.02899 24.59614,-13.63957 1.55511,-1.44296 3.24776,-2.12361 4.29458,-1.72689 2.05507,0.77889 1.46997,4.66185 -1.87699,12.45599 -1.65549,3.85532 -2.56981,4.86417 -4.00143,4.41539 -2.30332,-0.72204 -7.68216,5.21767 -6.98449,7.71276 0.26342,0.94177 0.78865,2.77616 1.16722,4.0765 0.62256,2.13817 -0.25588,2.81426 -9.18742,7.07125 -13.05833,6.22396 -23.24667,8.40432 -33.18677,7.1022 z m 7.94696,-76.75847 c 18.79989,-4.14962 27.18756,-6.93932 29.13946,-9.69159 1.19735,-1.68844 1.57631,-5.21253 1.53786,-14.30423 -0.0614,-14.56052 -1.68691,-19.19846 -6.9054,-19.70279 -7.81704,-0.75547 -27.88484,17.62107 -36.73412,33.63839 -2.7584,4.99267 -5.33197,10.32385 -5.71906,11.84709 -0.64327,2.53141 -0.4853,2.70937 1.83645,2.07002 1.39714,-0.38472 8.97733,-2.12033 16.84481,-3.85689 z m 267.01817,74.67658 c -3.12894,-1.18274 -5.32453,-3.86411 -6.40296,-7.81957 -0.60274,-2.21093 -1.6881,-4.0199 -2.41174,-4.0199 -0.72374,0 -5.35436,1.68288 -10.29022,3.73977 -37.21644,15.50871 -63.2342,6.84661 -61.16139,-20.36257 1.00578,-13.20284 9.05125,-26.33492 20.90124,-34.11562 10.35097,-6.7964 27.70397,-14.69094 37.87884,-17.23243 4.79176,-1.1969 9.97815,-2.65151 11.52532,-3.2325 l 2.813,-1.0563 -0.71511,-8.60918 c -0.8392,-10.10422 -3.10674,-18.77923 -5.39995,-20.65895 -0.89578,-0.73429 -2.92707,-1.30226 -4.51399,-1.26213 -1.58681,0.0401 -5.18301,0.12489 -7.99156,0.18838 -6.4751,0.14635 -17.86357,5.50489 -28.14993,13.24522 -4.11807,3.09879 -7.93091,5.63419 -8.47299,5.63419 -0.54209,0 -2.75513,2.43276 -4.91802,5.40615 -3.37441,4.63907 -4.07754,5.15005 -4.95518,3.6011 -1.17049,-2.06572 2.52293,-12.15929 7.79523,-21.30321 6.27611,-10.88496 23.19118,-22.21078 36.32463,-24.32196 14.10326,-2.26705 28.73969,4.71581 35.01778,16.70663 3.86665,7.38497 6.8173,31.52168 6.87984,56.27808 0.0218,8.59145 0.68578,10.05693 3.20068,7.06408 0.72543,-0.86341 2.03684,-1.56978 2.91409,-1.56978 2.40143,0 0.91064,7.5848 -2.9343,14.92827 -2.85284,5.44883 -4.15454,11.23487 -2.52749,11.23487 0.34715,0 1.8968,-0.88034 3.44368,-1.9563 1.54688,-1.07594 5.67347,-3.22707 9.17018,-4.7803 3.4966,-1.55319 7.62319,-3.4985 9.16997,-4.32286 1.54688,-0.82436 3.09653,-1.49886 3.44379,-1.49886 1.61684,0 0.27738,3.5186 -3.45766,9.08311 -4.47969,6.67371 -5.65226,9.56968 -5.97217,14.74945 -0.28521,4.62036 -3.56815,7.78244 -12.57877,12.11609 -7.53381,3.62332 -14.60729,5.28768 -17.62484,4.14703 z m -37.30613,-23.93744 c 13.64333,-2.72745 27.16823,-9.95001 30.4812,-16.27755 3.59917,-6.87423 0.35191,-16.6251 -5.53662,-16.6251 -1.78016,0 -2.85611,-0.69826 -3.22546,-2.09307 -0.66715,-2.51994 -2.15229,-2.66228 -4.63389,-0.44413 -1.01461,0.9069 -2.4826,1.76065 -3.26223,1.89723 -5.99209,1.04975 -13.60161,4.16985 -15.77104,6.46647 -1.42994,1.51383 -5.34317,4.65895 -8.69598,6.98918 -7.71318,5.36055 -12.83515,12.61684 -11.97039,16.95827 0.33833,1.69818 1.20389,3.45696 1.92356,3.90845 2.13406,1.3388 11.94235,0.96913 20.69085,-0.77975 z m 607.24265,22.69524 c -2.6917,-0.93599 -6.9832,-3.41155 -9.5363,-5.50127 -3.771,-3.08653 -4.9903,-4.99264 -6.4965,-10.15832 -2.2483,-7.70989 -2.3599,-13.69391 -0.3441,-18.45866 0.8304,-1.96339 2.056,-7.2463 2.7232,-11.73981 0.667,-4.49352 1.8663,-12.17302 2.665,-17.06555 1.4048,-8.60622 1.9444,-14.64618 3.3444,-37.44546 0.3636,-5.91746 1.0584,-11.0018 1.5446,-11.29854 0.4862,-0.29674 1.8705,-0.018 3.0763,0.61934 1.8469,0.97618 2.7758,0.653 5.8929,-2.0502 3.2557,-2.82331 4.2366,-3.135 8.1605,-2.593 2.4532,0.33884 5.0562,0.79747 5.7846,1.01923 2.2449,0.68329 1.5058,9.01056 -1.7713,19.95513 -1.7028,5.68684 -3.4214,14.34267 -3.8193,19.23519 -0.3977,4.89251 -1.8489,14.31125 -3.2246,20.93052 -2.9343,14.11755 -4.1711,24.95755 -3.258,28.55132 1.839,7.23672 22.88,5.59075 40.1456,-3.14054 5.0954,-2.57678 10.386,-6.00148 11.7568,-7.61045 2.5415,-2.98316 4.1173,-10.12324 5.6034,-25.38764 0.3779,-3.88523 1.0986,-7.06405 1.601,-7.06405 1.357,0 1.1064,-6.03758 -0.2857,-6.88738 -1.4989,-0.9149 -0.5848,-29.48227 1.1225,-35.0816 l 1.1496,-3.77079 11.2695,-0.71962 c 10.6935,-0.6828 11.3974,-0.60108 13.7679,1.59852 3.0422,2.82263 3.1853,6.04122 0.4231,9.5096 -1.6961,2.12964 -2.1877,4.88124 -2.6885,15.05414 -0.3371,6.84651 -1.0342,15.2738 -1.5491,18.72734 -0.515,3.45353 -1.2635,11.45946 -1.6631,17.79097 -0.4515,7.15101 -1.4866,13.49395 -2.7325,16.74443 -2.4305,6.3413 -2.5039,7.84893 -0.3821,7.84893 1.8622,0 11.3212,-4.5546 15.4926,-7.45989 1.5469,-1.07736 4.0503,-1.95883 5.5628,-1.95883 3.8211,0 3.623,3.1829 -0.6023,9.6863 -1.8439,2.83813 -3.7168,7.43575 -4.1621,10.21694 -0.445,2.78119 -1.6098,6.26358 -2.5885,7.73868 -3.5267,5.31606 -18.7326,12.09027 -27.1936,12.11475 -3.2062,0.01 -4.4113,-0.62555 -6.6225,-3.48869 -1.4865,-1.92498 -2.7029,-4.222 -2.7029,-5.10447 0,-3.78872 -2.6592,-4.04668 -10.1782,-0.98737 -14.6414,5.95721 -23.9081,8.3458 -34.3247,8.84763 -7.5912,0.36574 -11.2696,0.0666 -14.9604,-1.21683 z m -525.25128,-3.21112 c -2.38091,-2.42311 -4.6444,-5.42948 -5.0299,-6.6808 -0.38561,-1.25133 -1.29586,-2.98156 -2.02277,-3.84493 -2.2501,-2.67242 -2.81716,-7.02685 -1.13174,-8.69146 1.20102,-1.18626 3.60096,-1.40087 11.00405,-0.98397 l 9.46804,0.53318 0.4041,-22.07934 c 0.2865,-15.65407 0.7847,-22.45528 1.712,-23.37114 0.9265,-0.91516 1.3079,-6.08939 1.3079,-17.74659 0,-15.84875 -0.094,-16.56495 -2.5467,-19.4441 -1.76697,-2.07395 -2.38526,-3.82337 -2.01938,-5.71349 0.69659,-3.59933 -1.23639,-4.61607 -4.61698,-2.42838 -2.08282,1.34788 -3.26817,1.51101 -4.9865,0.68637 -1.23976,-0.595 -4.04225,-1.62206 -6.22764,-2.28241 -4.67503,-1.41255 -4.96202,-2.91615 -1.25513,-6.57728 3.12706,-3.08843 18.85583,-9.02678 25.89073,-9.77491 9.8331,-1.04574 15.8893,5.28847 15.8924,16.62207 7e-4,3.30965 0.3938,6.01753 0.873,6.01753 0.4793,0 3.6057,-3.05688 6.9475,-6.79305 7.4765,-8.35899 13.7837,-12.20803 20.1603,-12.30323 6.6035,-0.0986 11.1439,1.9118 10.4276,4.61712 -0.4828,1.82347 -0.1165,2.06358 2.7029,1.7715 4.6614,-0.48294 7.9919,3.05977 13.5502,14.41372 5.2273,10.67813 5.3197,11.17119 3.088,16.44675 -0.8742,2.06636 -1.5894,5.65591 -1.5894,7.97674 0,3.11328 -0.4306,4.21971 -1.642,4.21971 -2.349,0 -7.9731,2.96261 -11.1029,5.84869 -2.4635,2.27162 -3.017,2.37055 -6.8874,1.23064 -2.3147,-0.68172 -4.447,-1.49383 -4.7383,-1.80474 -0.2915,-0.31086 -1.4836,-1.08237 -2.6491,-1.71445 -3.135,-1.70016 -4.8648,-5.61248 -3.5523,-8.0346 0.9873,-1.82193 1.2285,-1.6947 2.8453,1.50044 1.8718,3.69922 3.9963,4.61407 8.2599,3.55717 2.8568,-0.70817 6.7517,-8.07692 6.7517,-12.77375 0,-3.6524 -1.9861,-6.92124 -3.7899,-6.23761 -0.9775,0.37054 -1.5081,-0.12637 -1.5081,-1.41266 0,-3.32525 -4.9792,-6.32405 -10.474,-6.30798 -2.6896,0.009 -5.9861,0.30425 -7.3258,0.65865 -2.6295,0.69562 -6.1807,6.76834 -10.2947,17.60419 -3.0484,8.02938 -7.9377,36.63376 -8.0465,47.07473 -0.1,9.58889 1.4066,12.43098 8.1511,15.37751 3.2286,1.41059 4.6788,2.6777 4.6788,4.08823 0,2.45404 2.3844,2.68069 4.2938,0.40815 1.2468,-1.4835 1.4612,-1.4835 2.3017,0 1.1553,2.03883 4.3924,2.12172 6.0452,0.15485 1.4923,-1.77598 7.3226,-0.50789 9.1979,2.00055 0.6469,0.86548 2.1966,1.5736 3.4437,1.5736 2.6855,0 2.9749,2.30318 0.5402,4.29889 -2.2427,1.83829 -12.7957,5.08463 -16.5932,5.10444 -1.6259,0.009 -4.9636,1.04369 -7.4173,2.30048 -3.4393,1.76172 -7.2517,2.4582 -16.6464,3.04095 -6.7019,0.41577 -16.5345,1.09875 -21.8502,1.51777 l -9.66502,0.76186 z m 711.20128,2.26943 c -3.5687,-2.86037 -8.8715,-10.79806 -8.8715,-13.27965 0,-3.27463 5.1535,-7.60653 10.0662,-8.46165 8.3662,-1.45618 7.947,0.7824 7.947,-42.44436 0,-23.64358 -0.4422,-40.54386 -1.1456,-43.7826 -1.2871,-5.92819 -4.1023,-8.7536 -10.6536,-10.69217 -4.1716,-1.2345 -5.1474,-2.92957 -2.7703,-4.81337 1.322,-1.04773 19.6677,-4.43927 24.0132,-4.43927 3.4418,0 10.7184,7.22393 11.609,11.52506 1.1308,5.46005 3.3638,4.95416 8.6478,-1.95911 3.6093,-4.72227 6.2978,-6.96186 11.299,-9.41226 6.4096,-3.14053 6.6817,-3.18062 11.6639,-1.7193 6.475,1.89916 13.1438,6.71957 15.6469,11.31 1.8465,3.38675 1.8638,4.27409 0.3406,17.58009 -1.5944,13.9262 -1.6372,14.06535 -6.8974,22.38551 -2.9112,4.60473 -5.957,8.37222 -6.7683,8.37222 -1.125,0 -1.61,-2.48696 -2.0409,-10.46527 -0.6535,-12.09809 -2.2429,-15.91881 -8.0245,-19.28795 -6.3348,-3.69147 -7.8933,-2.80383 -11.7379,6.68526 -5.4745,13.51253 -11.8157,53.39886 -9.4807,59.63386 2.7431,7.32428 2.2911,7.14254 14.529,5.84209 6.0726,-0.64533 12.8399,-1.55849 15.0387,-2.02933 2.4254,-0.51926 4.248,-0.45661 4.6333,0.15934 0.3495,0.55847 -2.7212,4.38117 -6.8242,8.49489 -4.1024,4.11374 -8.1593,9.17372 -9.0148,11.24445 -2.7104,6.56058 -6.4067,7.89284 -25.6396,9.24181 -9.3245,0.65403 -18.3839,1.3982 -20.1323,1.65376 -2.02,0.29528 -4.0004,-0.1939 -5.433,-1.34205 z m 260.2657,0.80937 c -14.5419,-1.23043 -23.4277,-10.01331 -26.8978,-26.58678 -1.3315,-6.3585 -1.7111,-14.51539 -1.7111,-36.75411 0,-15.72007 -0.2895,-29.32687 -0.6433,-30.23732 -0.5099,-1.31284 -2.3457,-1.6554 -8.8716,-1.6554 h -8.2284 l -4.4598,-4.7786 c -2.7157,-2.90986 -4.2216,-5.39138 -3.8511,-6.34546 0.3349,-0.86175 -0.1,-2.91997 -0.9656,-4.57382 -0.8658,-1.65384 -1.3279,-3.64118 -1.0268,-4.41633 0.8155,-2.09882 15.1736,-8.93424 20.4767,-9.74808 8.6041,-1.32053 8.7208,-1.68324 8.5873,-26.65445 -0.07,-13.26019 -0.5829,-23.12634 -1.2972,-24.99571 -1.3266,-3.47075 0.2177,-6.42536 3.3233,-6.35882 2.7061,0.0579 14.6384,7.63707 17.315,10.99801 2.2084,2.77272 2.4723,4.46212 3.0561,19.55301 0.5367,13.87633 0.9447,16.85184 2.5509,18.60495 2.4515,2.67532 4.0983,2.61572 10.6212,-0.38434 3.4455,-1.58463 8.4896,-2.72311 14.2723,-3.22131 4.9188,-0.42381 10.1502,-1.37502 11.6248,-2.11382 1.4746,-0.73878 5.6825,-1.62361 9.3506,-1.96624 5.5545,-0.51886 6.7793,-0.33921 7.3288,1.07468 0.4537,1.1676 -0.632,2.70889 -3.4772,4.93618 -2.2751,1.78115 -9.6431,7.99396 -16.3733,13.80624 -9.0455,7.81226 -13.8208,11.15336 -18.3137,12.81357 -3.3425,1.23517 -8.3798,3.39825 -11.1942,4.80677 l -5.117,2.56097 -0.6964,30.67262 c -0.7862,34.61946 -0.2099,41.55497 3.7796,45.49531 2.5288,2.49745 2.8432,2.55664 5.7303,1.07799 1.6801,-0.86052 9.3884,-7.49812 17.1296,-14.75015 14.8878,-13.94693 19.0696,-16.26075 17.683,-9.78436 -1.6971,7.92832 -4.6846,14.37196 -8.0335,17.32717 -3.1107,2.74524 -3.3794,3.39153 -2.3439,5.6367 1.8933,4.1037 -2.6497,12.19225 -10.4746,18.64996 -8.8291,7.2865 -10.6763,8.00281 -18.853,7.31097 z m -137.4613,-1.6005 c -5.4543,-1.69613 -14.3977,-7.91116 -19.5327,-13.57383 -4.8144,-5.30908 -10.8603,-17.19042 -12.4078,-24.38322 -1.6148,-7.50637 -1.4431,-26.18738 0.329,-35.79205 1.4126,-7.65467 6.2464,-21.84395 9.6683,-28.37961 4.1229,-7.87415 15.2308,-17.08251 28.5445,-23.66297 15.4584,-7.64043 41.1129,-3.39141 50.4764,8.36009 1.537,1.92901 4.2167,6.30678 5.9547,9.72842 9.8409,19.37319 12.1265,37.90632 7.2844,59.07071 -1.8067,7.89631 -3.3586,12.39495 -4.5129,13.0816 -0.9679,0.57557 -2.8771,1.98839 -4.2426,3.13958 -2.3765,2.00327 -2.412,2.23435 -0.8265,5.38885 1.5862,3.15558 1.535,3.48606 -1.202,7.76835 -4.4254,6.92354 -11.8932,14.28427 -17.9844,17.72633 -5.4955,3.10554 -5.6524,3.12779 -21.3014,3.02508 -9.8917,-0.0649 -17.4346,-0.62273 -20.247,-1.49733 z m 30.659,-22.61081 c 9.7497,-2.13373 16.9586,-13.66877 18.4068,-29.45216 0.3947,-4.30149 0.3466,-16.47405 -0.107,-27.05019 l -0.8247,-19.22931 -8.8383,-6.54079 c -9.8369,-7.27988 -11.7954,-7.72149 -21.6413,-4.87965 -9.467,2.7325 -19.0415,13.76118 -21.6805,24.97318 -0.8011,3.40396 -3.0041,7.83071 -5.6722,11.39796 -4.9233,6.58206 -5.1959,7.97204 -2.3501,11.98173 1.1068,1.55956 2.2754,5.29969 2.5968,8.31139 0.7368,6.9027 9.5773,25.04354 13.5814,27.86839 6.3574,4.48541 14.3825,5.2778 26.5291,2.61945 z m -221.664,18.98782 c -2.3098,-2.47107 -4.5051,-5.48544 -4.8783,-6.69858 -0.3733,-1.21317 -1.2735,-2.91214 -2.0005,-3.77551 -2.3585,-2.80137 -2.8143,-7.02969 -0.9551,-8.86581 1.3015,-1.28541 2.811,-1.5288 6.2882,-1.01382 l 4.5754,0.67767 1.2557,-4.55612 c 0.6906,-2.50589 1.1751,-8.41891 1.0766,-13.14007 -0.1263,-6.06681 0.3121,-9.52201 1.4959,-11.78291 1.2983,-2.47951 1.4095,-3.68866 0.4948,-5.37667 -1.6138,-2.97809 -1.4687,-9.01954 0.5062,-21.0773 0.918,-5.60579 1.6691,-12.14331 1.6691,-14.52783 0,-2.61401 0.9076,-5.78564 2.2855,-7.98771 2.0008,-3.19735 2.1276,-4.08265 1.0199,-7.10872 -1.4491,-3.95796 -0.1381,-17.58603 2.526,-26.25943 0.8595,-2.79825 1.5679,-7.60226 1.5743,-10.6756 0.01,-3.07334 1.3966,-11.55021 3.0893,-18.83747 1.6927,-7.28728 3.1139,-15.60431 3.1584,-18.48225 0.045,-2.87795 0.4528,-10.01976 0.9071,-15.8707 l 0.8263,-10.63809 -2.8557,1.66607 c -2.0627,1.20345 -3.2427,1.35765 -4.2497,0.55529 -0.7666,-0.61092 -2.9106,-1.43089 -4.7644,-1.82216 -10.1552,-2.14342 -4.6832,-8.66065 11.806,-14.06102 8.9333,-2.92564 11.4238,-3.34342 16.4121,-2.75297 7.5721,0.89631 17.318,3.62507 18.3067,5.12569 1.1443,1.73673 -0.1484,4.92718 -3.5623,8.7932 -1.6699,1.89068 -3.0361,4.14242 -3.0361,5.00384 0,0.86142 -0.8342,1.87547 -1.8541,2.25341 -4.3208,1.60126 -5.9222,7.47591 -2.9285,10.74306 1.726,1.88359 1.7568,1.6203 -3.1855,27.22555 -1.3887,7.19486 -3.0503,17.79096 -3.6923,23.54685 -2.6604,23.8498 -5.5377,44.78546 -7.9879,58.11942 -1.7841,9.70805 -2.6031,17.96001 -2.6031,26.22479 0,8.98331 -0.3967,12.57763 -1.5556,14.09089 -2.2124,2.88895 -2.1925,15.43662 0.029,17.25624 0.9079,0.74415 2.2979,2.88314 3.0889,4.75329 1.8886,4.46384 5.241,6.27475 8.7188,4.70966 3.4472,-1.55127 4.5548,-0.68825 4.5548,3.54908 0,2.92392 -0.9125,4.30843 -5.3903,8.17706 -5.8719,5.07325 -6.6945,5.28051 -26.4622,6.66635 l -9.5021,0.66616 z m -561.859,-6.03461 c -2.162,-0.47437 -2.2236,-0.75596 -0.7573,-3.46176 1.042,-1.92293 5.2039,-2.778 6.6362,-1.3634 0.8924,0.88134 -0.967,4.20848 -2.6707,4.77878 -0.7446,0.24928 -2.1882,0.27015 -3.2082,0.0464 z"
       id="path8305"
       inkscape:connector-curvature="0"
       sodipodi:nodetypes="csccccsscscccccccccccscsccsscsccscsccscscccscsccccccscssccccccsccccccccccccccsssccccccccccccccccccscscccccscccccsccccccccccsscscccccccccccccccccccsccccccscscccccccscccccccscccscccccccccccccscccccccccsccscscccccscccccccccsccccccsccscccscccccccscccscccscscccsccccccscccccccccccccccccccccccccccscccccccsscscscccccssccccccscccsccscccccscsccccsscccccccscscccccsccccsccccccccscscccscccccccsccccccccccccccscscccccccccccccccccccccccccccccccccccccccccccccccccccccccsccccccccccccccscccccccccccccccscccccsccccscsccccccc" />
    <path
       sodipodi:nodetypes="ccccc"
       inkscape:connector-curvature="0"
       id="path4329"
       d="m 1835.2178,357.30402 16.5232,-11.15831 16.9221,12.23719 -17.6612,10.81842 z"
       style="color:#000000;clip-rule:nonzero;display:inline;overflow:visible;visibility:visible;opacity:1;isolation:auto;mix-blend-mode:normal;color-interpolation:sRGB;color-interpolation-filters:linearRGB;solid-color:#000000;solid-opacity:1;fill:url(#linearGradient4327);fill-opacity:1;fill-rule:nonzero;stroke:#552200;stroke-width:5.4000001;stroke-linecap:butt;stroke-linejoin:miter;stroke-miterlimit:4;stroke-dasharray:none;stroke-dashoffset:0;stroke-opacity:1;filter:url(#filter4268-6);color-rendering:auto;image-rendering:auto;shape-rendering:auto;text-rendering:auto;enable-background:accumulate" />
    <flowRoot
       xml:space="preserve"
       id="episode-title-6"
       style="font-style:normal;font-variant:normal;font-weight:normal;font-stretch:normal;line-height:0.01%;font-family:Arial;-inkscape-font-specification:Arial;letter-spacing:0px;word-spacing:0px;display:inline;fill:#301b0b;fill-opacity:1;stroke:none"
       transform="translate(-701.93945,-120.8471)"><flowRegion
         id="flowRegion2989"><rect
           id="rect2991"
           width="2405.8"
           height="107.55731"
           x="739.22333"
           y="644.36664"
           style="fill:#301b0b;fill-opacity:1" /></flowRegion><flowPara
         id="flowPara2993"
         style="font-style:normal;font-variant:normal;font-weight:normal;font-stretch:normal;font-size:72px;line-height:1.25;font-family:Lavi;-inkscape-font-specification:Lavi;text-align:center;text-anchor:middle;fill:#301b0b;fill-opacity:1">Episode 13: Pysjamasfesten</flowPara></flowRoot>  </g>
</svg>
