<?xml version="1.0" encoding="UTF-8" standalone="no"?>
<!-- Created with Inkscape (http://www.inkscape.org/) -->

<svg
   xmlns:dc="http://purl.org/dc/elements/1.1/"
   xmlns:cc="http://creativecommons.org/ns#"
   xmlns:rdf="http://www.w3.org/1999/02/22-rdf-syntax-ns#"
   xmlns:svg="http://www.w3.org/2000/svg"
   xmlns="http://www.w3.org/2000/svg"
   xmlns:xlink="http://www.w3.org/1999/xlink"
   xmlns:sodipodi="http://sodipodi.sourceforge.net/DTD/sodipodi-0.dtd"
   xmlns:inkscape="http://www.inkscape.org/namespaces/inkscape"
   id="svg2"
   version="1.1"
   inkscape:version="0.92.3 (2405546, 2018-03-11)"
   width="2481"
   height="3503"
   sodipodi:docname="E08P05.svg">
  <metadata
     id="metadata8">
    <rdf:RDF>
      <cc:Work
         rdf:about="">
        <dc:format>image/svg+xml</dc:format>
        <dc:type
           rdf:resource="http://purl.org/dc/dcmitype/StillImage" />
        <dc:title />
      </cc:Work>
    </rdf:RDF>
  </metadata>
  <defs
     id="defs6">
    <filter
       color-interpolation-filters="sRGB"
       id="filter4375-4-1-1-15-1-3"
       inkscape:label="deevad outline effect">
      <feFlood
         id="feFlood4377-7-9-0-4-4-4"
         flood-opacity="0.90476190476190477"
         flood-color="rgb(250,62,62)"
         result="flood" />
      <feComposite
         id="feComposite4379-3-8-8-6-0-7"
         in2="SourceGraphic"
         in="flood"
         operator="in"
         result="composite1" />
      <feMorphology
         id="feMorphology4393-1-0-49-8-2-7"
         operator="dilate"
         radius="0.59999999999999998"
         result="result3" />
      <feComposite
         id="feComposite4385-9-5-7-2-1-2"
         in2="result3"
         in="SourceGraphic"
         operator="over"
         result="composite2" />
    </filter>
    <filter
       color-interpolation-filters="sRGB"
       id="filter4005"
       inkscape:label="deevad outline effect">
      <feFlood
         id="feFlood4007"
         flood-opacity="1"
         flood-color="rgb(0,0,0)"
         result="flood" />
      <feComposite
         id="feComposite4009"
         in2="SourceGraphic"
         in="flood"
         operator="in"
         result="composite1" />
      <feMorphology
         id="feMorphology4011"
         operator="dilate"
         radius="0.59999999999999998"
         result="result3" />
      <feComposite
         id="feComposite4013"
         in2="result3"
         in="SourceGraphic"
         operator="over"
         result="composite2" />
    </filter>
    <filter
       color-interpolation-filters="sRGB"
       id="filter4015"
       inkscape:label="deevad outline effect">
      <feFlood
         id="feFlood4017"
         flood-opacity="1"
         flood-color="rgb(0,0,0)"
         result="flood" />
      <feComposite
         id="feComposite4019"
         in2="SourceGraphic"
         in="flood"
         operator="in"
         result="composite1" />
      <feMorphology
         id="feMorphology4021"
         operator="dilate"
         radius="0.59999999999999998"
         result="result3" />
      <feComposite
         id="feComposite4023"
         in2="result3"
         in="SourceGraphic"
         operator="over"
         result="composite2" />
    </filter>
    <filter
       color-interpolation-filters="sRGB"
       id="filter4025"
       inkscape:label="deevad outline effect">
      <feFlood
         id="feFlood4027"
         flood-opacity="1"
         flood-color="rgb(0,0,0)"
         result="flood" />
      <feComposite
         id="feComposite4029"
         in2="SourceGraphic"
         in="flood"
         operator="in"
         result="composite1" />
      <feMorphology
         id="feMorphology4031"
         operator="dilate"
         radius="0.59999999999999998"
         result="result3" />
      <feComposite
         id="feComposite4033"
         in2="result3"
         in="SourceGraphic"
         operator="over"
         result="composite2" />
    </filter>
    <filter
       color-interpolation-filters="sRGB"
       id="filter4035"
       inkscape:label="deevad outline effect">
      <feFlood
         id="feFlood4037"
         flood-opacity="1"
         flood-color="rgb(0,0,0)"
         result="flood" />
      <feComposite
         id="feComposite4039"
         in2="SourceGraphic"
         in="flood"
         operator="in"
         result="composite1" />
      <feMorphology
         id="feMorphology4041"
         operator="dilate"
         radius="0.59999999999999998"
         result="result3" />
      <feComposite
         id="feComposite4043"
         in2="result3"
         in="SourceGraphic"
         operator="over"
         result="composite2" />
    </filter>
    <filter
       color-interpolation-filters="sRGB"
       id="filter4045"
       inkscape:label="deevad outline effect">
      <feFlood
         id="feFlood4047"
         flood-opacity="1"
         flood-color="rgb(0,0,0)"
         result="flood" />
      <feComposite
         id="feComposite4049"
         in2="SourceGraphic"
         in="flood"
         operator="in"
         result="composite1" />
      <feMorphology
         id="feMorphology4051"
         operator="dilate"
         radius="0.59999999999999998"
         result="result3" />
      <feComposite
         id="feComposite4053"
         in2="result3"
         in="SourceGraphic"
         operator="over"
         result="composite2" />
    </filter>
    <filter
       color-interpolation-filters="sRGB"
       id="filter4055"
       inkscape:label="deevad outline effect">
      <feFlood
         id="feFlood4057"
         flood-opacity="1"
         flood-color="rgb(0,0,0)"
         result="flood" />
      <feComposite
         id="feComposite4059"
         in2="SourceGraphic"
         in="flood"
         operator="in"
         result="composite1" />
      <feMorphology
         id="feMorphology4061"
         operator="dilate"
         radius="0.59999999999999998"
         result="result3" />
      <feComposite
         id="feComposite4063"
         in2="result3"
         in="SourceGraphic"
         operator="over"
         result="composite2" />
    </filter>
    <filter
       color-interpolation-filters="sRGB"
       id="filter4065"
       inkscape:label="deevad outline effect">
      <feFlood
         id="feFlood4067"
         flood-opacity="1"
         flood-color="rgb(0,0,0)"
         result="flood" />
      <feComposite
         id="feComposite4069"
         in2="SourceGraphic"
         in="flood"
         operator="in"
         result="composite1" />
      <feMorphology
         id="feMorphology4071"
         operator="dilate"
         radius="0.59999999999999998"
         result="result3" />
      <feComposite
         id="feComposite4073"
         in2="result3"
         in="SourceGraphic"
         operator="over"
         result="composite2" />
    </filter>
    <filter
       id="filter3068"
       inkscape:label="Diffuse light"
       inkscape:menu="ABCs"
       inkscape:menu-tooltip="Basic diffuse bevel to use for building textures"
       color-interpolation-filters="sRGB">
      <feGaussianBlur
         id="feGaussianBlur3070"
         stdDeviation="6"
         in="SourceGraphic"
         result="result0" />
      <feDiffuseLighting
         id="feDiffuseLighting3072"
         diffuseConstant="1"
         surfaceScale="10"
         result="result5">
        <feDistantLight
           id="feDistantLight3074"
           elevation="25"
           azimuth="235" />
      </feDiffuseLighting>
      <feComposite
         id="feComposite3076"
         in2="SourceGraphic"
         k1="1"
         in="result5"
         result="result4"
         operator="arithmetic"
         k2="0"
         k3="0.6" />
    </filter>
  </defs>
  <sodipodi:namedview
     pagecolor="#ffffff"
     bordercolor="#666666"
     borderopacity="1"
     objecttolerance="10"
     gridtolerance="10"
     guidetolerance="10"
     inkscape:pageopacity="0"
     inkscape:pageshadow="2"
     inkscape:window-width="1914"
     inkscape:window-height="1018"
     id="namedview4"
     showgrid="false"
     inkscape:zoom="0.64686497"
     inkscape:cx="1368.6765"
     inkscape:cy="2895.3743"
     inkscape:window-x="0"
     inkscape:window-y="0"
     inkscape:window-maximized="0"
     inkscape:current-layer="layer3"
     showguides="true"
     inkscape:guide-bbox="true"
     inkscape:snap-global="false">
    <sodipodi:guide
       orientation="1,0"
       position="102.49375,3567.4437"
       id="guide3066"
       inkscape:locked="false" />
    <sodipodi:guide
       orientation="0,1"
       position="438.07811,3402.1312"
       id="guide3068"
       inkscape:locked="false" />
  </sodipodi:namedview>
  <g
     inkscape:groupmode="layer"
     id="layer2"
     inkscape:label="artwork"
     sodipodi:insensitive="true">
    <image
       sodipodi:absref="/home/peppercarrot/webcomics/"
       xlink:href="../gfx_Pepper-and-Carrot_by-David-Revoy_E08P05.png"
       width="2481"
       height="3503"
       id="image10"
       x="0"
       y="0" />
  </g>
  <g
     inkscape:groupmode="layer"
     id="layer3"
     inkscape:label="speechbubbles">
    <path
       style="color:#000000;fill:#ffffff;fill-opacity:1;fill-rule:nonzero;stroke:none;stroke-width:1px;marker:none;visibility:visible;display:inline;overflow:visible;enable-background:accumulate"
       d="m 1889.0397,1689.3949 c -18.4523,28.3798 -51.1226,88.4968 -53.6964,103.6923 24.9455,9.8716 63.3606,38.7994 61.4454,43.4826 -1.9154,4.6832 -64.3114,57.1793 -62.1183,64.6368 2.1932,7.4574 17.4097,29.1871 26.1857,34.615 -23.9099,-18.6352 -40.7903,-34.5159 -40.9424,-46.0736 -0.5159,-7.819 48.671,-48.3166 52.2072,-50.9091 -18.4319,-14.9363 -59.2654,-41.5126 -63.9461,-49.6536 1.5251,-11.9193 7.4437,-57.7273 34.6061,-108.1162 27.1625,-50.3889 46.2588,8.3258 46.2588,8.3258 z"
       id="path5901"
       inkscape:connector-curvature="0"
       sodipodi:nodetypes="ccccccccsc" />
    <path
       style="color:#000000;display:inline;overflow:visible;visibility:visible;fill:#ffffff;fill-opacity:1;fill-rule:nonzero;stroke:none;stroke-width:1px;marker:none;enable-background:accumulate"
       d="M 684.46655,504.23214 C 645.63758,456.69235 599.80922,416.22311 569.11259,360.4683 l -1.85194,54.05579 c -18.7599,-35.8555 -11.75503,-17.85305 -25.22965,-47.64751 l -15.92861,46.76414 C 513.51852,333.72922 503.03202,288.32591 497.37355,233.4475 l -92.44612,118.39056 c 42.33094,33.64645 89.25651,58.25928 126.41923,102.0668 l 14.26552,-29.60136 c 14.75637,12.81656 22.12119,18.87885 34.41417,35.87184 l 8.17921,-39.82354 z"
       id="path4032"
       inkscape:connector-curvature="0"
       sodipodi:nodetypes="cccccccccccc" />
    <path
       style="color:#000000;display:inline;overflow:visible;visibility:visible;fill:#ffffff;fill-opacity:1;fill-rule:nonzero;stroke:none;stroke-width:1px;marker:none;enable-background:accumulate"
       d="M 107.88802,76.139256 92.886611,73.639185 96.416369,96.973121 C 72.679814,98.239263 60.312577,90.915755 43.470694,86.972884 l 26.472782,30.000586 -4.41211,8.33356 c 4.297969,4.87265 10.783203,8.19602 12.353978,15.00036 -11.990847,4.24026 -20.612012,4.23744 -30.528444,5.86559 9.330691,5.63519 17.098979,12.15555 22.586576,19.96828 L 38.176118,179.47482 67.294259,191.1399 C 45.3925,210.32182 17.864813,222.4195 -7.7101722,236.97618 l 90.8901012,-6.66691 -14.118795,15.00034 c 9.084392,7.80727 8.281582,3.94277 12.353977,5.83353 1.983191,5.61853 -31.245446,28.97967 -28.237722,26.66726 3.529767,-0.8334 33.532307,-4.16686 33.532307,-4.16686 0,0 -26.472915,23.33392 -22.943147,23.33392 3.529635,0 32.64982,-5.8335 32.64982,-5.8335 l -9.706673,22.50053 -18.974908,9.18136 -26.078243,25.37534 c 9.872167,-1.64587 14.542639,1.24863 11.032832,10.97676 -23.7528,34.63931 8.65584,64.82129 14.482114,76.61422 56.077989,-64.76194 56.293009,-70.05546 76.083469,-84.35442 18.65302,14.47676 19.35342,13.5342 32.58001,36.37499 9.54865,-14.79473 20.57469,-20.72264 35.29713,-29.16731 4.59503,8.73075 4.6258,10.75375 6.17706,20.00046 4.80077,-6.96438 6.92971,-13.01956 26.47277,-25.00058 0.68626,10.93909 0.60415,10.54869 0,25.83399 20.01755,-18.50528 19.74666,-18.43594 34.41479,-30.00073 3.8567,47.57457 6.72575,65.46537 7.68998,108.0848 16.91683,-28.69092 27.24512,-50.94778 52.3151,-93.08443 5.03094,14.41205 5.51892,17.69575 3.44888,35.19939 7.75982,-14.22373 8.27756,-18.35011 16.8471,-32.69934 5.75006,7.89526 5.42591,17.0307 2.64729,26.66726 5.41499,-12.42466 9.41783,-25.08961 24.70797,-35.83409 15.56149,8.43849 16.14679,20.69912 18.53104,32.50064 -0.75436,-15.08195 4.70164,-25.40897 17.64855,-30.00058 29.40779,23.7826 67.8301,25.34664 82.19675,56.55675 -5.57238,-32.83252 -31.97008,-37.20876 -21.30918,-66.55699 10.00085,-2.64236 20.00169,2.64273 30.00255,10.00024 l -0.71899,-33.48688 37.06207,14.2156 -21.34183,-23.22973 c 15.39988,-2.4773 38.31378,4.65797 58.24041,8.33357 l -10.58916,-22.50052 c 8.98416,0.841 24.29537,9.66242 38.82688,17.50041 -17.85575,-21.52352 -32.87586,-35.74495 -31.76748,-55.83458 l 40.59172,4.16674 C 607.31983,254.49737 587.335,243.36941 576.20641,223.87788 l 35.54843,-1.90206 -33.53231,-25.00059 26.47278,-14.16695 -21.17818,-3.33346 35.29711,-30.00059 -46.76876,-2.50005 56.47545,-54.167907 -60.78687,-4.328333 0.78166,-23.172195 -36.17947,28.333924 36.17947,-98.3354534 C 539.28459,30.477966 516.76158,58.645522 477.12517,83.99257 l -12.74206,-9.874951 -14.11274,5.113988 3.52962,-28.092829 -52.0632,34.167313 5.29456,-15.833621 -15.88373,15.000353 3.52964,-20.833859 -27.35526,25.000584 2.5186,-21.782952 -13.10776,14.28277 -4.03624,-13.686703 -15.37714,8.686593 C 332.69258,40.027358 340.64282,3.9154623 346.14367,-32.196432 328.08992,9.1431889 305.16233,46.537624 274.66695,77.806038 L 264.96025,61.978011 252.85746,76.613924 240.63215,57.695344 222.2258,80.302333 C 207.67015,63.079708 199.19271,52.527655 193.48352,35.305038 c 2.81562,16.141192 4.86275,26.984296 0.75574,44.759838 C 140.50683,52.85005 142.11543,50.423143 122.00682,35.305038 116.4967,54.736793 111.00574,61.206707 107.88802,76.139256 Z"
       id="path4024"
       inkscape:connector-curvature="0"
       sodipodi:nodetypes="cccccccccccccccccsccccccccccccccccccccccccccccccccccccccccccccccccccccccccccccccccccc" />
    <flowRoot
       xml:space="preserve"
       id="flowRoot2987-4-9-3"
       style="font-style:normal;font-variant:normal;font-weight:normal;font-stretch:normal;line-height:0.01%;font-family:Lavi;-inkscape-font-specification:Lavi;text-align:center;letter-spacing:0px;word-spacing:0px;text-anchor:middle;fill:#000000;fill-opacity:1;stroke:none"
       transform="translate(-105.58639,-126.80055)"><flowRegion
         id="flowRegion2989-5-4-5"><rect
           id="rect2991-7-9-6"
           width="602.40173"
           height="310.73996"
           x="120.55251"
           y="265.53046"
           style="font-style:normal;font-variant:normal;font-weight:normal;font-stretch:normal;font-family:Lavi;-inkscape-font-specification:Lavi;text-align:center;text-anchor:middle" /></flowRegion><flowPara
         style="font-size:48px;line-height:1.25;text-align:center;text-anchor:middle"
         id="flowPara3362">Com han pogut</flowPara><flowPara
         style="font-size:48px;line-height:1.25;text-align:center;text-anchor:middle"
         id="flowPara3070">fer-me això?!!</flowPara><flowPara
         style="font-size:48px;line-height:1.25;text-align:center;text-anchor:middle"
         id="flowPara3011">A         </flowPara></flowRoot>    <flowRoot
       xml:space="preserve"
       id="flowRoot2987-4-9-3-0"
       style="font-style:normal;font-variant:normal;font-weight:normal;font-stretch:normal;line-height:0.01%;font-family:Lavi;-inkscape-font-specification:Lavi;text-align:center;letter-spacing:0px;word-spacing:0px;text-anchor:middle;fill:#000000;fill-opacity:1;stroke:none"
       transform="matrix(1.2147869,0,0,1.2147869,-197.52075,-72.977052)"><flowRegion
         id="flowRegion2989-5-4-5-1"><rect
           id="rect2991-7-9-6-4"
           width="602.40173"
           height="310.73996"
           x="120.55251"
           y="265.53046"
           style="font-style:normal;font-variant:normal;font-weight:normal;font-stretch:normal;font-family:Lavi;-inkscape-font-specification:Lavi;text-align:center;text-anchor:middle" /></flowRegion><flowPara
         style="font-style:italic;font-weight:bold;font-size:48px;line-height:1.25;-inkscape-font-specification:'Lavi Bold Italic';text-align:center;letter-spacing:1.5px;text-anchor:middle;stroke:#000000;stroke-width:3.15775537;stroke-miterlimit:4;stroke-dasharray:none;stroke-opacity:1"
         id="flowPara3030-8-7">mi</flowPara></flowRoot>    <flowRoot
       xml:space="preserve"
       id="flowRoot3805"
       style="font-style:normal;font-variant:normal;font-weight:normal;font-stretch:normal;line-height:0.01%;font-family:Arial;-inkscape-font-specification:Arial;letter-spacing:0px;word-spacing:0px;fill:#000000;fill-opacity:1;stroke:none"><flowRegion
         id="flowRegion3807"><rect
           id="rect3809"
           width="371.73911"
           height="402.17389"
           x="1565.2173"
           y="587.78271" /></flowRegion><flowPara
         id="flowPara3811"
         style="font-size:12px;line-height:1.25"> </flowPara></flowRoot>    <flowRoot
       xml:space="preserve"
       id="flowRoot2987-4-9-3-8"
       style="font-style:normal;font-variant:normal;font-weight:normal;font-stretch:normal;line-height:0.01%;font-family:Lavi;-inkscape-font-specification:Lavi;text-align:center;letter-spacing:0px;word-spacing:0px;text-anchor:middle;opacity:0.71162792;fill:#ba9176;fill-opacity:1;stroke:none;stroke-width:1.07208359;filter:url(#filter3068)"
       transform="matrix(0.71217783,-0.23664087,0.24109246,0.76388897,1471.5116,46.054864)"><flowRegion
         id="flowRegion2989-5-4-5-4"
         style="stroke-width:1.07208359"><rect
           id="rect2991-7-9-6-3"
           width="602.40173"
           height="310.73996"
           x="120.55251"
           y="265.53046"
           style="font-style:normal;font-variant:normal;font-weight:normal;font-stretch:normal;font-family:Lavi;-inkscape-font-specification:Lavi;text-align:center;text-anchor:middle;fill:#ba9176;fill-opacity:1;stroke-width:1.07208359" /></flowRegion><flowPara
         style="font-style:normal;font-variant:normal;font-weight:normal;font-stretch:normal;font-size:48px;line-height:1.25;font-family:Fondamento;-inkscape-font-specification:Fondamento;text-align:center;text-anchor:middle;fill:#ba9176;fill-opacity:1;stroke-width:1.07208359"
         id="flowPara3030-8-2">Encanteris</flowPara><flowPara
         style="font-style:normal;font-variant:normal;font-weight:normal;font-stretch:normal;font-size:48px;line-height:1.25;font-family:Fondamento;-inkscape-font-specification:Fondamento;text-align:center;text-anchor:middle;fill:#ba9176;fill-opacity:1;stroke-width:1.07208359"
         id="flowPara3826">de Dimonis del</flowPara><flowPara
         style="font-style:normal;font-variant:normal;font-weight:normal;font-stretch:normal;font-size:48px;line-height:1.25;font-family:Fondamento;-inkscape-font-specification:Fondamento;text-align:center;text-anchor:middle;fill:#ba9176;fill-opacity:1;stroke-width:1.07208359"
         id="flowPara3828">CHAOSAH</flowPara><flowPara
         style="font-style:normal;font-variant:normal;font-weight:normal;font-stretch:normal;font-size:48px;line-height:1.25;font-family:Fondamento;-inkscape-font-specification:Fondamento;text-align:center;text-anchor:middle;fill:#ba9176;fill-opacity:1;stroke-width:1.07208359"
         id="flowPara3830">Vol .1</flowPara></flowRoot>    <path
       style="fill:#ffffff;fill-opacity:1;stroke:none;stroke-width:1"
       d="m 1577.8048,1603.9485 c 27.1447,6.4777 37.5847,12.4927 32.7126,16.1943 11.1362,1.8508 15.3123,49.971 4.8721,58.7621 -0.696,0.9256 -5.5681,3.7017 -3.4801,4.1644 2.088,0.4626 14.6163,-0.9253 16.7044,0.9254 2.0879,1.8508 -18.7924,28.2244 -16.0084,29.1497 2.7841,0.9254 66.8172,-16.657 75.8653,-12.4927 9.0483,4.1643 4.1762,14.8062 6.9602,15.269 2.7839,0.4626 28.5366,-2.3135 32.0167,-1.8509 3.4799,0.4628 12.4733,11.0929 13.2239,14.8062 3.0627,-2.5174 19.4885,-6.0149 22.2726,-5.5522 2.784,0.4627 4.7061,9.7952 4.872,12.4926 2.7004,-2.5847 18.7923,-9.7164 20.8805,-9.2539 2.0878,0.4628 11.1088,18.9249 13.2241,24.9855 3.2852,-3.894 25.7524,-25.448 27.8405,-25.9108 2.0881,-0.4627 15.3122,31.4632 18.0964,31.926 2.784,0.4627 16.7042,-21.7468 18.7923,-21.2841 2.088,0.4627 15.3123,13.4183 18.0962,14.3436 2.7842,0.9253 20.8806,-28.687 23.6643,-28.687 2.7843,0 26.4487,12.4927 28.5368,14.8061 2.0881,2.3135 4.1759,-12.0301 6.96,-12.0301 2.7841,0 34.8006,8.3286 35.4966,7.8659 0.696,-0.4627 -4.872,-9.2538 -2.7839,-9.2538 35.3278,5.1423 79.1961,12.31 112.0578,18.9704 -13.619,-11.6279 -31.3205,-37.9409 -27.8407,-40.717 3.4802,-2.7763 16.0086,0.4626 16.7047,-0.9255 0.6959,-1.388 -7.6562,-7.403 -5.5684,-9.2539 2.0882,-1.8507 27.8406,-11.5673 27.8406,-11.5673 0,0 -10.4401,-8.3286 -7.6562,-9.7167 2.7842,-1.3881 29.6581,-11.1331 44.5451,-12.4927 -5.7546,-2.075 -20.8804,-13.418 -18.0965,-16.657 2.7841,-3.2388 4.2049,-4.15 9.7441,-6.9404 -2.6312,-1.3597 -13.9203,-5.0896 -13.2241,-7.4031 0.6961,-2.3135 7.6561,-13.8809 9.7441,-15.7316 2.0881,-1.8508 -14.6163,-0.9254 -14.6163,-2.7762 0,-1.8508 -3.1196,-17.5936 55.5079,-45.9453 -78.1165,14.5795 -104.9221,3.2987 -127.8902,-0.4028 -22.9688,-3.7016 -9.3962,-14.7601 -3.4828,-26.2949 -13.4036,6.6425 -29.9724,9.6238 -32.7128,4.6269 -3.4799,-3.2388 -3.6497,-2.0196 -7.6561,-9.2539 -14.0054,9.8474 -18.7925,12.9554 -22.2723,12.4928 -3.4802,-0.4627 -30.2582,-7.3837 -41.0648,-21.284 -13.7737,9.6841 -23.6644,7.8659 -27.8406,8.3285 -4.1761,0.4627 -6.667,-3.426 -11.1361,-10.1792 -3.4802,0.9253 -25.7524,9.2539 -29.2325,8.3284 -3.48,-0.9253 -3.2969,0.8579 -9.0483,-3.7014 -2.7839,0.9253 -15.3121,4.6269 -15.3121,4.6269 0,0 -7.9264,1.993 -13.2243,-2.7762 -11.6548,10.7828 -29.16,14.0247 -36.1925,16.1943 -6.4717,-3.0146 -33.4086,-35.1648 -31.3205,-37.941 2.088,-2.7762 -31.3208,38.4037 -36.1927,39.7918 -4.8722,1.388 -14.5431,1.6116 -20.8804,-1.3881 -1.3922,1.3881 -5.5682,8.7911 -9.7443,9.2539 -4.176,0.4626 -13.9202,2.3133 -13.9202,2.3133 l 1.392,2.7763 c 0,0 -29.2325,-7.4031 -32.7126,-10.1793 -3.48,-2.7761 2.0881,12.03 4.1762,15.7316 -12.5281,-3.7016 -49.4169,-11.5674 -52.2007,-13.8809 -2.7843,-2.3134 4.8717,8.3286 9.0479,11.5674 -5.568,-1.3881 -10.4402,-1.8507 -10.4402,-1.8507 l 16.0083,11.1046 -4.872,0.9255 c 0,0 10.4401,5.0896 10.4401,7.4031 0,2.3135 -27.1445,5.0896 -27.1445,5.0896 0,0 11.1363,4.1642 8.3522,6.4777 -2.7841,2.3135 -9.7441,3.7015 -9.7441,3.7015 l -1.3921,6.0151 z"
       id="path5888"
       inkscape:connector-curvature="0"
       sodipodi:nodetypes="ccccccscccscccccscscsccccscccccccsscscccccccccccccccccccccccccsccccc" />
    <flowRoot
       xml:space="preserve"
       id="flowRoot2987-4-9-3-7"
       style="font-style:normal;font-variant:normal;font-weight:normal;font-stretch:normal;line-height:0.01%;font-family:Lavi;-inkscape-font-specification:Lavi;text-align:center;letter-spacing:0px;word-spacing:0px;text-anchor:middle;fill:#000000;fill-opacity:1;stroke:none"
       transform="translate(1438.7362,1302.3305)"><flowRegion
         id="flowRegion2989-5-4-5-6"><rect
           id="rect2991-7-9-6-7"
           width="602.40173"
           height="310.73996"
           x="120.55251"
           y="265.53046"
           style="font-style:normal;font-variant:normal;font-weight:normal;font-stretch:normal;font-family:Lavi;-inkscape-font-specification:Lavi;text-align:center;text-anchor:middle" /></flowRegion><flowPara
         style="font-size:48px;line-height:1.25;text-align:center;text-anchor:middle"
         id="flowPara3366">...com que no</flowPara><flowPara
         style="font-size:48px;line-height:1.25;text-align:center;text-anchor:middle"
         id="flowPara3074">puc confiar-hi...</flowPara></flowRoot>    <flowRoot
       xml:space="preserve"
       id="flowRoot4133-6-9-4-8-5"
       style="color:#000000;font-style:normal;font-variant:normal;font-weight:normal;font-stretch:normal;line-height:0.01%;font-family:Arial;-inkscape-font-specification:Arial;letter-spacing:0.00204969px;word-spacing:0px;display:inline;overflow:visible;visibility:visible;fill:#ffffff;fill-opacity:1;fill-rule:nonzero;stroke:#ffffff;stroke-width:0.0836072;stroke-linecap:butt;stroke-linejoin:miter;stroke-miterlimit:4;stroke-dasharray:none;stroke-dashoffset:0;stroke-opacity:1;marker:none;filter:url(#filter4375-4-1-1-15-1-3);enable-background:accumulate"
       transform="matrix(10.283923,-1.1779802,-12.443827,20.606946,2168.326,-18000.295)"><flowRegion
         id="flowRegion4135-2-9-3-5-2"
         style="stroke-width:0.86646658"><rect
           id="rect4137-1-7-1-2-1"
           width="92.489304"
           height="30.687002"
           x="1125.3193"
           y="1078.5308"
           style="color:#000000;letter-spacing:0.00204969px;display:inline;overflow:visible;visibility:visible;fill:#ffffff;fill-opacity:1;fill-rule:nonzero;stroke:#ffffff;stroke-width:0.0836072;stroke-linecap:butt;stroke-linejoin:miter;stroke-miterlimit:4;stroke-dasharray:none;stroke-dashoffset:0;stroke-opacity:1;marker:none;enable-background:accumulate" /></flowRegion><flowPara
         id="flowPara4139-2-8-6-8-6"
         style="color:#000000;font-style:normal;font-variant:normal;font-weight:normal;font-stretch:normal;font-size:12px;line-height:125%;font-family:Lavi;-inkscape-font-specification:Lavi;letter-spacing:0.00204969px;word-spacing:0.00204969px;display:inline;overflow:visible;visibility:visible;fill:#ffffff;fill-opacity:1;fill-rule:nonzero;stroke:#ffffff;stroke-width:0.0836072;stroke-linecap:butt;stroke-linejoin:miter;stroke-miterlimit:4;stroke-dasharray:none;stroke-dashoffset:0;stroke-opacity:1;marker:none;enable-background:accumulate"><flowSpan
   id="flowSpan4821"
   style="color:#000000;font-size:7.13246202px;display:inline;overflow:visible;visibility:visible;fill:#ffffff;fill-opacity:1;fill-rule:nonzero;stroke:#ffffff;stroke-width:0.0836072;stroke-linecap:butt;stroke-linejoin:miter;stroke-miterlimit:4;stroke-dasharray:none;stroke-dashoffset:0;stroke-opacity:1;marker:none;enable-background:accumulate">D</flowSpan><flowSpan
   id="flowSpan4823"
   style="color:#000000;font-size:8.55645752px;display:inline;overflow:visible;visibility:visible;fill:#ffffff;fill-opacity:1;fill-rule:nonzero;stroke:#ffffff;stroke-width:0.0836072;stroke-linecap:butt;stroke-linejoin:miter;stroke-miterlimit:4;stroke-dasharray:none;stroke-dashoffset:0;stroke-opacity:1;marker:none;enable-background:accumulate">Z</flowSpan><flowSpan
   style="color:#000000;font-size:9.90925312px;display:inline;overflow:visible;visibility:visible;fill:#ffffff;fill-opacity:1;fill-rule:nonzero;stroke:#ffffff;stroke-width:0.0836072;stroke-linecap:butt;stroke-linejoin:miter;stroke-miterlimit:4;stroke-dasharray:none;stroke-dashoffset:0;stroke-opacity:1;marker:none;enable-background:accumulate"
   id="flowSpan4271-5">Z</flowSpan>ZO<flowSpan
   id="flowSpan4277-2"
   style="color:#000000;font-size:17.85409164px;display:inline;overflow:visible;visibility:visible;fill:#ffffff;fill-opacity:1;fill-rule:nonzero;stroke:#ffffff;stroke-width:0.0836072;stroke-linecap:butt;stroke-linejoin:miter;stroke-miterlimit:4;stroke-dasharray:none;stroke-dashoffset:0;stroke-opacity:1;marker:none;enable-background:accumulate">O<flowSpan
   style="font-size:20.70208168px"
   id="flowSpan4005">O</flowSpan></flowSpan></flowPara></flowRoot>    <text
       xml:space="preserve"
       style="font-style:normal;font-weight:normal;line-height:0%;font-family:sans-serif;letter-spacing:0px;word-spacing:0px;fill:#000000;fill-opacity:1;stroke:none"
       x="419.77832"
       y="252.3373"
       id="text3358"><tspan
         sodipodi:role="line"
         id="tspan3360"
         x="419.77832"
         y="252.3373"
         style="font-size:40px;line-height:1.25;font-family:sans-serif"> </tspan></text>
    <flowRoot
       transform="translate(-105.58639,-6.80055)"
       style="font-style:normal;font-variant:normal;font-weight:normal;font-stretch:normal;line-height:0.01%;font-family:Lavi;-inkscape-font-specification:Lavi;text-align:center;letter-spacing:0px;word-spacing:0px;text-anchor:middle;fill:#000000;fill-opacity:1;stroke:none"
       id="flowRoot108"
       xml:space="preserve"><flowRegion
         id="flowRegion100"><rect
           style="font-style:normal;font-variant:normal;font-weight:normal;font-stretch:normal;font-family:Lavi;-inkscape-font-specification:Lavi;text-align:center;text-anchor:middle"
           y="265.53046"
           x="120.55251"
           height="310.73996"
           width="602.40173"
           id="rect98" /></flowRegion><flowPara
         id="flowPara104"
         style="font-size:48px;line-height:1.25;text-align:center;text-anchor:middle" /><flowPara
         id="flowPara106"
         style="font-size:48px;line-height:1.25;text-align:center;text-anchor:middle">        !!!</flowPara></flowRoot>  </g>
  <g
     inkscape:groupmode="layer"
     id="layer1"
     inkscape:label="txt" />
</svg>
