<?xml version="1.0" encoding="UTF-8" standalone="no"?>
<!-- Created with Inkscape (http://www.inkscape.org/) -->

<svg
   xmlns:dc="http://purl.org/dc/elements/1.1/"
   xmlns:cc="http://creativecommons.org/ns#"
   xmlns:rdf="http://www.w3.org/1999/02/22-rdf-syntax-ns#"
   xmlns:svg="http://www.w3.org/2000/svg"
   xmlns="http://www.w3.org/2000/svg"
   xmlns:xlink="http://www.w3.org/1999/xlink"
   xmlns:sodipodi="http://sodipodi.sourceforge.net/DTD/sodipodi-0.dtd"
   xmlns:inkscape="http://www.inkscape.org/namespaces/inkscape"
   id="svg2"
   version="1.1"
   inkscape:version="0.92.2 2405546, 2018-03-11"
   width="2481"
   height="3503"
   sodipodi:docname="E26P06.svg">
  <metadata
     id="metadata8">
    <rdf:RDF>
      <cc:Work
         rdf:about="">
        <dc:format>image/svg+xml</dc:format>
        <dc:type
           rdf:resource="http://purl.org/dc/dcmitype/StillImage" />
        <dc:title />
      </cc:Work>
    </rdf:RDF>
  </metadata>
  <defs
     id="defs6" />
  <sodipodi:namedview
     pagecolor="#ffffff"
     bordercolor="#666666"
     borderopacity="1"
     objecttolerance="10"
     gridtolerance="10"
     guidetolerance="10"
     inkscape:pageopacity="0"
     inkscape:pageshadow="2"
     inkscape:window-width="1920"
     inkscape:window-height="1033"
     id="namedview4"
     showgrid="false"
     inkscape:zoom="1.12636"
     inkscape:cx="1191.4589"
     inkscape:cy="1532.6924"
     inkscape:window-x="0"
     inkscape:window-y="47"
     inkscape:window-maximized="0"
     inkscape:current-layer="layer1"
     inkscape:snap-global="false" />
  <g
     inkscape:groupmode="layer"
     id="layer2"
     inkscape:label="artwork"
     sodipodi:insensitive="true">
    <image
       sodipodi:absref="/home/midgard/git/peppercarrot/comics/ep26_Books-Are-Great/lang/es/../gfx_Pepper-and-Carrot_by-David-Revoy_E26P06.png"
       xlink:href="../gfx_Pepper-and-Carrot_by-David-Revoy_E26P06.png"
       width="2481"
       height="3503"
       id="image10"
       x="0"
       y="0" />
  </g>
  <g
     inkscape:groupmode="layer"
     id="layer3"
     inkscape:label="speechbubbles">
    <path
       style="color:#000000;display:inline;overflow:visible;visibility:visible;fill:#ffffff;fill-opacity:1;fill-rule:nonzero;stroke:none;stroke-width:1.13598561px;marker:none;enable-background:accumulate"
       d="m 1612.9025,2329.2461 c -20.2593,-6.2866 -78.676,-56.0835 -7.0306,-53.4826 -52.7291,-20.9531 -45.7196,-62.6535 -2.3881,-87.008 -56.8359,4.9777 -99.0132,-5.4154 -69.7272,-48.4545 -84.0699,27.5624 -121.3811,33.1826 -103.9098,-27.2699 -38.7276,49.8835 -75.8745,40.5732 -85.4438,-17.7809 -8.7272,43.4949 -27.3577,67.2664 -82.8926,12.5018 -4.0879,15.9595 -15.6842,66.4647 -135.4346,51.9722 45.3822,30.42 74.2108,49.8925 -3.0162,62.7611 39.3577,13.6848 64.4567,32.2234 3.1164,61.675 39.7456,9.3017 102.6247,6.5753 26.2676,62.9047 50.3415,-26.6232 134.3167,-7.3868 98.1222,35.5565 98.6483,-48.2523 117.6215,-35.3859 132.5171,-0.8125 36.6793,-50.6251 89.6875,-44.8908 120.5195,-15.4624 -14.9885,-44.8637 64.0016,-37.1198 109.3001,-37.1005 z"
       id="path3549-3-78"
       inkscape:connector-curvature="0"
       sodipodi:nodetypes="ccccccccccccccc" />
    <path
       style="color:#000000;display:inline;overflow:visible;visibility:visible;fill:#ffffff;fill-opacity:1;fill-rule:nonzero;stroke:none;stroke-width:1.01871407px;marker:none;enable-background:accumulate"
       d="m 1402.8571,2333.9593 c 7.8551,45.2245 -0.6865,96.6369 -78.6529,106.2078 -25.201,28.7471 -47.7946,47.6765 -113.2114,34.184 49.8699,1.0663 77.1319,-3.8454 110.8215,-49.0964 42.563,0.7758 70.1242,-36.0119 48.4083,-95.037 -21.7161,-59.0252 -20.5388,-41.7552 -20.5388,-41.7552 l 47.376,28.0049 z"
       id="path5074"
       inkscape:connector-curvature="0"
       sodipodi:nodetypes="ccccsccc" />
    <path
       style="color:#000000;display:inline;overflow:visible;visibility:visible;fill:#ffffff;fill-opacity:1;fill-rule:nonzero;stroke:none;stroke-width:1.0566107px;marker:none;enable-background:accumulate"
       d="m 1024.9342,1942.8259 c 19.2554,-39.2788 196.0738,-67.5199 253.2002,13.4257 57.1263,80.9456 27.831,165.7431 -4.9465,196.6494 -32.7773,30.9065 -172.0081,39.6108 -216.9847,23.8715 -40.4454,-14.1539 -58.66543,-49.6406 -60.90367,-130.7239 -0.91356,-33.0932 10.37917,-63.9436 29.63467,-103.2227 z"
       id="path4040"
       inkscape:connector-curvature="0"
       sodipodi:nodetypes="zssssz" />
  </g>
  <g
     inkscape:groupmode="layer"
     id="layer1"
     inkscape:label="txt">
    <path
       style="color:#000000;display:inline;overflow:visible;visibility:visible;fill:#ffffff;fill-opacity:1;fill-rule:nonzero;stroke:none;stroke-width:1px;marker:none;enable-background:accumulate"
       d="m 1740.3605,637.95688 c 17.4053,17.1181 35.3748,35.0294 57.0685,48.7241 6.1988,3.8199 12.7078,7.5251 19.009,9.9498 6.3746,1.4498 9.8735,-1.4122 10.2479,-5.6132 1.1947,-5.7353 -1.4145,-13.9047 3.6212,-17.285 3.8153,-2.3306 11.4822,0.8814 17.8675,3.1704 16.3272,6.0748 33.0627,13.8279 48.9378,17.9363 18.2324,5.5799 37.1007,10.4081 51.0148,8.0016 5.4182,-1.0555 10.3442,-3.0194 11.8487,-7.4624 -11.8529,-30.14705 -41.315,-28.57407 -60.2412,-23.1796 -6.8911,1.9398 -18.3474,-1.96756 -28.217,-4.71516 -12.4299,-0.8743 -25.0467,-6.21694 -38.7607,-12.19864 -6.261,-2.6676 -12.8949,-5.2059 -18.2978,-5.4716 -6.5707,1.3916 -9.2612,7.0734 -7.7874,13.4873 1.2952,6.5363 4.2551,10.27689 -1.1401,13.11709 -3.0033,2.6585 -7.7221,-0.63503 -13.1082,-3.00783 -17.4337,-9.2145 -34.1552,-18.02906 -48.3937,-31.46116 -1.2852,-1.3148 -2.4776,-2.6514 -3.6693,-3.992 z"
       id="path4496"
       inkscape:connector-curvature="0"
       sodipodi:nodetypes="cccccccccccccccccc"
       inkscape:transform-center-x="22.684309"
       inkscape:transform-center-y="9.4517954" />
    <path
       style="color:#000000;display:inline;overflow:visible;visibility:visible;fill:#ffffff;fill-opacity:1;fill-rule:nonzero;stroke:none;stroke-width:1.06903112px;marker:none;enable-background:accumulate"
       d="m 1866.175,704.64609 c -3.8049,-51.31893 35.6322,-76.04073 115.6443,-75.58242 80.0121,0.45831 137.5519,-1.51872 153.3307,77.56158 5.9676,65.24942 -72.6705,79.55476 -142.0662,78.12988 -69.3955,-1.42486 -130.033,-13.74272 -126.9088,-80.10904 z"
       id="path3565"
       inkscape:connector-curvature="0"
       sodipodi:nodetypes="cscsc" />
    <text
       xml:space="preserve"
       style="font-style:normal;font-variant:normal;font-weight:normal;font-stretch:normal;line-height:0%;font-family:Lavi;-inkscape-font-specification:Lavi;text-align:center;letter-spacing:0px;word-spacing:0px;text-anchor:middle;fill:#000000;fill-opacity:1;stroke:none"
       x="1995.5024"
       y="695.12402"
       id="text4246-5-3"><tspan
         sodipodi:role="line"
         style="font-size:45px;line-height:1.25"
         x="1995.5024"
         y="695.12402"
         id="tspan917">...a menos</tspan><tspan
         sodipodi:role="line"
         style="font-size:45px;line-height:1.25"
         x="1995.5024"
         y="751.37402"
         id="tspan47">que...</tspan></text>
    <path
       style="color:#000000;display:inline;overflow:visible;visibility:visible;fill:#ffffff;fill-opacity:1;fill-rule:nonzero;stroke:none;stroke-width:1.52708495px;marker:none;enable-background:accumulate"
       d="m 889.08609,1029.7762 c 0,0 62.53738,11.021 72.46385,16.9555 9.92647,5.9344 -66.66415,103.7675 -213.26751,193.0191 150.96699,-81.1884 287.38647,-156.842 308.23227,-154.2986 -8.9338,16.9553 -41.1505,47.6441 -41.1505,47.6441 0,0 95.0838,-44.8238 105.0104,-43.9759 -2.978,7.6298 3.9707,22.8898 3.9707,22.8898 l 45.2151,-9.9699 -49.2379,43.8426 c 0,0 151.7871,-50.6441 158.8766,-48.2849 8.0589,2.3592 -5.9558,49.171 -5.9558,49.171 l 45.2624,-34.7205 -2.5782,17.765 33.7502,-28.8244 10.9191,16.1077 23.5445,-17.8234 0.2792,18.6713 37.7209,-24.5856 12.9044,2.5434 32.7577,38.9976 12.2952,-19.9649 14.5064,-29.2451 58.5667,32.2546 3.9704,-4.2389 -5.5795,-34.226 29.4033,24.0527 -2.7193,-25.4135 27.5357,5.9146 21.1514,12.4611 28.4814,17.2111 -6.5019,-35.4032 36.0228,18.2252 -8.6751,-32.8407 38.7135,13.5645 11.9118,8.4776 2.9778,-15.2598 12.9046,-0.8479 23.8236,5.9346 31.624,5.7692 29.9491,6.1983 -55.6172,-43.3352 -13.8969,-11.8688 50.6253,-11.8689 11.8585,-108.50431 -22.8179,-47.79742 -843.84927,3.29452 -116.37475,10.49659 102.96287,89.40223 -42.04334,9.02411 43.67685,12.7167 -42.68414,19.49878 26.80158,13.5643 z"
       id="path3931"
       inkscape:connector-curvature="0"
       sodipodi:nodetypes="ccccccccccccccccccccccccccccccccccccccccccccccccccccc" />
    <text
       xml:space="preserve"
       style="font-style:normal;font-variant:normal;font-weight:normal;font-stretch:normal;font-size:23.13890648px;line-height:0%;font-family:Lavi;-inkscape-font-specification:Lavi;text-align:center;letter-spacing:0px;word-spacing:0px;text-anchor:middle;fill:#000000;fill-opacity:1;stroke:none;stroke-width:1.92824221"
       x="1625.3549"
       y="1017.8533"
       id="text4246-1"
       transform="matrix(0.97391078,0,-0.20538452,1.0267881,0,0)"><tspan
         sodipodi:role="line"
         style="font-style:normal;font-variant:normal;font-weight:bold;font-stretch:normal;font-size:86.77090454px;line-height:1.25;font-family:Lavi;-inkscape-font-specification:'Lavi Bold';stroke-width:1.92824221"
         x="1625.3549"
         y="1017.8533"
         id="tspan1013"><tspan
   style="font-size:85.70414734px;stroke-width:1.92824221"
   id="tspan877">¡¡¡YAA</tspan>A<tspan
   style="font-size:103.88381195px;stroke-width:1.92824221"
   id="tspan867"><tspan
   style="font-size:94.55047607px"
   id="tspan39">A</tspan>A<tspan
   style="font-size:114.55047607px"
   id="tspan41">A</tspan></tspan><tspan
   id="tspan875"
   style="font-size:129.85476685px;stroke-width:1.92824221">A</tspan><tspan
   id="tspan887"
   style="font-size:150.49240112px;stroke-width:1.92824221">A</tspan><tspan
   id="tspan885"
   style="font-size:168.811203px;stroke-width:1.92824221"><tspan
   style="font-size:160.811203px"
   id="tspan45">!</tspan>!<tspan
   style="font-size:178.14453125px"
   id="tspan48">!</tspan></tspan></tspan></text>
    <text
       xml:space="preserve"
       style="font-style:normal;font-variant:normal;font-weight:normal;font-stretch:normal;font-size:18.67560768px;line-height:0%;font-family:Lavi;-inkscape-font-specification:Lavi;text-align:center;letter-spacing:0px;word-spacing:0px;text-anchor:middle;fill:#000000;fill-opacity:1;stroke:none;stroke-width:1.92493451;stroke-miterlimit:4;stroke-dasharray:none;stroke-dashoffset:0"
       x="2273.8328"
       y="1599.2814"
       id="text4246-1-3"
       transform="matrix(0.72588626,-0.17326363,0.24142568,1.3199998,0,0)"><tspan
         sodipodi:role="line"
         style="font-style:normal;font-variant:normal;font-weight:bold;font-stretch:normal;font-size:70.03353882px;line-height:1.25;font-family:Lavi;-inkscape-font-specification:'Lavi Bold';stroke:#000000;stroke-width:1.92493451;stroke-linecap:square;stroke-miterlimit:4;stroke-dasharray:none;stroke-dashoffset:0;stroke-opacity:1;paint-order:normal"
         x="2273.8328"
         y="1599.2814"
         id="tspan1013-6"><tspan
           id="tspan885-6"
           style="font-style:normal;font-variant:normal;font-weight:normal;font-stretch:normal;font-size:172.18313599px;font-family:Lavi;-inkscape-font-specification:Lavi;stroke:#000000;stroke-width:1.92493451;stroke-linecap:square;stroke-miterlimit:4;stroke-dasharray:none;stroke-dashoffset:0;stroke-opacity:1;paint-order:normal">¡PAF!</tspan></tspan></text>
    <text
       xml:space="preserve"
       style="font-style:normal;font-variant:normal;font-weight:normal;font-stretch:normal;font-size:15.89058971px;line-height:0%;font-family:Lavi;-inkscape-font-specification:Lavi;text-align:center;letter-spacing:0px;word-spacing:0px;text-anchor:middle;fill:#000000;fill-opacity:1;stroke:none;stroke-width:1.17751098"
       x="1371.0023"
       y="2223.9736"
       id="text4246-1-3-2"
       transform="scale(0.99789912,1.0021053)"><tspan
         sodipodi:role="line"
         style="font-style:normal;font-variant:normal;font-weight:bold;font-stretch:normal;font-size:59.58971024px;line-height:1.25;font-family:Lavi;-inkscape-font-specification:'Lavi Bold';stroke-width:1.17751098"
         x="1371.0023"
         y="2223.9736"
         id="tspan914">...¡los libros</tspan><tspan
         sodipodi:role="line"
         style="font-style:normal;font-variant:normal;font-weight:bold;font-stretch:normal;font-size:59.58971024px;line-height:1.25;font-family:Lavi;-inkscape-font-specification:'Lavi Bold';stroke-width:1.17751098"
         x="1371.0023"
         y="2298.4607"
         id="tspan70">son geniales!</tspan></text>
    <text
       xml:space="preserve"
       style="font-style:normal;font-variant:normal;font-weight:normal;font-stretch:normal;line-height:0%;font-family:Lavi;-inkscape-font-specification:Lavi;text-align:center;letter-spacing:0px;word-spacing:0px;text-anchor:middle;fill:#000000;fill-opacity:1;stroke:none"
       x="1150.6671"
       y="1976.0812"
       id="text4246-5"><tspan
         sodipodi:role="line"
         style="font-size:45px;line-height:1.25"
         x="1150.6671"
         y="1976.0812"
         id="tspan980">Eh, no, de</tspan><tspan
         sodipodi:role="line"
         style="font-size:45px;line-height:1.25"
         x="1150.6671"
         y="2032.3312"
         id="tspan58">hecho, para</tspan><tspan
         sodipodi:role="line"
         style="font-size:45px;line-height:1.25"
         x="1150.6671"
         y="2088.5813"
         id="tspan44">cualquier</tspan><tspan
         sodipodi:role="line"
         style="font-size:45px;line-height:1.25"
         x="1150.6671"
         y="2144.8313"
         id="tspan66">situación...</tspan></text>
    <text
       xml:space="preserve"
       style="font-style:normal;font-variant:normal;font-weight:normal;font-stretch:normal;line-height:0%;font-family:Lavi;-inkscape-font-specification:Lavi;text-align:center;letter-spacing:0px;word-spacing:0px;text-anchor:middle;display:inline;opacity:1;fill:#241c1c;fill-opacity:1;stroke:#000000;stroke-width:0;stroke-miterlimit:4;stroke-dasharray:none;stroke-opacity:1"
       x="2414.1099"
       y="3323.9915"
       id="text4213"
       transform="matrix(0.95719015,0,-0.32603671,1.0447245,0,0)"><tspan
         sodipodi:role="line"
         id="tspan3562"
         x="2414.1099"
         y="3323.9915"
         style="font-size:72.18077087px;line-height:1.25;stroke-width:0;stroke-miterlimit:4;stroke-dasharray:none;-inkscape-font-specification:'Lavi Bold';font-family:Lavi;font-weight:bold;font-style:normal;font-stretch:normal;font-variant:normal;stroke:none;fill:#000000;fill-opacity:1">- FIN -</tspan></text>
  </g>
</svg>
