<?xml version="1.0" encoding="UTF-8" standalone="no"?>
<svg
   xmlns:dc="http://purl.org/dc/elements/1.1/"
   xmlns:cc="http://creativecommons.org/ns#"
   xmlns:rdf="http://www.w3.org/1999/02/22-rdf-syntax-ns#"
   xmlns:svg="http://www.w3.org/2000/svg"
   xmlns="http://www.w3.org/2000/svg"
   xmlns:xlink="http://www.w3.org/1999/xlink"
   xmlns:sodipodi="http://sodipodi.sourceforge.net/DTD/sodipodi-0.dtd"
   xmlns:inkscape="http://www.inkscape.org/namespaces/inkscape"
   id="svg2"
   version="1.1"
   inkscape:version="1.0.1 (3bc2e813f5, 2020-09-07)"
   width="2481"
   height="3503"
   sodipodi:docname="E09P02.svg">
  <sodipodi:namedview
     pagecolor="#ffffff"
     bordercolor="#666666"
     inkscape:pageopacity="0"
     inkscape:pageshadow="2"
     inkscape:window-width="1920"
     inkscape:window-height="1057"
     id="namedview70"
     showgrid="false"
     inkscape:zoom="0.4"
     inkscape:cx="1496.6475"
     inkscape:cy="1189.1814"
     inkscape:current-layer="layer1"
     inkscape:document-rotation="0"
     inkscape:window-x="1358"
     inkscape:window-y="-8"
     inkscape:window-maximized="1" />
  <metadata
     id="metadata8">
    <rdf:RDF>
      <cc:Work
         rdf:about="">
        <dc:format>image/svg+xml</dc:format>
        <dc:type
           rdf:resource="http://purl.org/dc/dcmitype/StillImage" />
        <dc:title />
      </cc:Work>
    </rdf:RDF>
  </metadata>
  <defs
     id="defs6" />
  <sodipodi:namedview
     pagecolor="#ffffff"
     bordercolor="#666666"
     borderopacity="1"
     objecttolerance="10"
     gridtolerance="10"
     guidetolerance="10"
     inkscape:pageopacity="0"
     inkscape:pageshadow="2"
     inkscape:window-width="1920"
     inkscape:window-height="1025"
     id="namedview4"
     showgrid="false"
     inkscape:zoom="0.34782609"
     inkscape:cx="1179.3576"
     inkscape:cy="636.93881"
     inkscape:window-x="0"
     inkscape:window-y="26"
     inkscape:window-maximized="1"
     inkscape:current-layer="layer1"
     showguides="false" />
  <g
     inkscape:groupmode="layer"
     id="layer2"
     inkscape:label="artwork"
     sodipodi:insensitive="true">
    <image
       sodipodi:absref="C:\Users\quentinlipeck\Downloads\webcomics-master-ec7d62e6553c2c63bb1cf2e799ee31f9cb9ce5e2\webcomics-master-ec7d62e6553c2c63bb1cf2e799ee31f9cb9ce5e2\ep09_The-Remedy\lang\gfx_Pepper-and-Carrot_by-David-Revoy_E09P02.png"
       xlink:href="../gfx_Pepper-and-Carrot_by-David-Revoy_E09P02.png"
       y="0"
       x="0"
       id="image10"
       height="3503"
       width="2481" />
  </g>
  <g
     inkscape:groupmode="layer"
     id="layer3"
     inkscape:label="speechbubbles" />
  <g
     inkscape:groupmode="layer"
     id="layer1"
     inkscape:label="txt">
    <path
       style="fill:#ffffff;stroke:none;stroke-width:0.880135"
       d="m 594.37774,2792.1719 c 0.66165,-74.2489 9.84684,-145.363 322.16055,-141.987 222.18441,2.4016 307.98031,54.2087 304.39221,147.7728 -3.5882,93.564 -122.4459,132.1816 -308.86712,130.4161 -186.42117,-1.7655 -313.8282,-39.3393 -317.68564,-136.2019 z"
       id="path3274"
       inkscape:connector-curvature="0"
       sodipodi:nodetypes="csssc" />
    <path
       style="color:#000000;display:inline;overflow:visible;visibility:visible;fill:#ffffff;fill-opacity:1;fill-rule:nonzero;stroke:none;stroke-width:1px;marker:none;enable-background:accumulate"
       d="m 797.78803,2681.1218 c -33.40312,32.9386 -310.35346,62.6921 -406.02805,-9.2881 -95.67459,-71.9803 -35.10675,-153.9852 21.12988,-179.1563 56.23652,-25.1711 220.74246,-50.1743 295.08098,-25.5446 74.33864,24.6295 131.91488,60.1115 134.31238,129.885 0.97852,28.4774 -11.09196,51.1651 -44.49519,84.104 z"
       id="path4040"
       inkscape:connector-curvature="0"
       sodipodi:nodetypes="zssssz" />
    <path
       style="color:#000000;display:inline;overflow:visible;visibility:visible;fill:#ffffff;fill-opacity:1;fill-rule:nonzero;stroke:none;stroke-width:1px;marker:none;enable-background:accumulate"
       d="m 114.34931,1474.9762 c 8.46121,-73.2514 108.09638,-126.2753 366.4912,-110.9123 138.41022,8.2292 295.59314,14.0306 284.80434,121.3484 -10.78899,107.3176 -236.73329,103.1826 -283.39316,105.4097 -46.65992,2.2274 -289.55763,-10.5115 -331.8637,-47.297 -26.48263,-23.0266 -36.91328,-45.8519 -36.03868,-68.5488 z"
       id="path4546-0-3"
       inkscape:connector-curvature="0"
       sodipodi:nodetypes="cssssc" />
    <path
       style="color:#000000;display:inline;overflow:visible;visibility:visible;fill:#ffffff;fill-opacity:1;fill-rule:nonzero;stroke:none;stroke-width:1.04304px;marker:none;enable-background:accumulate"
       d="m 148.99332,237.97293 c -1.19723,-57.32649 95.0415,-69.41682 179.83377,-69.58715 84.79242,-0.17032 228.61322,1.8189 226.76293,81.92893 -2.15119,93.13843 -282.51253,70.4535 -290.81601,71.81988 -8.30349,1.36625 -129.60719,-14.77599 -115.78069,-84.16166 z"
       id="path5018"
       inkscape:connector-curvature="0"
       sodipodi:nodetypes="csscc" />
    <path
       style="fill:#ffffff;fill-rule:evenodd;stroke:none;stroke-width:1px;stroke-linecap:butt;stroke-linejoin:miter;stroke-opacity:1"
       d="m 842.8376,505.67472 c 22.75894,31.36316 36.92168,58.48731 -3.76855,108.91199 46.07559,-30.50609 66.18145,-76.69578 53.29121,-112.23489 -12.89024,-35.53909 -49.52266,3.3229 -49.52266,3.3229 z"
       id="path4201"
       inkscape:connector-curvature="0" />
    <path
       style="fill:#ffffff;stroke:none"
       d="m 599.66457,1809.031 c 51.60054,6.5328 69.89222,45.7908 69.53557,69.1473 -0.35672,23.3565 51.26695,38.0903 71.5221,24.124 -42.11057,37.4152 -95.95231,11.4531 -119.94631,-33.3419 -7.04419,-13.1509 -32.45984,-13.1413 -49.73119,5.435 -15.96302,17.1691 -43.85075,15.3917 -43.85075,15.3917 z"
       id="path3276"
       inkscape:connector-curvature="0"
       sodipodi:nodetypes="cscsscc" />
    <path
       style="color:#000000;display:inline;overflow:visible;visibility:visible;fill:#ffffff;fill-opacity:1;fill-rule:nonzero;stroke:none;stroke-width:1px;marker:none;enable-background:accumulate"
       d="m 767.15761,1782.5103 c -4.9508,67.5084 -78.92218,118.0221 -273.71999,108.4454 -104.34421,-5.1299 -222.77213,-7.6966 -216.72881,-106.5724 6.04345,-98.8756 176.19753,-99.0522 211.27651,-101.922 35.07896,-2.8698 218.16091,4.5668 250.71796,37.6483 20.37993,20.7083 28.67324,41.514 28.45433,62.4007 z"
       id="path4546-0-6"
       inkscape:connector-curvature="0"
       sodipodi:nodetypes="cssssc" />
    <path
       style="color:#000000;display:inline;overflow:visible;visibility:visible;fill:#ffffff;fill-opacity:1;fill-rule:nonzero;stroke:none;stroke-width:1px;marker:none;enable-background:accumulate"
       d="m 170.67551,1650.8554 c -2.21908,-109.446 85.24908,-126.3281 330.1611,-118.2726 131.18809,4.315 280.05297,5.851 273.37232,107.9964 -6.68082,102.1452 -217.83575,97.7759 -262.02132,98.5204 -47.91574,0.8073 -216.40725,-11.3635 -255.06136,-24.0838 -32.04509,-10.5454 -86.53267,-42.5929 -86.45074,-64.1604 z"
       id="path4546-0"
       inkscape:connector-curvature="0"
       sodipodi:nodetypes="cssssc" />
    <path
       style="fill:#ffffff;fill-opacity:1;stroke:none;stroke-width:1.03083"
       d="m 400.99177,380.19586 c -8.04856,-111.5499 104.94377,-163.71653 328.69363,-158.64608 223.74983,5.07037 285.0317,75.6538 301.1287,114.94974 16.0972,39.29601 61.0351,112.45064 -134.89992,175.54949 -138.009,44.44437 -372.32158,17.8816 -436.74426,-30.74729 -55.73024,-42.06747 -56.56847,-71.95085 -58.17815,-101.10586 z"
       id="path3238"
       inkscape:connector-curvature="0"
       sodipodi:nodetypes="cssssc" />
    <flowRoot
       xml:space="preserve"
       id="flowRoot2987-4-9-3-7"
       style="font-style:normal;font-variant:normal;font-weight:normal;font-stretch:normal;line-height:0.01%;font-family:Lavi;-inkscape-font-specification:Lavi;text-align:center;letter-spacing:0px;word-spacing:0px;text-anchor:middle;fill:#000000;fill-opacity:1;stroke:none"
       transform="translate(318.33762,6.6910875)"><flowRegion
         id="flowRegion2989-5-4-5-9"><rect
           id="rect2991-7-9-6-4"
           width="571.99487"
           height="220.38373"
           x="111.92752"
           y="285.65546"
           style="font-style:normal;font-variant:normal;font-weight:normal;font-stretch:normal;font-family:Lavi;-inkscape-font-specification:Lavi;text-align:center;text-anchor:middle;stroke-width:1" /></flowRegion><flowPara
         style="font-size:48px;line-height:1.25;text-align:center;text-anchor:middle"
         id="flowPara3458">sona mi weka la, </flowPara><flowPara
         style="font-size:48px;line-height:1.25;text-align:center;text-anchor:middle"
         id="flowPara92">mi pini ala e </flowPara><flowPara
         style="font-size:48px;line-height:1.25;text-align:center;text-anchor:middle"
         id="flowPara94">ilo wawa mi pi awen lawa</flowPara></flowRoot>
    <flowRoot
       xml:space="preserve"
       id="flowRoot2987-4-9-3-7-3-7"
       style="font-style:normal;font-variant:normal;font-weight:normal;font-stretch:normal;line-height:0.01%;font-family:Lavi;-inkscape-font-specification:Lavi;text-align:center;letter-spacing:0px;word-spacing:0px;text-anchor:middle;fill:#000000;fill-opacity:1;stroke:none"
       transform="translate(121.07446,1462.6242)"><flowRegion
         id="flowRegion2989-5-4-5-9-3-2"><rect
           id="rect2991-7-9-6-4-4-0"
           width="577.74487"
           height="312.3837"
           x="120.55251"
           y="265.53046"
           style="font-style:normal;font-variant:normal;font-weight:normal;font-stretch:normal;font-family:Lavi;-inkscape-font-specification:Lavi;text-align:center;text-anchor:middle" /></flowRegion><flowPara
         style="font-size:48px;line-height:1.25;text-align:center;text-anchor:middle"
         id="flowPara3468">ken la telo sewi </flowPara><flowPara
         style="font-size:48px;line-height:1.25;text-align:center;text-anchor:middle"
         id="flowPara71">li lili ? ...</flowPara></flowRoot>
    <flowRoot
       xml:space="preserve"
       id="flowRoot2987-4-9-3-7-3-4"
       style="font-style:normal;font-variant:normal;font-weight:normal;font-stretch:normal;line-height:0.01%;font-family:Lavi;-inkscape-font-specification:Lavi;text-align:center;letter-spacing:0px;word-spacing:0px;text-anchor:middle;fill:#000000;fill-opacity:1;stroke:none"
       transform="translate(66.444963,1312.7913)"><flowRegion
         id="flowRegion2989-5-4-5-9-3-0"><rect
           id="rect2991-7-9-6-4-4-2"
           width="577.74487"
           height="312.3837"
           x="120.55251"
           y="265.53046"
           style="font-style:normal;font-variant:normal;font-weight:normal;font-stretch:normal;font-family:Lavi;-inkscape-font-specification:Lavi;text-align:center;text-anchor:middle" /></flowRegion><flowPara
         style="font-size:48px;line-height:1.25;text-align:center;text-anchor:middle"
         id="flowPara4298-3">taso ante la, tenpo</flowPara><flowPara
         style="font-size:48px;line-height:1.25;text-align:center;text-anchor:middle"
         id="flowPara73">pimeja sina li seme?</flowPara></flowRoot>
    <flowRoot
       xml:space="preserve"
       id="flowRoot2987-4-9-3-7-3-7-8"
       style="font-style:normal;font-variant:normal;font-weight:normal;font-stretch:normal;line-height:0.01%;font-family:Lavi;-inkscape-font-specification:Lavi;text-align:center;letter-spacing:0px;word-spacing:0px;text-anchor:middle;fill:#000000;fill-opacity:1;stroke:none"
       transform="translate(187.00435,2247.4217)"><flowRegion
         id="flowRegion2989-5-4-5-9-3-2-0"><rect
           id="rect2991-7-9-6-4-4-0-8"
           width="577.74487"
           height="312.3837"
           x="120.55251"
           y="265.53046"
           style="font-style:normal;font-variant:normal;font-weight:normal;font-stretch:normal;font-family:Lavi;-inkscape-font-specification:Lavi;text-align:center;text-anchor:middle" /></flowRegion><flowPara
         style="font-size:48px;line-height:1.25;text-align:center;text-anchor:middle"
         id="flowPara3477">... mi pilin ike tan ni. </flowPara><flowPara
         style="font-size:48px;line-height:1.25;text-align:center;text-anchor:middle"
         id="flowPara67">taso ale li pona, anu seme?</flowPara></flowRoot>
    <path
       style="color:#000000;display:inline;overflow:visible;visibility:visible;fill:#ffffff;fill-opacity:1;fill-rule:nonzero;stroke:none;stroke-width:1px;marker:none;enable-background:accumulate"
       d="m 1216.7346,2918.2863 c -43.3715,1.0822 -59.0619,-1.0925 -84.8726,-48.9239 -25.8107,-47.8314 -41.7698,-38.7869 -41.7698,-38.7869 l -1.2183,35.8616 c 0,0 61.508,98.5494 127.8607,51.8492 z"
       id="path3072"
       inkscape:connector-curvature="0" />
    <flowRoot
       xml:space="preserve"
       id="flowRoot2987-4-9-3-7-3-7-8-5"
       style="font-style:normal;font-variant:normal;font-weight:normal;font-stretch:normal;line-height:0.01%;font-family:Lavi;-inkscape-font-specification:Lavi;text-align:center;letter-spacing:0px;word-spacing:0px;text-anchor:middle;fill:#000000;fill-opacity:1;stroke:none"
       transform="translate(489.31345,2429.631)"><flowRegion
         id="flowRegion2989-5-4-5-9-3-2-0-4"><rect
           id="rect2991-7-9-6-4-4-0-8-5"
           width="577.74487"
           height="312.3837"
           x="120.55251"
           y="265.53046"
           style="font-style:normal;font-variant:normal;font-weight:normal;font-stretch:normal;font-family:Lavi;-inkscape-font-specification:Lavi;text-align:center;text-anchor:middle" /></flowRegion><flowPara
         style="font-size:48px;line-height:1.25;text-align:center;text-anchor:middle"
         id="flowPara3505">mi pali e telo seli. </flowPara><flowPara
         style="font-size:48px;line-height:1.25;text-align:center;text-anchor:middle"
         id="flowPara86">ike lili pini la, mi ale li ken pilin pona sin tan moku!</flowPara></flowRoot>
    <flowRoot
       transform="matrix(1.0893046,0,0.05787519,1.1966756,-228.64545,-108.66519)"
       style="font-style:normal;font-variant:normal;font-weight:normal;font-stretch:normal;line-height:0.01%;font-family:Lavi;-inkscape-font-specification:Lavi;text-align:center;letter-spacing:0px;word-spacing:0px;text-anchor:middle;fill:#000000;fill-opacity:1;stroke:#000000;stroke-width:1.97815;stroke-miterlimit:4;stroke-dasharray:none;stroke-opacity:1"
       id="flowRoot4212-3-7-8-6"
       xml:space="preserve"><flowRegion
         id="flowRegion4214-6-7-8-3"><rect
           style="font-style:normal;font-variant:normal;font-weight:normal;font-stretch:normal;font-family:Lavi;-inkscape-font-specification:Lavi;text-align:center;text-anchor:middle;stroke:#000000;stroke-width:1.97814989;stroke-miterlimit:4;stroke-dasharray:none;stroke-opacity:1"
           y="265.53046"
           x="120.55251"
           height="355.03918"
           width="798.1947"
           id="rect4216-4-0-26-5" /></flowRegion><flowPara
         style="font-size:48px;line-height:1.25;text-align:center;letter-spacing:5.20896px;text-anchor:middle;stroke:#000000;stroke-width:1.97815;stroke-miterlimit:4;stroke-dasharray:none;stroke-opacity:1"
         id="flowPara4358-7-1">mi pakala...</flowPara></flowRoot>
    <flowRoot
       xml:space="preserve"
       id="flowRoot2987-4-9-3-7-3-4-6"
       style="font-style:normal;font-variant:normal;font-weight:normal;font-stretch:normal;line-height:0.01%;font-family:Lavi;-inkscape-font-specification:Lavi;text-align:center;letter-spacing:0px;word-spacing:0px;text-anchor:middle;fill:#000000;fill-opacity:1;stroke:none"
       transform="translate(30.294829,1140.1741)"><flowRegion
         id="flowRegion2989-5-4-5-9-3-0-1"><rect
           id="rect2991-7-9-6-4-4-2-6"
           width="577.74487"
           height="312.3837"
           x="120.55251"
           y="265.53046"
           style="font-style:normal;font-variant:normal;font-weight:normal;font-stretch:normal;font-family:Lavi;-inkscape-font-specification:Lavi;text-align:center;text-anchor:middle" /></flowRegion><flowPara
         style="font-size:48px;line-height:1.25;text-align:center;text-anchor:middle"
         id="flowPara3462">... mi pilin pona tan kama pi ona ale!</flowPara></flowRoot>
    <flowRoot
       xml:space="preserve"
       id="flowRoot4519"
       style="font-style:normal;font-variant:normal;font-weight:normal;font-stretch:normal;line-height:0.01%;font-family:Arial;-inkscape-font-specification:Arial;letter-spacing:0px;word-spacing:0px;fill:#000000;fill-opacity:1;stroke:none;stroke-width:1px;stroke-linecap:butt;stroke-linejoin:miter;stroke-opacity:1"><flowRegion
         id="flowRegion4521"><rect
           id="rect4523"
           width="103.5"
           height="17.25"
           x="2866.375"
           y="1792.375" /></flowRegion><flowPara
         id="flowPara4525"
         style="font-size:12px;line-height:1.25"> </flowPara></flowRoot>
  </g>
</svg>
