<?xml version="1.0" encoding="UTF-8" standalone="no"?>
<svg
   xmlns:dc="http://purl.org/dc/elements/1.1/"
   xmlns:cc="http://creativecommons.org/ns#"
   xmlns:rdf="http://www.w3.org/1999/02/22-rdf-syntax-ns#"
   xmlns:svg="http://www.w3.org/2000/svg"
   xmlns="http://www.w3.org/2000/svg"
   xmlns:xlink="http://www.w3.org/1999/xlink"
   xmlns:sodipodi="http://sodipodi.sourceforge.net/DTD/sodipodi-0.dtd"
   xmlns:inkscape="http://www.inkscape.org/namespaces/inkscape"
   sodipodi:docname="E14P06.svg"
   height="3503"
   width="2481"
   inkscape:version="1.0 (4035a4fb49, 2020-05-01)"
   version="1.1"
   id="svg2">
  <sodipodi:namedview
     inkscape:document-rotation="0"
     inkscape:window-maximized="0"
     inkscape:window-y="26"
     inkscape:window-x="0"
     inkscape:current-layer="layer3"
     inkscape:cy="2682.3359"
     inkscape:cx="1059.5378"
     inkscape:zoom="0.37194735"
     showgrid="false"
     id="namedview70"
     inkscape:window-height="955"
     inkscape:window-width="1813"
     inkscape:pageshadow="2"
     inkscape:pageopacity="0"
     bordercolor="#666666"
     pagecolor="#ffffff" />
  <metadata
     id="metadata8">
    <rdf:RDF>
      <cc:Work
         rdf:about="">
        <dc:format>image/svg+xml</dc:format>
        <dc:type
           rdf:resource="http://purl.org/dc/dcmitype/StillImage" />
        <dc:title />
      </cc:Work>
    </rdf:RDF>
  </metadata>
  <defs
     id="defs6">
    <linearGradient
       gradientUnits="userSpaceOnUse"
       y2="1705.3795"
       x2="1955.2883"
       y1="1758.8628"
       x1="1956.4867"
       id="linearGradient4238"
       xlink:href="#linearGradient4232"
       inkscape:collect="always" />
    <linearGradient
       id="linearGradient4232"
       inkscape:collect="always">
      <stop
         id="stop4234"
         offset="0"
         style="stop-color:#2b0000;stop-opacity:1" />
      <stop
         id="stop4236"
         offset="1"
         style="stop-color:#800000;stop-opacity:1" />
    </linearGradient>
    <filter
       inkscape:label="Roughen"
       id="filter5561-7"
       style="color-interpolation-filters:sRGB">
      <feFlood
         result="flood"
         flood-color="rgb(196,140,139)"
         flood-opacity="0"
         id="feFlood5563-4" />
      <feComposite
         result="composite1"
         operator="in"
         in="flood"
         in2="SourceGraphic"
         id="feComposite5565-6" />
      <feMorphology
         result="result3"
         radius="2"
         operator="dilate"
         id="feMorphology5567-3" />
      <feComposite
         radius="3.3999999999999999"
         result="fbSourceGraphic"
         operator="over"
         in="SourceGraphic"
         in2="result3"
         id="feComposite5569-6" />
      <feColorMatrix
         id="feColorMatrix4681"
         values="0 0 0 -1 0 0 0 0 -1 0 0 0 0 -1 0 0 0 0 1 0"
         in="fbSourceGraphic"
         result="fbSourceGraphicAlpha" />
      <feTurbulence
         result="turbulence"
         baseFrequency="0 0.018999999999999975"
         seed="20"
         numOctaves="1"
         type="fractalNoise"
         id="feTurbulence4683" />
      <feDisplacementMap
         xChannelSelector="R"
         yChannelSelector="G"
         scale="37.8"
         in="fbSourceGraphic"
         in2="turbulence"
         id="feDisplacementMap4685" />
    </filter>
    <filter
       inkscape:label="Roughen"
       id="filter5561-7-5"
       style="color-interpolation-filters:sRGB">
      <feFlood
         result="flood"
         flood-color="rgb(196,140,139)"
         flood-opacity="0"
         id="feFlood5563-4-5" />
      <feComposite
         result="composite1"
         operator="in"
         in="flood"
         in2="SourceGraphic"
         id="feComposite5565-6-4" />
      <feMorphology
         result="result3"
         radius="2"
         operator="dilate"
         id="feMorphology5567-3-8" />
      <feComposite
         radius="3.3999999999999999"
         result="fbSourceGraphic"
         operator="over"
         in="SourceGraphic"
         in2="result3"
         id="feComposite5569-6-0" />
      <feColorMatrix
         id="feColorMatrix4681-7"
         values="0 0 0 -1 0 0 0 0 -1 0 0 0 0 -1 0 0 0 0 1 0"
         in="fbSourceGraphic"
         result="fbSourceGraphicAlpha" />
      <feTurbulence
         result="turbulence"
         baseFrequency="0 0.018999999999999975"
         seed="20"
         numOctaves="1"
         type="fractalNoise"
         id="feTurbulence4683-6" />
      <feDisplacementMap
         xChannelSelector="R"
         yChannelSelector="G"
         scale="37.8"
         in="fbSourceGraphic"
         in2="turbulence"
         id="feDisplacementMap4685-0" />
    </filter>
    <filter
       inkscape:label="Roughen"
       id="filter5561-7-4"
       style="color-interpolation-filters:sRGB">
      <feFlood
         result="flood"
         flood-color="rgb(196,140,139)"
         flood-opacity="0"
         id="feFlood5563-4-9" />
      <feComposite
         result="composite1"
         operator="in"
         in="flood"
         in2="SourceGraphic"
         id="feComposite5565-6-7" />
      <feMorphology
         result="result3"
         radius="2"
         operator="dilate"
         id="feMorphology5567-3-86" />
      <feComposite
         radius="3.3999999999999999"
         result="fbSourceGraphic"
         operator="over"
         in="SourceGraphic"
         in2="result3"
         id="feComposite5569-6-7" />
      <feColorMatrix
         id="feColorMatrix4681-4"
         values="0 0 0 -1 0 0 0 0 -1 0 0 0 0 -1 0 0 0 0 1 0"
         in="fbSourceGraphic"
         result="fbSourceGraphicAlpha" />
      <feTurbulence
         result="turbulence"
         baseFrequency="0 0.018999999999999975"
         seed="20"
         numOctaves="1"
         type="fractalNoise"
         id="feTurbulence4683-0" />
      <feDisplacementMap
         xChannelSelector="R"
         yChannelSelector="G"
         scale="37.8"
         in="fbSourceGraphic"
         in2="turbulence"
         id="feDisplacementMap4685-04" />
    </filter>
    <filter
       inkscape:label="Roughen"
       id="filter5561-7-4-7"
       style="color-interpolation-filters:sRGB">
      <feFlood
         result="flood"
         flood-color="rgb(196,140,139)"
         flood-opacity="0"
         id="feFlood5563-4-9-5" />
      <feComposite
         result="composite1"
         operator="in"
         in="flood"
         in2="SourceGraphic"
         id="feComposite5565-6-7-6" />
      <feMorphology
         result="result3"
         radius="2"
         operator="dilate"
         id="feMorphology5567-3-86-2" />
      <feComposite
         radius="3.3999999999999999"
         result="fbSourceGraphic"
         operator="over"
         in="SourceGraphic"
         in2="result3"
         id="feComposite5569-6-7-9" />
      <feColorMatrix
         id="feColorMatrix4681-4-2"
         values="0 0 0 -1 0 0 0 0 -1 0 0 0 0 -1 0 0 0 0 1 0"
         in="fbSourceGraphic"
         result="fbSourceGraphicAlpha" />
      <feTurbulence
         result="turbulence"
         baseFrequency="0 0.018999999999999975"
         seed="20"
         numOctaves="1"
         type="fractalNoise"
         id="feTurbulence4683-0-1" />
      <feDisplacementMap
         xChannelSelector="R"
         yChannelSelector="G"
         scale="37.8"
         in="fbSourceGraphic"
         in2="turbulence"
         id="feDisplacementMap4685-04-7" />
    </filter>
    <filter
       inkscape:label="Roughen"
       id="filter5561-7-49"
       style="color-interpolation-filters:sRGB">
      <feFlood
         result="flood"
         flood-color="rgb(196,140,139)"
         flood-opacity="0"
         id="feFlood5563-4-7" />
      <feComposite
         result="composite1"
         operator="in"
         in="flood"
         in2="SourceGraphic"
         id="feComposite5565-6-77" />
      <feMorphology
         result="result3"
         radius="2"
         operator="dilate"
         id="feMorphology5567-3-5" />
      <feComposite
         radius="3.3999999999999999"
         result="fbSourceGraphic"
         operator="over"
         in="SourceGraphic"
         in2="result3"
         id="feComposite5569-6-73" />
      <feColorMatrix
         id="feColorMatrix4681-43"
         values="0 0 0 -1 0 0 0 0 -1 0 0 0 0 -1 0 0 0 0 1 0"
         in="fbSourceGraphic"
         result="fbSourceGraphicAlpha" />
      <feTurbulence
         result="turbulence"
         baseFrequency="0 0.018999999999999975"
         seed="20"
         numOctaves="1"
         type="fractalNoise"
         id="feTurbulence4683-4" />
      <feDisplacementMap
         xChannelSelector="R"
         yChannelSelector="G"
         scale="37.8"
         in="fbSourceGraphic"
         in2="turbulence"
         id="feDisplacementMap4685-1" />
    </filter>
    <filter
       inkscape:label="Roughen"
       id="filter5561-7-1"
       style="color-interpolation-filters:sRGB">
      <feFlood
         result="flood"
         flood-color="rgb(196,140,139)"
         flood-opacity="0"
         id="feFlood5563-4-8" />
      <feComposite
         result="composite1"
         operator="in"
         in="flood"
         in2="SourceGraphic"
         id="feComposite5565-6-3" />
      <feMorphology
         result="result3"
         radius="2"
         operator="dilate"
         id="feMorphology5567-3-1" />
      <feComposite
         radius="3.3999999999999999"
         result="fbSourceGraphic"
         operator="over"
         in="SourceGraphic"
         in2="result3"
         id="feComposite5569-6-2" />
      <feColorMatrix
         id="feColorMatrix4681-48"
         values="0 0 0 -1 0 0 0 0 -1 0 0 0 0 -1 0 0 0 0 1 0"
         in="fbSourceGraphic"
         result="fbSourceGraphicAlpha" />
      <feTurbulence
         result="turbulence"
         baseFrequency="0 0.018999999999999975"
         seed="20"
         numOctaves="1"
         type="fractalNoise"
         id="feTurbulence4683-2" />
      <feDisplacementMap
         xChannelSelector="R"
         yChannelSelector="G"
         scale="37.8"
         in="fbSourceGraphic"
         in2="turbulence"
         id="feDisplacementMap4685-9" />
    </filter>
    <filter
       inkscape:label="deevad outline effect"
       id="filter5561-1"
       style="color-interpolation-filters:sRGB">
      <feFlood
         result="flood"
         flood-color="rgb(218,131,104)"
         flood-opacity="1"
         id="feFlood5563-9" />
      <feComposite
         result="composite1"
         operator="in"
         in="flood"
         in2="SourceGraphic"
         id="feComposite5565-0" />
      <feMorphology
         result="result3"
         radius="1.8999999999999999 6.0999999999999996"
         operator="dilate"
         id="feMorphology5567-7" />
      <feComposite
         result="composite2"
         operator="over"
         in="SourceGraphic"
         in2="result3"
         id="feComposite5569-2" />
    </filter>
  </defs>
  <sodipodi:namedview
     inkscape:current-layer="layer3"
     inkscape:window-maximized="1"
     inkscape:window-y="26"
     inkscape:window-x="0"
     inkscape:cy="608.38465"
     inkscape:cx="671.59215"
     inkscape:zoom="0.2630065"
     showgrid="false"
     id="namedview4"
     inkscape:window-height="1025"
     inkscape:window-width="1920"
     inkscape:pageshadow="2"
     inkscape:pageopacity="0"
     guidetolerance="10"
     gridtolerance="10"
     objecttolerance="10"
     borderopacity="1"
     bordercolor="#666666"
     pagecolor="#ffffff" />
  <g
     sodipodi:insensitive="true"
     inkscape:label="artwork"
     id="layer2"
     inkscape:groupmode="layer">
    <image
       sodipodi:absref="C:\Users\stero\Documents\Kernewek\Pepper and Carrot\webcomics\ep14_The-Dragon-s-Tooth\lang\gfx_Pepper-and-Carrot_by-David-Revoy_E14P06.png"
       xlink:href="../gfx_Pepper-and-Carrot_by-David-Revoy_E14P06.png"
       y="0"
       x="0"
       id="image10"
       height="3503"
       width="2481" />
  </g>
  <g
     inkscape:label="speechbubbles"
     id="layer3"
     inkscape:groupmode="layer">
    <path
       sodipodi:nodetypes="cssssc"
       inkscape:connector-curvature="0"
       id="path4546"
       d="m 1030.2814,214.11789 c -9.9724,-64.08178 -115.41295,-110.79162 -386.59941,-98.25168 -145.26205,6.71702 -310.27867,11.24632 -297.35682,105.12462 12.92199,93.8782 250.18912,91.04378 299.23292,93.15273 49.04383,2.10908 303.99121,-8.18991 347.88406,-40.20961 27.47595,-20.04344 38.09405,-39.96633 36.83925,-59.81606 z"
       style="color:#000000;display:inline;overflow:visible;visibility:visible;fill:#ffffff;fill-opacity:1;fill-rule:nonzero;stroke:none;stroke-width:1.11027908px;marker:none;enable-background:accumulate" />
    <path
       sodipodi:nodetypes="cssssc"
       inkscape:connector-curvature="0"
       id="path4546-5"
       d="m 1201.5324,408.37159 c -8.7734,83.62473 -85.7928,142.72449 -280.57141,121.19875 -104.33382,-11.53026 -222.93364,-20.5725 -211.2948,-143.11267 11.63893,-122.54005 182.25806,-114.34925 217.59277,-116.18078 35.33473,-1.8317 218.48674,16.4562 249.26414,59.16452 19.2659,26.73422 26.4075,52.99223 25.0093,78.93018 z"
       style="color:#000000;display:inline;overflow:visible;visibility:visible;fill:#ffffff;fill-opacity:1;fill-rule:nonzero;stroke:none;stroke-width:1px;marker:none;enable-background:accumulate" />
    <path
       sodipodi:nodetypes="csccc"
       inkscape:connector-curvature="0"
       id="path3072-1"
       d="m 1231.2466,617.38152 c -56.0991,-54.21631 -110.0577,-88.72142 -169.0716,-98.68419 -58.7082,-9.91115 -69.14739,-19.31675 -69.14739,-19.31675 l 73.25059,-17.6983 c -2.0233,-6.10139 73.5669,-9.18652 164.9684,135.69924 z"
       style="color:#000000;display:inline;overflow:visible;visibility:visible;fill:#ffffff;fill-opacity:1;fill-rule:nonzero;stroke:none;stroke-width:1px;marker:none;enable-background:accumulate" />
    <path
       sodipodi:nodetypes="cssssccc"
       inkscape:connector-curvature="0"
       id="path3357"
       d="m 702.96909,2656.1569 c -1.72553,-42.1507 29.33413,-70.8132 46.58956,-84.3015 17.2556,-13.4883 98.7266,-41.6027 179.75021,-38.9824 96.05164,3.1063 160.39304,12.9714 200.99384,30.7611 26.6638,11.6831 66.0579,43.6723 66.1725,106.0112 0.136,74.0095 -136.3247,78.7317 -163.9269,80.9295 -25.8834,5.0582 -100.08181,8.4302 -124.23952,6.7442 -24.06402,-0.7948 -208.37984,-11.676 -205.33969,-101.1621 z"
       style="color:#000000;display:inline;overflow:visible;visibility:visible;fill:#ffffff;fill-opacity:1;fill-rule:nonzero;stroke:none;stroke-width:1px;marker:none;enable-background:accumulate" />
    <path
       sodipodi:nodetypes="zssssz"
       inkscape:connector-curvature="0"
       id="path4040"
       d="m 1283.3578,2880.8751 c -20.5286,23.7765 -189.0586,45.5132 -246.7116,-6.268 -57.65304,-51.7813 -20.2761,-110.9524 14.077,-129.1542 34.3529,-18.2019 134.5086,-36.3966 179.5203,-18.7221 45.0119,17.6744 79.7611,43.1885 80.7374,93.4772 0.3983,20.5249 -7.0942,36.8904 -27.6231,60.6671 z"
       style="color:#000000;display:inline;overflow:visible;visibility:visible;fill:#ffffff;fill-opacity:1;fill-rule:nonzero;stroke:none;stroke-width:1px;marker:none;enable-background:accumulate" />
    <text
       transform="matrix(0.75304346,0,-0.11971288,1.3279446,0,0)"
       id="text4213"
       y="2519.9944"
       x="2040.9243"
       style="font-style:normal;font-variant:normal;font-weight:normal;font-stretch:normal;line-height:0%;font-family:Lavi;-inkscape-font-specification:Lavi;text-align:center;letter-spacing:0px;word-spacing:0px;text-anchor:middle;opacity:0.439;fill:#000000;fill-opacity:1;stroke:#000000;stroke-width:3.82173;stroke-miterlimit:4;stroke-dasharray:none;stroke-opacity:1"
       xml:space="preserve"><tspan
         style="font-size:63.5518px;line-height:1.25;stroke-width:3.82173;stroke-miterlimit:4;stroke-dasharray:none"
         y="2519.9944"
         x="2040.9243"
         id="tspan4215"
         sodipodi:role="line">- FIN -</tspan></text>
    <text
       id="text4246-42"
       y="3392.3091"
       x="1240.0964"
       style="font-style:normal;font-variant:normal;font-weight:normal;font-stretch:normal;line-height:0%;font-family:Lavi;-inkscape-font-specification:Lavi;text-align:center;letter-spacing:0px;word-spacing:0px;text-anchor:middle;opacity:0.37;fill:#000000;fill-opacity:1;stroke:none"
       xml:space="preserve"><tspan
         id="tspan4252-9"
         y="3392.3091"
         x="1240.0964"
         style="font-size:36.7347px;line-height:1.25"
         sodipodi:role="line">01/2016 - Art &amp; Hwedhel: David Revoy - Treylyans: Steve Harris - Provredyans: Steve Penhaligon</tspan></text>
  </g>
  <g
     inkscape:label="txt"
     id="layer1"
     inkscape:groupmode="layer">
    <path
       inkscape:connector-curvature="0"
       id="path4538"
       d="m 724.56748,2813.1349 c 32.20306,-6.3313 35.22886,-9.3093 36.06643,-23.8719 0.83746,-14.5626 -3.22404,-35.5762 18.88405,-53.4602 22.1081,-17.8839 40.05569,-16.878 51.91568,-16.9259 -9.81582,-16.4069 -36.0574,-33.5563 -50.97919,-37.5402 -14.92188,-3.984 54.92342,-23.4089 54.92342,-23.4089 0,0 38.19174,34.626 33.75215,58.3703 -4.43958,23.744 -53.08634,25.8279 -70.36762,36.1432 -17.28117,10.3152 -13.48098,39.6878 -25.2869,50.2505 -11.80604,10.5628 -33.09459,10.3792 -48.90802,10.4431 z"
       style="color:#000000;display:inline;overflow:visible;visibility:visible;fill:#ffffff;fill-opacity:1;fill-rule:nonzero;stroke:none;stroke-width:1px;marker:none;enable-background:accumulate" />
    <text
       transform="matrix(0.5202912,-0.00262845,-0.07945412,0.7269402,-451.00638,562.59454)"
       id="text4251"
       y="1742.2045"
       x="1705.2566"
       style="color:#000000;font-style:normal;font-variant:normal;font-weight:normal;font-stretch:normal;line-height:0%;font-family:Arial;-inkscape-font-specification:Arial;letter-spacing:0.0273496px;word-spacing:0px;display:inline;overflow:visible;visibility:visible;opacity:0.7;fill:#000000;fill-opacity:1;fill-rule:nonzero;stroke:none;stroke-width:1.11573;marker:none;filter:url(#filter5561-7);enable-background:accumulate"
       xml:space="preserve"><tspan
         id="tspan4232"
         style="font-style:normal;font-variant:normal;font-weight:normal;font-stretch:normal;font-size:160.12px;line-height:1.25;font-family:Lavi;-inkscape-font-specification:Lavi;fill:#000000;fill-opacity:1;stroke:none"
         y="1742.2045"
         x="1705.2566"
         sodipodi:role="line">Dragon</tspan></text>
    <text
       transform="matrix(0.50437518,-0.00211265,-0.07702357,0.58428706,-298.80651,715.08928)"
       id="text4251-4"
       y="1742.2045"
       x="1705.2566"
       style="color:#000000;font-style:normal;font-variant:normal;font-weight:normal;font-stretch:normal;line-height:0%;font-family:Arial;-inkscape-font-specification:Arial;letter-spacing:0.0273496px;word-spacing:0px;display:inline;overflow:visible;visibility:visible;opacity:0.7;fill:#000000;fill-opacity:1;fill-rule:nonzero;stroke:none;stroke-width:1.11573;marker:none;filter:url(#filter5561-7-5);enable-background:accumulate"
       xml:space="preserve"><tspan
         id="tspan4232-6"
         style="font-style:normal;font-variant:normal;font-weight:normal;font-stretch:normal;font-size:160.12px;line-height:1.25;font-family:Lavi;-inkscape-font-specification:Lavi;fill:#000000;fill-opacity:1;stroke:none"
         y="1742.2045"
         x="1705.2566"
         sodipodi:role="line">Dens</tspan></text>
    <text
       transform="matrix(0.48523279,-0.00237162,-0.07410032,0.65590877,-421.04049,505.44772)"
       id="text4251-9"
       y="1742.2045"
       x="1705.2566"
       style="color:#000000;font-style:normal;font-variant:normal;font-weight:normal;font-stretch:normal;line-height:0%;font-family:Arial;-inkscape-font-specification:Arial;letter-spacing:0.0273496px;word-spacing:0px;display:inline;overflow:visible;visibility:visible;opacity:0.7;fill:#000000;fill-opacity:1;fill-rule:nonzero;stroke:none;stroke-width:1.11573;marker:none;filter:url(#filter5561-7-4);enable-background:accumulate"
       xml:space="preserve"><tspan
         id="tspan4232-5"
         style="font-style:normal;font-variant:normal;font-weight:normal;font-stretch:normal;font-size:160.12px;line-height:1.25;font-family:Lavi;-inkscape-font-specification:Lavi;fill:#000000;fill-opacity:1;stroke:none"
         y="1742.2045"
         x="1705.2566"
         sodipodi:role="line">Medhek</tspan></text>
    <text
       transform="matrix(0.44217464,-0.13490256,0.03342804,0.51140684,-510.84309,1363.7505)"
       id="text4251-9-3"
       y="1742.2045"
       x="1705.2566"
       style="color:#000000;font-style:normal;font-variant:normal;font-weight:normal;font-stretch:normal;line-height:0%;font-family:Arial;-inkscape-font-specification:Arial;letter-spacing:0.0273496px;word-spacing:0px;display:inline;overflow:visible;visibility:visible;opacity:0.7;fill:#000000;fill-opacity:1;fill-rule:nonzero;stroke:#000000;stroke-width:9.02862;stroke-linecap:butt;stroke-linejoin:miter;stroke-miterlimit:4;stroke-dasharray:none;stroke-dashoffset:0;stroke-opacity:1;marker:none;filter:url(#filter5561-7-4-7);enable-background:accumulate"
       xml:space="preserve"><tspan
         id="tspan4232-5-9"
         style="font-style:normal;font-variant:normal;font-weight:normal;font-stretch:normal;font-size:160.12px;line-height:1.25;font-family:Lavi;-inkscape-font-specification:Lavi;fill:#000000;fill-opacity:1;stroke:#000000;stroke-width:9.02862;stroke-miterlimit:4;stroke-dasharray:none;stroke-opacity:1"
         y="1742.2045"
         x="1705.2566"
         sodipodi:role="line">Heb kost!</tspan></text>
    <path
       inkscape:connector-curvature="0"
       id="path4362"
       d="m 531.43987,1637.5766 c -0.46727,14.1996 -1.86907,27.3069 -4.20541,31.1299 -2.33634,3.823 0.93454,7.0998 5.60722,6.8267 4.67267,-0.273 1.4018,-4.6421 0.93453,-9.0113 -0.46727,-4.3691 0.93454,-28.6722 0.93454,-28.6722 z"
       style="color:#000000;clip-rule:nonzero;display:inline;overflow:visible;visibility:visible;opacity:0.7;isolation:auto;mix-blend-mode:normal;color-interpolation:sRGB;color-interpolation-filters:linearRGB;solid-color:#000000;solid-opacity:1;fill:#000000;fill-opacity:1;fill-rule:nonzero;stroke:none;stroke-width:0.71238154;stroke-linecap:butt;stroke-linejoin:miter;stroke-miterlimit:4;stroke-dasharray:none;stroke-dashoffset:0;stroke-opacity:1;marker:none;color-rendering:auto;image-rendering:auto;shape-rendering:auto;text-rendering:auto;enable-background:accumulate" />
    <path
       inkscape:connector-curvature="0"
       id="path4362-9"
       d="m 326.09124,1640.7857 c -0.46727,7.8084 -1.86907,15.0162 -4.20541,17.1185 -2.33634,2.1022 0.93454,3.9042 5.60722,3.754 4.67267,-0.1501 1.4018,-2.5527 0.93453,-4.9554 -0.46727,-2.4025 0.93454,-15.7669 0.93454,-15.7669 z"
       style="color:#000000;clip-rule:nonzero;display:inline;overflow:visible;visibility:visible;opacity:0.7;isolation:auto;mix-blend-mode:normal;color-interpolation:sRGB;color-interpolation-filters:linearRGB;solid-color:#000000;solid-opacity:1;fill:#000000;fill-opacity:1;fill-rule:nonzero;stroke:none;stroke-width:0.71238154;stroke-linecap:butt;stroke-linejoin:miter;stroke-miterlimit:4;stroke-dasharray:none;stroke-dashoffset:0;stroke-opacity:1;marker:none;color-rendering:auto;image-rendering:auto;shape-rendering:auto;text-rendering:auto;enable-background:accumulate" />
    <path
       inkscape:connector-curvature="0"
       id="path4362-9-0"
       d="m 409.93524,1816.6969 c -0.46859,9.1979 -1.87437,17.6882 -4.21734,20.1646 -2.34297,2.4763 0.93719,4.5989 5.62313,4.422 4.68593,-0.1769 1.40578,-3.007 0.93718,-5.8372 -0.4686,-2.83 0.93719,-18.5725 0.93719,-18.5725 z"
       style="color:#000000;clip-rule:nonzero;display:inline;overflow:visible;visibility:visible;opacity:0.7;isolation:auto;mix-blend-mode:normal;color-interpolation:sRGB;color-interpolation-filters:linearRGB;solid-color:#000000;solid-opacity:1;fill:#000000;fill-opacity:1;fill-rule:nonzero;stroke:none;stroke-width:0.71238154;stroke-linecap:butt;stroke-linejoin:miter;stroke-miterlimit:4;stroke-dasharray:none;stroke-dashoffset:0;stroke-opacity:1;marker:none;color-rendering:auto;image-rendering:auto;shape-rendering:auto;text-rendering:auto;enable-background:accumulate" />
    <path
       inkscape:connector-curvature="0"
       id="path4362-9-0-8"
       d="m 477.23328,1968.4735 c -0.46727,11.7049 -1.86907,22.5094 -4.20541,25.6608 -2.33634,3.1513 0.93454,5.8524 5.60722,5.6273 4.67267,-0.2251 1.4018,-3.8265 0.93453,-7.4281 -0.46727,-3.6015 0.93454,-23.6349 0.93454,-23.6349 z"
       style="color:#000000;clip-rule:nonzero;display:inline;overflow:visible;visibility:visible;opacity:0.7;isolation:auto;mix-blend-mode:normal;color-interpolation:sRGB;color-interpolation-filters:linearRGB;solid-color:#000000;solid-opacity:1;fill:#000000;fill-opacity:1;fill-rule:nonzero;stroke:none;stroke-width:0.71238154;stroke-linecap:butt;stroke-linejoin:miter;stroke-miterlimit:4;stroke-dasharray:none;stroke-dashoffset:0;stroke-opacity:1;marker:none;color-rendering:auto;image-rendering:auto;shape-rendering:auto;text-rendering:auto;enable-background:accumulate" />
    <text
       transform="matrix(0.4166079,-0.33158689,0.27882854,1.0774956,283.60517,-477.53677)"
       x="1705.2566"
       y="1742.2045"
       inkscape:transform-center-y="98.316572"
       inkscape:transform-center-x="-166.27466"
       id="text4251-1-3"
       style="color:#000000;font-style:normal;font-variant:normal;font-weight:normal;font-stretch:normal;line-height:0%;font-family:Arial;-inkscape-font-specification:Arial;letter-spacing:0.0273496px;word-spacing:0px;display:inline;overflow:visible;visibility:visible;fill:#ffffff;fill-opacity:1;fill-rule:nonzero;stroke:#ffffff;stroke-width:1.1156;stroke-linecap:butt;stroke-linejoin:miter;stroke-miterlimit:4;stroke-dasharray:none;stroke-dashoffset:0;stroke-opacity:1;marker:none;filter:url(#filter5561-1);enable-background:accumulate"
       xml:space="preserve"><tspan
         style="font-style:normal;font-variant:normal;font-weight:normal;font-stretch:normal;font-size:45.5771px;line-height:1.25;font-family:Lavi;-inkscape-font-specification:Lavi;letter-spacing:6.3599px;fill:#ffffff"
         y="1742.2045"
         x="1705.2566"
         id="tspan4253-5-1"
         sodipodi:role="line">popp!</tspan></text>
    <text
       id="text4246"
       y="183.85486"
       x="683.56146"
       style="font-style:normal;font-variant:normal;font-weight:normal;font-stretch:normal;line-height:0%;font-family:Lavi;-inkscape-font-specification:Lavi;text-align:center;letter-spacing:0px;word-spacing:0px;text-anchor:middle;fill:#000000;fill-opacity:1;stroke:none"
       xml:space="preserve"><tspan
         id="tspan4252"
         y="183.85486"
         x="683.56146"
         style="font-size:45px;line-height:1.25"
         sodipodi:role="line">Well?</tspan><tspan
         id="tspan4499"
         y="240.10486"
         x="683.56146"
         style="font-size:45px;line-height:1.25"
         sodipodi:role="line">A nyns os ta kemerys genev?</tspan></text>
    <text
       id="text4246-4"
       y="367.00549"
       x="958.0614"
       style="font-style:normal;font-variant:normal;font-weight:normal;font-stretch:normal;line-height:0%;font-family:Lavi;-inkscape-font-specification:Lavi;text-align:center;letter-spacing:0px;word-spacing:0px;text-anchor:middle;fill:#000000;fill-opacity:1;stroke:none"
       xml:space="preserve"><tspan
         id="tspan3552"
         y="367.00549"
         x="965.09265"
         style="font-size:45px;line-height:1.25"
         sodipodi:role="line">My a'm beus </tspan><tspan
         id="tspan112"
         y="423.25549"
         x="965.09265"
         style="font-size:45px;line-height:1.25"
         sodipodi:role="line">moy es kans </tspan><tspan
         id="tspan114"
         y="479.50549"
         x="958.0614"
         style="font-size:45px;line-height:1.25"
         sodipodi:role="line">Dans Dragon!</tspan></text>
    <text
       id="text4246-4-4"
       y="2628.4919"
       x="954.74121"
       style="font-style:normal;font-variant:normal;font-weight:normal;font-stretch:normal;line-height:0%;font-family:Lavi;-inkscape-font-specification:Lavi;text-align:center;letter-spacing:0px;word-spacing:0px;text-anchor:middle;fill:#000000;fill-opacity:1;stroke:none"
       xml:space="preserve"><tspan
         id="tspan4526-1"
         y="2628.4919"
         x="954.74121"
         style="font-size:45px;line-height:1.25"
         sodipodi:role="line">...mes Pepper,</tspan><tspan
         id="tspan4559"
         y="2684.7419"
         x="954.74121"
         style="font-size:45px;line-height:1.25"
         sodipodi:role="line">Dans Dragon...</tspan></text>
    <text
       id="text4246-4-4-1"
       y="2796.26"
       x="1159.1488"
       style="font-style:normal;font-variant:normal;font-weight:normal;font-stretch:normal;line-height:0%;font-family:Lavi;-inkscape-font-specification:Lavi;text-align:center;letter-spacing:0px;word-spacing:0px;text-anchor:middle;fill:#000000;fill-opacity:1;stroke:none"
       xml:space="preserve"><tspan
         id="tspan4586"
         y="2796.26"
         x="1159.1488"
         style="font-size:45px;line-height:1.25"
         sodipodi:role="line">...Yth yw</tspan><tspan
         id="tspan3556"
         y="2852.51"
         x="1159.1488"
         style="font-size:45px;line-height:1.25"
         sodipodi:role="line">plans!</tspan></text>
  </g>
</svg>
