<?xml version="1.0" encoding="UTF-8" standalone="no"?>
<!-- Created with Inkscape (http://www.inkscape.org/) -->

<svg
   xmlns:dc="http://purl.org/dc/elements/1.1/"
   xmlns:cc="http://creativecommons.org/ns#"
   xmlns:rdf="http://www.w3.org/1999/02/22-rdf-syntax-ns#"
   xmlns:svg="http://www.w3.org/2000/svg"
   xmlns="http://www.w3.org/2000/svg"
   xmlns:xlink="http://www.w3.org/1999/xlink"
   xmlns:sodipodi="http://sodipodi.sourceforge.net/DTD/sodipodi-0.dtd"
   xmlns:inkscape="http://www.inkscape.org/namespaces/inkscape"
   id="svg2"
   version="1.1"
   inkscape:version="0.92.1 r15371"
   width="2481"
   height="3503"
   sodipodi:docname="E02P05.svg">
  <metadata
     id="metadata8">
    <rdf:RDF>
      <cc:Work
         rdf:about="">
        <dc:format>image/svg+xml</dc:format>
        <dc:type
           rdf:resource="http://purl.org/dc/dcmitype/StillImage" />
        <dc:title />
      </cc:Work>
    </rdf:RDF>
  </metadata>
  <defs
     id="defs6" />
  <sodipodi:namedview
     pagecolor="#ffffff"
     bordercolor="#666666"
     borderopacity="1"
     objecttolerance="10"
     gridtolerance="10"
     guidetolerance="10"
     inkscape:pageopacity="0"
     inkscape:pageshadow="2"
     inkscape:window-width="2560"
     inkscape:window-height="1311"
     id="namedview4"
     showgrid="false"
     inkscape:zoom="0.51213246"
     inkscape:cx="907.80468"
     inkscape:cy="875.76634"
     inkscape:window-x="0"
     inkscape:window-y="55"
     inkscape:window-maximized="1"
     inkscape:current-layer="layer1"
     inkscape:document-units="px" />
  <g
     inkscape:groupmode="layer"
     id="layer2"
     inkscape:label="artwork"
     sodipodi:insensitive="true">
    <image
       sodipodi:absref="/home/rbreu/pepper_un_wuddel/webcomics/ep02_Rainbow-potions/lang/ns/../gfx_Pepper-and-Carrot_by-David-Revoy_E02P05.png"
       xlink:href="../gfx_Pepper-and-Carrot_by-David-Revoy_E02P05.png"
       y="0"
       x="-1.6728083e-06"
       id="image10"
       height="3503"
       width="2481" />
  </g>
  <g
     inkscape:groupmode="layer"
     id="layer1"
     inkscape:label="text">
    <flowRoot
       xml:space="preserve"
       id="flowRoot4052-0-1-3-3-0-5"
       style="color:#000000;font-style:normal;font-variant:normal;font-weight:normal;font-stretch:normal;line-height:0.01%;font-family:Arial;-inkscape-font-specification:Arial;letter-spacing:0px;word-spacing:0px;display:inline;overflow:visible;visibility:visible;fill:#ff0145;fill-opacity:1;fill-rule:nonzero;stroke:#ff0145;stroke-width:2.06473064;stroke-miterlimit:4;stroke-dasharray:none;stroke-opacity:1;marker:none;enable-background:accumulate"
       transform="matrix(1.3924208,-0.15934085,0.43138482,1.0914013,742.45302,655.419)"><flowRegion
         id="flowRegion4054-7-0-2-2-5-5"
         style="stroke-width:4.93332052"><rect
           id="rect4056-8-2-5-7-9-8"
           width="188.64381"
           height="72.388626"
           x="92.642677"
           y="425.30325"
           style="color:#000000;font-size:72px;display:inline;overflow:visible;visibility:visible;fill:#ff0145;fill-opacity:1;fill-rule:nonzero;stroke:#ff0145;stroke-width:2.06473064;stroke-miterlimit:4;stroke-dasharray:none;stroke-opacity:1;marker:none;enable-background:accumulate"
           ry="0" /></flowRegion><flowPara
         style="color:#000000;font-style:normal;font-variant:normal;font-weight:normal;font-stretch:normal;font-size:64px;line-height:1.25;font-family:Lavi;-inkscape-font-specification:Lavi;text-align:center;text-anchor:middle;display:inline;overflow:visible;visibility:visible;fill:#ff0145;fill-opacity:1;fill-rule:nonzero;stroke:#ff0145;stroke-width:2.06473064;stroke-miterlimit:4;stroke-dasharray:none;stroke-opacity:1;marker:none;enable-background:accumulate"
         id="flowPara4058-8-1-3-0-6-1">Blupp</flowPara></flowRoot>    <flowRoot
       xml:space="preserve"
       id="flowRoot4052-0-1-3-3-0-5-5"
       style="color:#000000;font-style:normal;font-variant:normal;font-weight:normal;font-stretch:normal;line-height:0.01%;font-family:Arial;-inkscape-font-specification:Arial;letter-spacing:0px;word-spacing:0px;display:inline;overflow:visible;visibility:visible;fill:#ff3c70;fill-opacity:1;fill-rule:nonzero;stroke:#ff3c70;stroke-width:2.06473064;stroke-miterlimit:4;stroke-dasharray:none;stroke-opacity:1;marker:none;enable-background:accumulate"
       transform="matrix(1.3924208,-0.15934085,0.43138482,1.0914013,793.76249,734.978)"><flowRegion
         id="flowRegion4054-7-0-2-2-5-5-2"
         style="stroke-width:4.93332052"><rect
           id="rect4056-8-2-5-7-9-8-92"
           width="130.98526"
           height="72.916138"
           x="92.642677"
           y="425.30325"
           style="color:#000000;font-size:72px;display:inline;overflow:visible;visibility:visible;fill:#ff3c70;fill-opacity:1;fill-rule:nonzero;stroke:#ff3c70;stroke-width:2.06473064;stroke-miterlimit:4;stroke-dasharray:none;stroke-opacity:1;marker:none;enable-background:accumulate" /></flowRegion><flowPara
         style="color:#000000;font-style:normal;font-variant:normal;font-weight:normal;font-stretch:normal;font-size:64px;line-height:1.25;font-family:Lavi;-inkscape-font-specification:Lavi;text-align:center;text-anchor:middle;display:inline;overflow:visible;visibility:visible;fill:#ff3c70;fill-opacity:1;fill-rule:nonzero;stroke:#ff3c70;stroke-width:2.06473064;stroke-miterlimit:4;stroke-dasharray:none;stroke-opacity:1;marker:none;enable-background:accumulate"
         id="flowPara4058-8-1-3-0-6-1-0">B</flowPara></flowRoot>    <flowRoot
       xml:space="preserve"
       id="flowRoot4052-0-1-3-3-0-5-1-5"
       style="color:#000000;font-style:normal;font-variant:normal;font-weight:normal;font-stretch:normal;line-height:0.01%;font-family:Arial;-inkscape-font-specification:Arial;letter-spacing:0px;word-spacing:0px;display:inline;overflow:visible;visibility:visible;fill:#ff3c70;fill-opacity:1;fill-rule:nonzero;stroke:#ff3c70;stroke-width:2.95391536;stroke-miterlimit:4;stroke-dasharray:none;stroke-opacity:1;marker:none;enable-background:accumulate"
       transform="matrix(0.82625732,-0.1311937,0.25598214,0.89860811,1030.2005,820.713)"><flowRegion
         id="flowRegion4054-7-0-2-2-5-5-9-7"
         style="stroke-width:7.05787563"><rect
           id="rect4056-8-2-5-7-9-8-9-1"
           width="130.98526"
           height="72.916138"
           x="92.642677"
           y="425.30325"
           style="color:#000000;font-size:72px;display:inline;overflow:visible;visibility:visible;fill:#ff3c70;fill-opacity:1;fill-rule:nonzero;stroke:#ff3c70;stroke-width:2.95391536;stroke-miterlimit:4;stroke-dasharray:none;stroke-opacity:1;marker:none;enable-background:accumulate" /></flowRegion><flowPara
         style="color:#000000;font-style:normal;font-variant:normal;font-weight:normal;font-stretch:normal;font-size:64px;line-height:1.25;font-family:Lavi;-inkscape-font-specification:Lavi;text-align:center;text-anchor:middle;display:inline;overflow:visible;visibility:visible;fill:#ff3c70;fill-opacity:1;fill-rule:nonzero;stroke:#ff3c70;stroke-width:2.95391536;stroke-miterlimit:4;stroke-dasharray:none;stroke-opacity:1;marker:none;enable-background:accumulate"
         id="flowPara4058-8-1-3-0-6-1-3-0">lupp</flowPara></flowRoot>    <flowRoot
       xml:space="preserve"
       id="flowRoot4052-0-1-3-3-0-5-1-5-3"
       style="color:#000000;font-style:normal;font-variant:normal;font-weight:normal;font-stretch:normal;line-height:0.01%;font-family:Arial;-inkscape-font-specification:Arial;letter-spacing:0px;word-spacing:0px;display:inline;overflow:visible;visibility:visible;fill:#fe801c;fill-opacity:1;fill-rule:nonzero;stroke:#fe801c;stroke-width:2.39221978;stroke-miterlimit:4;stroke-dasharray:none;stroke-opacity:1;marker:none;enable-background:accumulate"
       transform="matrix(1.048558,0.07970855,-0.06946589,1.1232138,1063.4281,2417.252)"><flowRegion
         id="flowRegion4054-7-0-2-2-5-5-9-7-0"
         style="stroke-width:5.71580029"><rect
           id="rect4056-8-2-5-7-9-8-9-1-9"
           width="130.98526"
           height="72.916138"
           x="92.642677"
           y="425.30325"
           style="color:#000000;font-size:72px;display:inline;overflow:visible;visibility:visible;fill:#fe801c;fill-opacity:1;fill-rule:nonzero;stroke:#fe801c;stroke-width:2.39221978;stroke-miterlimit:4;stroke-dasharray:none;stroke-opacity:1;marker:none;enable-background:accumulate" /></flowRegion><flowPara
         style="color:#000000;font-style:normal;font-variant:normal;font-weight:normal;font-stretch:normal;font-size:64px;line-height:1.25;font-family:Lavi;-inkscape-font-specification:Lavi;text-align:center;text-anchor:middle;display:inline;overflow:visible;visibility:visible;fill:#fe801c;fill-opacity:1;fill-rule:nonzero;stroke:#fe801c;stroke-width:2.39221978;stroke-miterlimit:4;stroke-dasharray:none;stroke-opacity:1;marker:none;enable-background:accumulate"
         id="flowPara4058-8-1-3-0-6-1-3-0-3">sch</flowPara></flowRoot>    <flowRoot
       xml:space="preserve"
       id="flowRoot4052-0-1-3-3-0-5-1-5-3-2"
       style="color:#000000;font-style:normal;font-variant:normal;font-weight:normal;font-stretch:normal;line-height:0.01%;font-family:Arial;-inkscape-font-specification:Arial;letter-spacing:0px;word-spacing:0px;display:inline;overflow:visible;visibility:visible;fill:#fe801c;fill-opacity:1;fill-rule:nonzero;stroke:#fe801c;stroke-width:2.39221978;stroke-miterlimit:4;stroke-dasharray:none;stroke-opacity:1;marker:none;enable-background:accumulate"
       transform="matrix(1.048558,-0.4256527,-0.06946589,1.1566935,982.1432,2484.546)"><flowRegion
         id="flowRegion4054-7-0-2-2-5-5-9-7-0-7"
         style="stroke-width:5.71580029"><rect
           id="rect4056-8-2-5-7-9-8-9-1-9-0"
           width="130.98526"
           height="72.916138"
           x="92.642677"
           y="425.30325"
           style="color:#000000;font-size:72px;display:inline;overflow:visible;visibility:visible;fill:#fe801c;fill-opacity:1;fill-rule:nonzero;stroke:#fe801c;stroke-width:2.39221978;stroke-miterlimit:4;stroke-dasharray:none;stroke-opacity:1;marker:none;enable-background:accumulate" /></flowRegion><flowPara
         style="color:#000000;font-style:normal;font-variant:normal;font-weight:normal;font-stretch:normal;font-size:64px;line-height:1.25;font-family:Lavi;-inkscape-font-specification:Lavi;text-align:center;text-anchor:middle;display:inline;overflow:visible;visibility:visible;fill:#fe801c;fill-opacity:1;fill-rule:nonzero;stroke:#fe801c;stroke-width:2.39221978;stroke-miterlimit:4;stroke-dasharray:none;stroke-opacity:1;marker:none;enable-background:accumulate"
         id="flowPara4058-8-1-3-0-6-1-3-0-3-3">at</flowPara></flowRoot>    <flowRoot
       xml:space="preserve"
       id="flowRoot4052-0-1-3-3-0-5-1-5-3-2-4"
       style="color:#000000;font-style:normal;font-variant:normal;font-weight:normal;font-stretch:normal;line-height:0.01%;font-family:Arial;-inkscape-font-specification:Arial;letter-spacing:0px;word-spacing:0px;display:inline;overflow:visible;visibility:visible;fill:#fe801c;fill-opacity:1;fill-rule:nonzero;stroke:#fe801c;stroke-width:2.39221978;stroke-miterlimit:4;stroke-dasharray:none;stroke-opacity:1;marker:none;enable-background:accumulate"
       transform="matrix(1.048558,-0.72315017,-0.06946589,1.1764023,938.4895,2541.331)"
       inkscape:transform-center-x="29.670798"
       inkscape:transform-center-y="5.9335632"><flowRegion
         id="flowRegion4054-7-0-2-2-5-5-9-7-0-7-9"
         style="stroke-width:5.71580029"><rect
           id="rect4056-8-2-5-7-9-8-9-1-9-0-0"
           width="130.98526"
           height="72.916138"
           x="92.642677"
           y="425.30325"
           style="color:#000000;font-size:72px;display:inline;overflow:visible;visibility:visible;fill:#fe801c;fill-opacity:1;fill-rule:nonzero;stroke:#fe801c;stroke-width:2.39221978;stroke-miterlimit:4;stroke-dasharray:none;stroke-opacity:1;marker:none;enable-background:accumulate" /></flowRegion><flowPara
         style="color:#000000;font-style:normal;font-variant:normal;font-weight:normal;font-stretch:normal;font-size:64px;line-height:1.25;font-family:Lavi;-inkscape-font-specification:Lavi;text-align:center;text-anchor:middle;display:inline;overflow:visible;visibility:visible;fill:#fe801c;fill-opacity:1;fill-rule:nonzero;stroke:#fe801c;stroke-width:2.39221978;stroke-miterlimit:4;stroke-dasharray:none;stroke-opacity:1;marker:none;enable-background:accumulate"
         id="flowPara4058-8-1-3-0-6-1-3-0-3-3-1">p</flowPara></flowRoot>    <flowRoot
       xml:space="preserve"
       id="flowRoot4052-0-1-3-3-0-5-1-5-3-7"
       style="color:#000000;font-style:normal;font-variant:normal;font-weight:normal;font-stretch:normal;line-height:0.01%;font-family:Arial;-inkscape-font-specification:Arial;letter-spacing:0px;word-spacing:0px;display:inline;overflow:visible;visibility:visible;fill:#ec6870;fill-opacity:1;fill-rule:nonzero;stroke:#ec6870;stroke-width:2.39221978;stroke-miterlimit:4;stroke-dasharray:none;stroke-opacity:1;marker:none;enable-background:accumulate"
       transform="matrix(0.92837066,-0.46240264,-0.0615036,1.1604795,1311.7652,2553.203)"><flowRegion
         id="flowRegion4054-7-0-2-2-5-5-9-7-0-3"
         style="stroke-width:5.71580029"><rect
           id="rect4056-8-2-5-7-9-8-9-1-9-4"
           width="130.98526"
           height="72.916138"
           x="92.642677"
           y="425.30325"
           style="color:#000000;font-size:72px;display:inline;overflow:visible;visibility:visible;fill:#ec6870;fill-opacity:1;fill-rule:nonzero;stroke:#ec6870;stroke-width:2.39221978;stroke-miterlimit:4;stroke-dasharray:none;stroke-opacity:1;marker:none;enable-background:accumulate" /></flowRegion><flowPara
         style="color:#000000;font-style:normal;font-variant:normal;font-weight:normal;font-stretch:normal;font-size:64px;line-height:1.25;font-family:Lavi;-inkscape-font-specification:Lavi;text-align:center;text-anchor:middle;display:inline;overflow:visible;visibility:visible;fill:#ec6870;fill-opacity:1;fill-rule:nonzero;stroke:#ec6870;stroke-width:2.39221978;stroke-miterlimit:4;stroke-dasharray:none;stroke-opacity:1;marker:none;enable-background:accumulate"
         id="flowPara4058-8-1-3-0-6-1-3-0-3-6">sch</flowPara></flowRoot>    <flowRoot
       xml:space="preserve"
       id="flowRoot4052-0-1-3-3-0-5-1-5-3-2-2"
       style="color:#000000;font-style:normal;font-variant:normal;font-weight:normal;font-stretch:normal;line-height:0.01%;font-family:Arial;-inkscape-font-specification:Arial;letter-spacing:0px;word-spacing:0px;display:inline;overflow:visible;visibility:visible;fill:#ec6870;fill-opacity:1;fill-rule:nonzero;stroke:#ec6870;stroke-width:2.39221978;stroke-miterlimit:4;stroke-dasharray:none;stroke-opacity:1;marker:none;enable-background:accumulate"
       transform="matrix(1.048558,0.30675489,-0.06946589,1.1081722,1224.4069,2464.97)"><flowRegion
         id="flowRegion4054-7-0-2-2-5-5-9-7-0-7-7"
         style="stroke-width:5.71580029"><rect
           id="rect4056-8-2-5-7-9-8-9-1-9-0-3"
           width="130.98526"
           height="72.916138"
           x="92.642677"
           y="425.30325"
           style="color:#000000;font-size:72px;display:inline;overflow:visible;visibility:visible;fill:#ec6870;fill-opacity:1;fill-rule:nonzero;stroke:#ec6870;stroke-width:2.39221978;stroke-miterlimit:4;stroke-dasharray:none;stroke-opacity:1;marker:none;enable-background:accumulate" /></flowRegion><flowPara
         style="color:#000000;font-style:normal;font-variant:normal;font-weight:normal;font-stretch:normal;font-size:64px;line-height:1.25;font-family:Lavi;-inkscape-font-specification:Lavi;text-align:center;text-anchor:middle;display:inline;overflow:visible;visibility:visible;fill:#ec6870;fill-opacity:1;fill-rule:nonzero;stroke:#ec6870;stroke-width:2.39221978;stroke-miterlimit:4;stroke-dasharray:none;stroke-opacity:1;marker:none;enable-background:accumulate"
         id="flowPara4058-8-1-3-0-6-1-3-0-3-3-6">at</flowPara></flowRoot>    <flowRoot
       xml:space="preserve"
       id="flowRoot4052-0-1-3-3-0-5-1-5-3-2-4-8"
       style="color:#000000;font-style:normal;font-variant:normal;font-weight:normal;font-stretch:normal;line-height:0.01%;font-family:Arial;-inkscape-font-specification:Arial;letter-spacing:0px;word-spacing:0px;display:inline;overflow:visible;visibility:visible;fill:#ec6870;fill-opacity:1;fill-rule:nonzero;stroke:#ec6870;stroke-width:2.39221978;stroke-miterlimit:4;stroke-dasharray:none;stroke-opacity:1;marker:none;enable-background:accumulate"
       transform="matrix(1.048558,0.52402113,-0.06946589,1.0937785,1180.7533,2424.937)"
       inkscape:transform-center-x="29.670728"
       inkscape:transform-center-y="-29.357093"><flowRegion
         id="flowRegion4054-7-0-2-2-5-5-9-7-0-7-9-5"
         style="stroke-width:5.71580029"><rect
           id="rect4056-8-2-5-7-9-8-9-1-9-0-0-9"
           width="130.98526"
           height="72.916138"
           x="92.642677"
           y="425.30325"
           style="color:#000000;font-size:72px;display:inline;overflow:visible;visibility:visible;fill:#ec6870;fill-opacity:1;fill-rule:nonzero;stroke:#ec6870;stroke-width:2.39221978;stroke-miterlimit:4;stroke-dasharray:none;stroke-opacity:1;marker:none;enable-background:accumulate" /></flowRegion><flowPara
         style="color:#000000;font-style:normal;font-variant:normal;font-weight:normal;font-stretch:normal;font-size:64px;line-height:1.25;font-family:Lavi;-inkscape-font-specification:Lavi;text-align:center;text-anchor:middle;display:inline;overflow:visible;visibility:visible;fill:#ec6870;fill-opacity:1;fill-rule:nonzero;stroke:#ec6870;stroke-width:2.39221978;stroke-miterlimit:4;stroke-dasharray:none;stroke-opacity:1;marker:none;enable-background:accumulate"
         id="flowPara4058-8-1-3-0-6-1-3-0-3-3-1-6">p</flowPara></flowRoot>    <flowRoot
       xml:space="preserve"
       id="flowRoot4052-0-1-3-3-0-5-1-5-3-4"
       style="color:#000000;font-style:normal;font-variant:normal;font-weight:normal;font-stretch:normal;line-height:0.01%;font-family:Arial;-inkscape-font-specification:Arial;letter-spacing:0px;word-spacing:0px;display:inline;overflow:visible;visibility:visible;fill:#4ca4f5;fill-opacity:1;fill-rule:nonzero;stroke:#4ca4f5;stroke-width:3.00470686;stroke-miterlimit:4;stroke-dasharray:none;stroke-opacity:1;marker:none;enable-background:accumulate"
       transform="matrix(0.73909325,0.05774939,-0.04896417,0.81377624,1552.2576,2589.172)"><flowRegion
         id="flowRegion4054-7-0-2-2-5-5-9-7-0-2"
         style="stroke-width:7.17923307"><rect
           id="rect4056-8-2-5-7-9-8-9-1-9-8"
           width="130.98526"
           height="72.916138"
           x="92.642677"
           y="425.30325"
           style="color:#000000;font-size:72px;display:inline;overflow:visible;visibility:visible;fill:#4ca4f5;fill-opacity:1;fill-rule:nonzero;stroke:#4ca4f5;stroke-width:3.00470686;stroke-miterlimit:4;stroke-dasharray:none;stroke-opacity:1;marker:none;enable-background:accumulate" /></flowRegion><flowPara
         style="color:#000000;font-style:normal;font-variant:normal;font-weight:normal;font-stretch:normal;font-size:64px;line-height:1.25;font-family:Lavi;-inkscape-font-specification:Lavi;text-align:center;text-anchor:middle;display:inline;overflow:visible;visibility:visible;fill:#4ca4f5;fill-opacity:1;fill-rule:nonzero;stroke:#4ca4f5;stroke-width:3.00470686;stroke-miterlimit:4;stroke-dasharray:none;stroke-opacity:1;marker:none;enable-background:accumulate"
         id="flowPara4058-8-1-3-0-6-1-3-0-3-0">sch</flowPara></flowRoot>    <flowRoot
       xml:space="preserve"
       id="flowRoot4052-0-1-3-3-0-5-1-5-3-2-3"
       style="color:#000000;font-style:normal;font-variant:normal;font-weight:normal;font-stretch:normal;line-height:0.01%;font-family:Arial;-inkscape-font-specification:Arial;letter-spacing:0px;word-spacing:0px;display:inline;overflow:visible;visibility:visible;fill:#4ca4f5;fill-opacity:1;fill-rule:nonzero;stroke:#4ca4f5;stroke-width:3.00470686;stroke-miterlimit:4;stroke-dasharray:none;stroke-opacity:1;marker:none;enable-background:accumulate"
       transform="matrix(0.92310592,-0.30647446,-0.06115482,0.83283157,1463.768,2634.799)"><flowRegion
         id="flowRegion4054-7-0-2-2-5-5-9-7-0-7-75"
         style="stroke-width:7.17923307"><rect
           id="rect4056-8-2-5-7-9-8-9-1-9-0-6"
           width="130.98526"
           height="72.916138"
           x="92.642677"
           y="425.30325"
           style="color:#000000;font-size:72px;display:inline;overflow:visible;visibility:visible;fill:#4ca4f5;fill-opacity:1;fill-rule:nonzero;stroke:#4ca4f5;stroke-width:3.00470686;stroke-miterlimit:4;stroke-dasharray:none;stroke-opacity:1;marker:none;enable-background:accumulate" /></flowRegion><flowPara
         style="color:#000000;font-style:normal;font-variant:normal;font-weight:normal;font-stretch:normal;font-size:64px;line-height:1.25;font-family:Lavi;-inkscape-font-specification:Lavi;text-align:center;text-anchor:middle;display:inline;overflow:visible;visibility:visible;fill:#4ca4f5;fill-opacity:1;fill-rule:nonzero;stroke:#4ca4f5;stroke-width:3.00470686;stroke-miterlimit:4;stroke-dasharray:none;stroke-opacity:1;marker:none;enable-background:accumulate"
         id="flowPara4058-8-1-3-0-6-1-3-0-3-3-0">at</flowPara></flowRoot>    <flowRoot
       xml:space="preserve"
       id="flowRoot4052-0-1-3-3-0-5-1-5-3-2-4-5"
       style="color:#000000;font-style:normal;font-variant:normal;font-weight:normal;font-stretch:normal;line-height:0.01%;font-family:Arial;-inkscape-font-specification:Arial;letter-spacing:0px;word-spacing:0px;display:inline;overflow:visible;visibility:visible;fill:#4ca4f5;fill-opacity:1;fill-rule:nonzero;stroke:#4ca4f5;stroke-width:3.00470686;stroke-miterlimit:4;stroke-dasharray:none;stroke-opacity:1;marker:none;enable-background:accumulate"
       transform="matrix(0.92310592,-0.5206758,-0.06115482,0.84702217,1425.3372,2675.685)"
       inkscape:transform-center-x="26.120917"
       inkscape:transform-center-y="4.2720827"><flowRegion
         id="flowRegion4054-7-0-2-2-5-5-9-7-0-7-9-2"
         style="stroke-width:7.17923307"><rect
           id="rect4056-8-2-5-7-9-8-9-1-9-0-0-2"
           width="130.98526"
           height="72.916138"
           x="92.642677"
           y="425.30325"
           style="color:#000000;font-size:72px;display:inline;overflow:visible;visibility:visible;fill:#4ca4f5;fill-opacity:1;fill-rule:nonzero;stroke:#4ca4f5;stroke-width:3.00470686;stroke-miterlimit:4;stroke-dasharray:none;stroke-opacity:1;marker:none;enable-background:accumulate" /></flowRegion><flowPara
         style="color:#000000;font-style:normal;font-variant:normal;font-weight:normal;font-stretch:normal;font-size:64px;line-height:1.25;font-family:Lavi;-inkscape-font-specification:Lavi;text-align:center;text-anchor:middle;display:inline;overflow:visible;visibility:visible;fill:#4ca4f5;fill-opacity:1;fill-rule:nonzero;stroke:#4ca4f5;stroke-width:3.00470686;stroke-miterlimit:4;stroke-dasharray:none;stroke-opacity:1;marker:none;enable-background:accumulate"
         id="flowPara4058-8-1-3-0-6-1-3-0-3-3-1-4">p</flowPara></flowRoot>  </g>
</svg>
