<?xml version="1.0" encoding="UTF-8" standalone="no"?>
<!-- Created with Inkscape (http://www.inkscape.org/) -->

<svg
   xmlns:dc="http://purl.org/dc/elements/1.1/"
   xmlns:cc="http://creativecommons.org/ns#"
   xmlns:rdf="http://www.w3.org/1999/02/22-rdf-syntax-ns#"
   xmlns:svg="http://www.w3.org/2000/svg"
   xmlns="http://www.w3.org/2000/svg"
   xmlns:xlink="http://www.w3.org/1999/xlink"
   xmlns:sodipodi="http://sodipodi.sourceforge.net/DTD/sodipodi-0.dtd"
   xmlns:inkscape="http://www.inkscape.org/namespaces/inkscape"
   id="svg2"
   version="1.1"
   inkscape:version="0.92.3 (2405546, 2018-03-11)"
   width="2481"
   height="3503"
   sodipodi:docname="E31P05.svg">
  <metadata
     id="metadata8">
    <rdf:RDF>
      <cc:Work
         rdf:about="">
        <dc:format>image/svg+xml</dc:format>
        <dc:type
           rdf:resource="http://purl.org/dc/dcmitype/StillImage" />
        <dc:title />
      </cc:Work>
    </rdf:RDF>
  </metadata>
  <defs
     id="defs6">
    <filter
       style="color-interpolation-filters:sRGB"
       id="filter4375-4-1-1-1-9-5-8-86"
       inkscape:label="Drop Shadow">
      <feFlood
         id="feFlood4377-7-9-0-8-1-7-3-2"
         flood-opacity="1"
         flood-color="rgb(162,101,216)"
         result="flood" />
      <feComposite
         id="feComposite4379-3-8-8-2-77-4-1-84"
         in2="SourceGraphic"
         in="flood"
         operator="in"
         result="composite1" />
      <feMorphology
         id="feMorphology4393-1-0-49-8-9-3-0-7"
         operator="dilate"
         radius="6.2000000000000002"
         result="result3" />
      <feComposite
         id="feComposite4385-9-5-7-0-8-8-7-24"
         in2="result3"
         in="SourceGraphic"
         operator="over"
         result="fbSourceGraphic" />
      <feColorMatrix
         result="fbSourceGraphicAlpha"
         in="fbSourceGraphic"
         values="0 0 0 -1 0 0 0 0 -1 0 0 0 0 -1 0 0 0 0 1 0"
         id="feColorMatrix4544-0" />
      <feTurbulence
         id="feTurbulence4546-62"
         type="fractalNoise"
         numOctaves="3"
         seed="37"
         baseFrequency="0.129 0.0050000000000000001"
         result="turbulence" />
      <feDisplacementMap
         id="feDisplacementMap4548-9"
         in2="turbulence"
         in="fbSourceGraphic"
         scale="6.6"
         yChannelSelector="G"
         xChannelSelector="R"
         result="fbSourceGraphic" />
      <feColorMatrix
         result="fbSourceGraphicAlpha"
         in="fbSourceGraphic"
         values="0 0 0 -1 0 0 0 0 -1 0 0 0 0 -1 0 0 0 0 1 0"
         id="feColorMatrix4670-90" />
      <feFlood
         id="feFlood4672-81"
         flood-opacity="1"
         flood-color="rgb(37,37,37)"
         result="flood"
         in="fbSourceGraphic" />
      <feComposite
         id="feComposite4674-3"
         in2="fbSourceGraphic"
         in="flood"
         operator="in"
         result="composite1" />
      <feGaussianBlur
         id="feGaussianBlur4676-1"
         in="composite1"
         stdDeviation="0"
         result="blur" />
      <feOffset
         id="feOffset4678-1"
         dx="6"
         dy="6"
         result="offset" />
      <feComposite
         id="feComposite4680-0"
         in2="offset"
         in="fbSourceGraphic"
         operator="over"
         result="composite2" />
    </filter>
    <filter
       style="color-interpolation-filters:sRGB"
       id="filter3018-9-9"
       inkscape:label="Lapping"
       inkscape:menu="Distort"
       inkscape:menu-tooltip="Something like a water noise"
       height="1.3"
       y="-0.15000001"
       width="1.3"
       x="-0.15000001">
      <feTurbulence
         id="feTurbulence3020-3-0"
         numOctaves="5"
         seed="0"
         type="fractalNoise"
         baseFrequency="0.045999999999999999"
         result="result1" />
      <feGaussianBlur
         id="feGaussianBlur3022-77-9"
         stdDeviation="2"
         result="result2" />
      <feDisplacementMap
         id="feDisplacementMap3024-6-9"
         in2="result2"
         scale="50"
         yChannelSelector="B"
         xChannelSelector="R"
         in="SourceGraphic" />
    </filter>
    <filter
       style="color-interpolation-filters:sRGB"
       id="filter3018-9-9-8"
       inkscape:label="Lapping"
       inkscape:menu="Distort"
       inkscape:menu-tooltip="Something like a water noise"
       height="1.3"
       y="-0.15000001"
       width="1.3"
       x="-0.15000001">
      <feTurbulence
         id="feTurbulence3020-3-0-7"
         numOctaves="5"
         seed="0"
         type="fractalNoise"
         baseFrequency="0.045999999999999999"
         result="result1" />
      <feGaussianBlur
         id="feGaussianBlur3022-77-9-9"
         stdDeviation="2"
         result="result2" />
      <feDisplacementMap
         id="feDisplacementMap3024-6-9-2"
         in2="result2"
         scale="50"
         yChannelSelector="B"
         xChannelSelector="R"
         in="SourceGraphic" />
    </filter>
    <filter
       style="color-interpolation-filters:sRGB"
       id="filter4375-4-1-1-15-1-3-0"
       inkscape:label="deevad outline effect">
      <feFlood
         id="feFlood4377-7-9-0-4-4-4-0"
         flood-opacity="1"
         flood-color="rgb(0,0,0)"
         result="flood" />
      <feComposite
         id="feComposite4379-3-8-8-6-0-7-3"
         in2="SourceGraphic"
         in="flood"
         operator="in"
         result="composite1" />
      <feMorphology
         id="feMorphology4393-1-0-49-8-2-7-4"
         operator="dilate"
         radius="0.90000000000000002"
         result="result3" />
      <feComposite
         id="feComposite4385-9-5-7-2-1-2-6-7"
         in2="result3"
         in="SourceGraphic"
         operator="over"
         result="composite2" />
    </filter>
    <filter
       style="color-interpolation-filters:sRGB"
       id="filter4375-4-1-1-1-9-5-8-3-8"
       inkscape:label="Drop Shadow">
      <feFlood
         id="feFlood4377-7-9-0-8-1-7-3-8-3"
         flood-opacity="1"
         flood-color="rgb(32,32,32)"
         result="flood" />
      <feComposite
         id="feComposite4379-3-8-8-2-77-4-1-8-7"
         in2="SourceGraphic"
         in="flood"
         operator="in"
         result="composite1" />
      <feMorphology
         id="feMorphology4393-1-0-49-8-9-3-0-31-8"
         operator="dilate"
         radius="6.2000000000000002"
         result="result3" />
      <feComposite
         id="feComposite4385-9-5-7-0-8-8-7-8-2"
         in2="result3"
         in="SourceGraphic"
         operator="over"
         result="fbSourceGraphic" />
      <feColorMatrix
         result="fbSourceGraphicAlpha"
         in="fbSourceGraphic"
         values="0 0 0 -1 0 0 0 0 -1 0 0 0 0 -1 0 0 0 0 1 0"
         id="feColorMatrix4544-96-1" />
      <feTurbulence
         id="feTurbulence4546-4-0"
         type="fractalNoise"
         numOctaves="3"
         seed="37"
         baseFrequency="0.129 0.0050000000000000001"
         result="turbulence" />
      <feDisplacementMap
         id="feDisplacementMap4548-3-5"
         in2="turbulence"
         in="fbSourceGraphic"
         scale="6.6"
         yChannelSelector="G"
         xChannelSelector="R"
         result="fbSourceGraphic" />
      <feColorMatrix
         result="fbSourceGraphicAlpha"
         in="fbSourceGraphic"
         values="0 0 0 -1 0 0 0 0 -1 0 0 0 0 -1 0 0 0 0 1 0"
         id="feColorMatrix4670-33-8" />
      <feFlood
         id="feFlood4672-8-5"
         flood-opacity="0.40999999999999998"
         flood-color="rgb(41,41,41)"
         result="flood"
         in="fbSourceGraphic" />
      <feComposite
         id="feComposite4674-6-5"
         in2="fbSourceGraphic"
         in="flood"
         operator="in"
         result="composite1" />
      <feGaussianBlur
         id="feGaussianBlur4676-0-0"
         in="composite1"
         stdDeviation="0"
         result="blur" />
      <feOffset
         id="feOffset4678-4-7"
         dx="6"
         dy="6"
         result="offset" />
      <feComposite
         id="feComposite4680-8-3"
         in2="offset"
         in="fbSourceGraphic"
         operator="over"
         result="composite2" />
    </filter>
  </defs>
  <sodipodi:namedview
     pagecolor="#ffffff"
     bordercolor="#666666"
     borderopacity="1"
     objecttolerance="10"
     gridtolerance="10"
     guidetolerance="10"
     inkscape:pageopacity="0"
     inkscape:pageshadow="2"
     inkscape:window-width="1276"
     inkscape:window-height="756"
     id="namedview4"
     showgrid="false"
     inkscape:zoom="0.17466224"
     inkscape:cx="686.69278"
     inkscape:cy="1492.363"
     inkscape:window-x="265"
     inkscape:window-y="28"
     inkscape:window-maximized="0"
     inkscape:current-layer="layer1"
     inkscape:snap-global="false" />
  <g
     inkscape:groupmode="layer"
     id="layer2"
     inkscape:label="artwork"
     sodipodi:insensitive="true">
    <image
       sodipodi:absref="/home/deevad/peppercarrot/webcomics/ep31_The-Fight/lang/vi/../gfx_Pepper-and-Carrot_by-David-Revoy_E31P05.png"
       xlink:href="../gfx_Pepper-and-Carrot_by-David-Revoy_E31P05.png"
       width="2481"
       height="3503"
       id="image10"
       x="0"
       y="0" />
  </g>
  <g
     inkscape:groupmode="layer"
     id="layer3"
     inkscape:label="speechbubbles">
    <path
       style="display:inline;fill:#ffffff;stroke:none;stroke-width:1"
       d="m 382.49566,1179.2358 c -2.01062,-17.6243 12.0717,-67.9969 90.08514,-68.7361 78.01344,-0.7392 103.59741,17.4259 107.8701,48.7172 6.75943,49.5031 -33.32995,64.9214 -91.87056,71.674 -60.34906,6.9619 -99.1075,-7.2308 -106.08468,-51.6551 z"
       id="path3280-9"
       inkscape:connector-curvature="0"
       sodipodi:nodetypes="csssc" />
    <path
       style="display:inline;fill:#ffffff;stroke:none;stroke-width:0.99999994"
       d="m 838.74219,1343.1008 c 5.14046,-12.1801 -5.32637,-23.7674 -18.08678,-28.0133 -12.76108,-4.2447 -17.11873,-5.8511 -32.46479,-5.5922 -15.34651,0.2588 -33.87645,-18.63 -39.83871,-26.5569 -5.96336,-7.9256 -57.72306,-32.5688 -57.72306,-32.5688 0,0 2.85238,31.2418 7.85563,42.0344 5.00412,10.7938 5.65455,6.0882 9.89238,10.0535 4.23783,3.964 26.45958,14.3405 40.45236,18.6892 10.98819,3.4161 24.49176,7.9704 43.02369,5.8983 12.31041,-1.3778 27.85053,9.2829 21.92175,18.3747 -6.57944,10.0897 0.64735,15.6711 22.40302,23.6778 20.17992,7.4261 56.16383,14.0502 56.16383,14.0502 -66.35709,-27.7338 -59.36137,-26.3947 -53.59932,-40.0469 z"
       id="path3023-0"
       inkscape:connector-curvature="0"
       sodipodi:nodetypes="sssscsssssscs" />
    <path
       style="color:#000000;display:inline;overflow:visible;visibility:visible;fill:#ffffff;fill-opacity:1;fill-rule:nonzero;stroke:none;stroke-width:1px;marker:none;enable-background:accumulate"
       d="m 944.57883,1605.1703 c -30.33271,27.8223 -40.63193,41.7036 -32.65289,89.1503 7.9795,47.4457 -10.38684,49.099 -10.38684,49.099 l -22.6221,-25.0848 c 0,0 -10.78332,-87.9521 65.66183,-113.1645 z"
       id="path3072-56"
       inkscape:connector-curvature="0"
       sodipodi:nodetypes="ccccc" />
    <path
       style="fill:#ffffff;fill-rule:evenodd;stroke:none;stroke-width:1px;stroke-linecap:butt;stroke-linejoin:miter;stroke-opacity:1"
       d="m 2355.6287,3352.3735 -62.4863,-105.9956 -20.7592,1.1293 0.9846,29.7863 c -198.2559,-209.0923 -141.9506,-96.6792 1.661,30.8425 l 12.9698,3.243 3.2425,-25.94 z"
       id="path1111"
       inkscape:connector-curvature="0"
       sodipodi:nodetypes="cccccccc" />
    <path
       style="color:#000000;fill:#ffffff;fill-opacity:1;fill-rule:nonzero;stroke:none;stroke-width:1px;marker:none;visibility:visible;display:inline;overflow:visible;enable-background:accumulate"
       d="m 1926.5091,3088.3103 c -8.4491,20.3024 -60.3834,23.2223 -79.6818,19.5956 39.4475,21.5486 38.6378,35.5404 -13.6684,38.9533 89.4103,38.401 17.3793,33.9812 3.6118,44.5847 69.5193,12.3148 39.321,30.4145 27.7023,47.9943 79.3135,-1.2914 54.4281,27.0365 58.6164,49.0272 6.3248,-10.5156 37.0497,-42.8045 40.3174,-7.7438 -0.109,-6.6401 49.9302,-62.8859 129.5219,-11.2294 -2.9296,-27.504 23.3823,-33.7993 50.0326,3.6613 -9.9984,-40.9976 79.8137,-31.2003 127.6382,-19.3973 -24.8728,-24.3894 12.5364,-35.3463 52.9432,-31.3315 -6.1634,-13.5507 7.0545,-23.2798 37.5054,-29.5951 -41.0661,-7.2968 -48.903,-15.6446 26.4074,-26.6198 -57.6086,0.4822 -111.3669,-0.06 -45.0195,-32.9585 -21.2204,-0.2525 -70.498,27.0535 -49.9865,-49.9183 -35.5018,25.3302 -73.8621,39.7556 -124.5839,-10.328 -22.0925,26.1482 -61.6282,39.7685 -80.2658,8.2059 -5.7353,13.7803 -31.4876,19.5247 -53.4926,20.6697 -8.7262,-5.2119 -17.7941,-12.358 -27.3323,-21.7761 -14.2091,20.59 -36.1012,34.7875 -80.2658,8.2058 z"
       id="path3549-3-7-9"
       inkscape:connector-curvature="0"
       sodipodi:nodetypes="cccccccccccccccccccc" />
    <path
       style="color:#000000;display:inline;overflow:visible;visibility:visible;opacity:1;vector-effect:none;fill:#000000;fill-opacity:1;fill-rule:nonzero;stroke:none;stroke-width:0.8536979px;stroke-linecap:butt;stroke-linejoin:miter;stroke-miterlimit:4;stroke-dasharray:none;stroke-dashoffset:0;stroke-opacity:1;marker:none;filter:url(#filter3018-9-9);enable-background:accumulate"
       d="m 568.82556,2217.9956 c 20.35374,-58.0159 71.84002,-99.3668 204.06836,-127.8459 84.78944,-18.2616 135.87813,-13.5537 178.25372,3.7865 20.01567,8.1908 47.17519,73.4649 36.6338,132.3857 -10.54149,58.921 -61.62983,129.2861 -191.63016,151.7389 -130.00027,22.4519 -130.37727,20.4609 -151.08113,13.2133 -39.33514,-13.7704 -96.59841,-115.2625 -76.24459,-173.2785 z"
       id="path4530-1"
       inkscape:connector-curvature="0"
       sodipodi:nodetypes="zsssssz"
       transform="matrix(1.2127233,-0.15265248,0.13884321,0.93477371,-441.31166,250.35642)" />
    <path
       style="color:#000000;display:inline;overflow:visible;visibility:visible;fill:#ffffff;fill-opacity:1;fill-rule:nonzero;stroke:none;stroke-width:1.21682394px;marker:none;enable-background:accumulate"
       d="m 737.50081,1703.0768 c 13.74023,-29.7704 35.89075,-38.1183 124.06771,-34.9272 47.36868,1.7139 105.92859,0.9817 104.20673,79.7305 -1.4199,64.9383 -56.69446,75.7703 -109.76091,77.3504 -35.56923,1.0594 -91.23791,-4.1744 -107.76382,-31.0594 -19.91123,-32.3925 -20.14303,-64.4419 -10.74971,-91.0943 z"
       id="path4546-6-5-5"
       inkscape:connector-curvature="0"
       sodipodi:nodetypes="cssssc" />
    <path
       style="color:#000000;display:inline;overflow:visible;visibility:visible;fill:#ffffff;fill-opacity:1;fill-rule:nonzero;stroke:none;stroke-width:0.92472911px;marker:none;enable-background:accumulate"
       d="m 401.6675,1277.0228 c 2.82974,-19.8648 4.34785,-45.2143 37.43135,-56.4263 33.08355,-11.2127 103.07996,-13.275 175.79226,-9.3377 38.94884,2.1085 103.36765,-0.075 133.21943,11.3336 19.50385,7.4537 40.73615,21.5672 37.04346,50.6682 -3.69286,29.1018 -32.59177,47.5454 -68.62379,54.5209 -36.0321,6.9755 -72.14972,6.739 -103.60281,6.4151 -30.36904,-0.3126 -53.92172,-0.6528 -94.31693,-4.5946 -40.39518,-3.9425 -85.77182,-5.5429 -97.46831,-15.4775 -7.3217,-6.219 -12.38259,-12.4178 -15.51693,-18.6001 -3.13442,-6.1824 -4.34218,-12.3484 -3.95773,-18.5016 z"
       id="path4546-6-8"
       inkscape:connector-curvature="0"
       sodipodi:nodetypes="csssssssssc" />
    <path
       style="fill:#ffffff;stroke:none"
       d="m 2091.8061,870.87105 c -3.1518,37.14482 -62.3688,48.25571 -104.6985,49.06012 -71.9102,4.07399 -144.9864,0.74658 -215.5356,-9.8822 -45.6289,-9.45141 -68.9864,-56.75132 -32.031,-81.46363 38.0681,-19.41027 87.6739,-18.69164 132.1013,-23.09116 62.925,-3.02658 128.2512,-0.74073 187.7024,15.5416 26.5323,8.96344 36.2143,29.78044 32.4614,49.83527 z"
       id="path3100-2-3"
       inkscape:connector-curvature="0" />
    <path
       style="fill:#ffffff;stroke:none"
       d="m 1985.0146,738.96364 c -3.7137,60.75983 -73.561,77.29769 -123.369,80.25033 -84.8467,5.02975 -172.7756,13.37049 -255.3604,-6.44455 -54.4006,-13.05266 -77.1229,-124.76938 -33.5773,-165.19268 44.8568,-31.75045 100.2811,-20.2228 152.8816,-25.27396 73.971,-7.10335 151.1219,8.50865 221.175,35.14255 31.2638,14.66199 42.6724,48.71351 38.2501,81.51831 z"
       id="path3100-2"
       inkscape:connector-curvature="0"
       sodipodi:nodetypes="csscscc" />
    <path
       style="color:#000000;display:inline;overflow:visible;visibility:visible;fill:#ffffff;fill-opacity:1;fill-rule:nonzero;stroke:none;stroke-width:1px;marker:none;enable-background:accumulate"
       d="m 366.93185,765.16568 c -14.52106,25.38401 -14.12226,29.37216 -3.84683,39.71783 10.27644,10.34571 28.24694,21.81722 28.294,48.35038 0.048,26.53331 -11.40014,37.63007 -18.43834,45.4423 17.99392,4.59778 43.67647,28.43441 55.52347,21.32581 11.84699,-7.10861 -12.77868,22.26186 -12.77868,22.26186 0,0 -48.39781,1.76058 -63.31887,-17.12444 -14.92107,-18.88493 12.55046,-52.19852 15.22453,-70.47392 2.67404,-18.2753 -21.32605,-35.54142 -22.10024,-50.39147 -0.77516,-14.85029 12.05701,-28.6919 21.44096,-39.10835 z"
       id="path4538-7"
       inkscape:connector-curvature="0"
       sodipodi:nodetypes="ccscccsscc" />
    <path
       style="fill:#ffffff;fill-rule:evenodd;stroke:none;stroke-width:1px;stroke-linecap:butt;stroke-linejoin:miter;stroke-opacity:1"
       d="m 280.26826,949.8856 c 1.30092,-19.455 16.91203,-55.122 40.32881,-61.607 23.41667,-6.485 88.46306,-6.485 101.47236,-3.242 13.0093,3.242 33.82416,27.02 39.0279,36.748 5.20375,9.727 19.51394,44.313 -3.90272,58.364 -23.41679,14.05101 -46.83346,24.859 -71.55115,23.778 -24.7177,-1.081 -74.15297,-8.64699 -85.86124,-21.616 -11.7084,-12.97 -19.51396,-32.425 -19.51396,-32.425 z"
       id="path1355"
       inkscape:connector-curvature="0" />
    <path
       style="color:#000000;display:inline;overflow:visible;visibility:visible;fill:#ffffff;fill-opacity:1;fill-rule:nonzero;stroke:none;stroke-width:0.86172825px;marker:none;enable-background:accumulate"
       d="m 1970.8269,562.44869 c -37.9175,4.25331 -75.7593,39.09104 -74.742,73.98841 -9.2637,38.72473 -17.7448,26.50086 -17.7448,26.50086 l -22.7264,-25.55892 c 0,0 34.1381,-81.95988 115.2132,-74.93035 z"
       id="path3072-5-5"
       inkscape:connector-curvature="0"
       sodipodi:nodetypes="ccccc" />
    <path
       style="display:inline;fill:#ffffff;fill-opacity:1;fill-rule:evenodd;stroke:none;stroke-width:1px;stroke-linecap:butt;stroke-linejoin:miter;stroke-opacity:1"
       d="m 94.626144,1930.8268 2.131968,119.7971 c 16.626358,9.4264 52.381138,32.2807 27.394228,59.1906 44.7032,-30.512 69.18377,-28.1575 42.62207,5.4721 31.58553,-28.9239 71.87987,-49.9947 57.12277,-16.7662 11.33998,-20.8712 73.0613,-39.2613 64.2175,-13.7209 35.60728,-29.9149 61.56903,-2.5326 68.23493,21.9544 25.35251,-39.2139 49.07895,-32.9302 74.43136,-33.1676 4.3067,3.798 13.02238,7.2039 24.262,14.8024 0.88518,-7.436 18.46268,-13.6692 30.90205,-7.43 l 1.42131,-151.5532 z"
       id="path4508-2"
       inkscape:connector-curvature="0"
       sodipodi:nodetypes="cccccccccccc" />
    <path
       style="color:#000000;display:inline;overflow:visible;visibility:visible;fill:#ffffff;fill-opacity:1;fill-rule:nonzero;stroke:none;stroke-width:0.99999988px;marker:none;enable-background:accumulate"
       d="m 418.73536,2055.1489 c 3.84838,34.7867 6.74214,80.4189 3.34466,87.8991 6.54891,-5.4068 13.08002,-8.3131 18.13766,-10.723 3.59478,16.93 1.37715,72.9444 0.69916,104.7157 14.25523,-47.1378 17.38386,-114.509 14.12659,-141.5765 -5.74943,7.8798 -11.53154,12.3511 -15.31572,12.9092 -5.65161,-11.5208 -1.74846,-60.5538 -1.24906,-60.9055 z"
       id="path5066-6"
       inkscape:connector-curvature="0"
       sodipodi:nodetypes="cccccccc" />
    <path
       style="color:#000000;display:inline;overflow:visible;visibility:visible;fill:#000000;fill-opacity:1;fill-rule:nonzero;stroke:none;stroke-width:1.25845337px;marker:none;filter:url(#filter3018-9-9);enable-background:accumulate"
       d="m 242.72907,238.4265 c 0,-43.16665 41.77313,-75.34884 127.54615,-85.0916 88.07104,-10.00379 249.70116,-15.35559 288.45226,4.24531 38.751,19.601 30.81374,42.98675 32.80104,82.18855 1.9872,39.2018 -70.66992,79.95433 -157.5944,97.0713 -119.00792,23.43477 -209.10789,37.33253 -256.80149,23.33183 -47.6936,-14.0007 -30.42906,-74.14319 -34.40356,-121.74539 z"
       id="path3986-45"
       inkscape:connector-curvature="0"
       sodipodi:nodetypes="csssssc"
       transform="matrix(0.76931211,0.08232987,-0.06789223,0.68352218,-56.104771,2551.2388)" />
    <path
       style="color:#000000;display:inline;overflow:visible;visibility:visible;fill:#000000;fill-opacity:1;fill-rule:nonzero;stroke:none;stroke-width:1px;marker:none;enable-background:accumulate"
       d="m 320.34575,2699.3541 c -2.27872,-20.874 -3.1096,-48.2508 0.63297,-52.729 -6.80567,3.2268 -13.4802,4.9539 -18.65609,6.3868 -2.83396,-10.1632 1.92623,-43.7544 4.0453,-62.8087 -16.41704,28.2374 -22.60454,68.6381 -20.56814,84.8808 6.11684,-4.712 12.11193,-7.3796 15.92818,-7.7049 5.13961,6.9238 -0.99272,36.3236 -1.50894,36.5333 z"
       id="path5066-6-2"
       inkscape:connector-curvature="0"
       sodipodi:nodetypes="cccccccc" />
    <path
       style="display:inline;opacity:1;vector-effect:none;fill:#000000;fill-opacity:1;stroke:none;stroke-width:0.99999994;stroke-linecap:butt;stroke-linejoin:miter;stroke-miterlimit:4;stroke-dasharray:none;stroke-dashoffset:0;stroke-opacity:1"
       d="m 738.50838,2535.2565 c -48.6175,-23.276 -83.2149,-109.492 -49.7683,-157.706 19.7334,-28.446 29.6777,-45.463 29.6777,-45.463 l -35.9455,-11.844 c -83.024,107.754 -0.6527,193.212 56.0361,215.013 z"
       id="path3063-1-0"
       inkscape:connector-curvature="0"
       sodipodi:nodetypes="csccc" />
    <path
       style="fill:none;fill-rule:evenodd;stroke:none;stroke-width:1px;stroke-linecap:butt;stroke-linejoin:miter;stroke-opacity:1"
       d="m 1229.6739,2517.2391 c 52.5,-95 140.1801,-194.321 260.0423,-201.3276 69.5344,-4.0647 215.7486,1.3167 289.9577,158.8276 57.9405,122.9803 48.8135,180.5223 25.1694,276.5394"
       id="path1304"
       inkscape:connector-curvature="0"
       sodipodi:nodetypes="cssc" />
  </g>
  <g
     inkscape:groupmode="layer"
     id="layer1"
     inkscape:label="txt">
    <text
       xml:space="preserve"
       style="font-style:normal;font-variant:normal;font-weight:bold;font-stretch:normal;line-height:0%;font-family:ComicSpice;-inkscape-font-specification:'ComicSpice Bold';text-align:center;letter-spacing:0px;word-spacing:0px;text-anchor:middle;fill:#000000;fill-opacity:1;stroke:none"
       x="378.7392"
       y="960.86554"
       id="text4246-3-7-7-6-7-2-9-6-1-4"><tspan
         sodipodi:role="line"
         style="font-style:normal;font-variant:normal;font-weight:bold;font-stretch:normal;font-size:45px;line-height:1.20000005;font-family:ComicSpice;-inkscape-font-specification:'ComicSpice Bold'"
         x="378.7392"
         y="960.86554"
         id="tspan1183-0">Hả...</tspan></text>
    <text
       xml:space="preserve"
       style="font-style:normal;font-variant:normal;font-weight:normal;font-stretch:normal;line-height:0%;font-family:ComicSpice;-inkscape-font-specification:ComicSpice;text-align:center;letter-spacing:0px;word-spacing:0px;text-anchor:middle;fill:#000000;fill-opacity:1;stroke:none"
       x="1766.0575"
       y="688.46844"
       id="text4246-3-7-7-6-7-2-9-6-1"><tspan
         sodipodi:role="line"
         style="font-size:40px;line-height:1.20000005;font-family:ComicSpice;-inkscape-font-specification:ComicSpice"
         x="1766.0575"
         y="688.46844"
         id="tspan29897">Chạy trốn vào một chiều</tspan><tspan
         sodipodi:role="line"
         style="font-size:40px;line-height:1.20000005;font-family:ComicSpice;-inkscape-font-specification:ComicSpice"
         x="1766.0575"
         y="736.46844"
         id="tspan29899">không gian vi mô, khi con</tspan><tspan
         sodipodi:role="line"
         style="font-size:40px;line-height:1.20000005;font-family:ComicSpice;-inkscape-font-specification:ComicSpice"
         x="1766.0575"
         y="784.46844"
         id="tspan29907">không còn nhỏ bé nữa?</tspan></text>
    <text
       xml:space="preserve"
       style="font-style:normal;font-variant:normal;font-weight:bold;font-stretch:normal;line-height:0%;font-family:ComicSpice;-inkscape-font-specification:'ComicSpice Bold';text-align:center;letter-spacing:0px;word-spacing:0px;text-anchor:middle;fill:#000000;fill-opacity:1;stroke:none"
       x="1908.8818"
       y="874.92896"
       id="text4246-3-7-7-6-7-2-9-6-1-3"><tspan
         sodipodi:role="line"
         style="font-style:normal;font-variant:normal;font-weight:bold;font-stretch:normal;font-size:40px;line-height:1.20000005;font-family:ComicSpice;-inkscape-font-specification:'ComicSpice Bold'"
         x="1908.8818"
         y="874.92896"
         id="tspan891">Thất bại qúa tồi tệ...</tspan></text>
    <text
       xml:space="preserve"
       style="font-style:normal;font-variant:normal;font-weight:normal;font-stretch:normal;line-height:0%;font-family:ComicSpice;-inkscape-font-specification:ComicSpice;text-align:center;letter-spacing:0px;word-spacing:0px;text-anchor:middle;fill:#000000;fill-opacity:1;stroke:#000000;stroke-width:0.1;stroke-miterlimit:4;stroke-dasharray:none;stroke-opacity:1"
       x="482.26468"
       y="1182.3885"
       id="text4246-3-2-9"><tspan
         sodipodi:role="line"
         style="font-style:italic;font-variant:normal;font-weight:normal;font-stretch:normal;font-size:45px;line-height:1.25;font-family:ComicSpice;-inkscape-font-specification:ComicSpice;stroke:#000000;stroke-width:0.1;stroke-miterlimit:4;stroke-dasharray:none;stroke-opacity:1"
         x="482.26468"
         y="1182.3885"
         id="tspan4259-0">Sai!</tspan></text>
    <text
       xml:space="preserve"
       style="font-style:normal;font-variant:normal;font-weight:normal;font-stretch:normal;line-height:0%;font-family:ComicSpice;-inkscape-font-specification:ComicSpice;text-align:center;letter-spacing:0px;word-spacing:0px;text-anchor:middle;fill:#000000;fill-opacity:1;stroke:none"
       x="685.37982"
       y="1289.2474"
       id="text4246-8-34"
       transform="skewX(-4.44632)"><tspan
         sodipodi:role="line"
         style="font-style:normal;font-variant:normal;font-weight:bold;font-stretch:normal;font-size:51.40805435px;line-height:1.20000005;font-family:ComicSpice;-inkscape-font-specification:ComicSpice"
         x="685.37982"
         y="1289.2474"
         id="tspan4252-0-4">Nó là một lổ sâu!</tspan></text>
    <text
       xml:space="preserve"
       style="font-style:normal;font-variant:normal;font-weight:bold;font-stretch:normal;line-height:0%;font-family:ComicSpice;-inkscape-font-specification:'ComicSpice Bold';letter-spacing:0px;word-spacing:0px;display:inline;fill:#ffffff;fill-opacity:1;stroke:none;filter:url(#filter4375-4-1-1-1-9-5-8-86)"
       x="787.65729"
       y="1584.5073"
       id="text4580-6-0-34"
       transform="matrix(0.35442438,-0.18307708,-0.04197362,0.52947523,476.28326,769.51742)"><tspan
         sodipodi:role="line"
         id="tspan4582-1-1-03"
         x="787.65729"
         y="1584.5073"
         style="font-style:normal;font-variant:normal;font-weight:bold;font-stretch:normal;font-size:70px;line-height:1.25;font-family:ComicSpice;-inkscape-font-specification:'ComicSpice Bold';fill:#ffffff;fill-opacity:1;stroke:none"><tspan
           style="font-style:normal;font-variant:normal;font-weight:bold;font-stretch:normal;font-size:93.14950562px;font-family:ComicSpice;-inkscape-font-specification:'ComicSpice Bold';fill:#ffffff;fill-opacity:1;stroke:none"
           id="tspan4315-8-91">Phít!</tspan><tspan
           style="font-style:normal;font-variant:normal;font-weight:bold;font-stretch:normal;font-size:114.73223114px;font-family:ComicSpice;-inkscape-font-specification:'ComicSpice Bold';fill:#ffffff;fill-opacity:1;stroke:none"
           id="tspan4313-2-96">!</tspan></tspan></text>
    <text
       xml:space="preserve"
       style="font-style:normal;font-variant:normal;font-weight:bold;font-stretch:normal;line-height:0%;font-family:ComicSpice;-inkscape-font-specification:'ComicSpice Bold';text-align:center;letter-spacing:0px;word-spacing:0px;text-anchor:middle;fill:#000000;fill-opacity:1;stroke:none"
       x="853.99072"
       y="1719.2924"
       id="text4246-3-7-7-6-7-2-9-6-1-3-1"><tspan
         sodipodi:role="line"
         style="font-style:normal;font-variant:normal;font-weight:bold;font-stretch:normal;font-size:32.53683472px;line-height:1.20000005;font-family:ComicSpice;-inkscape-font-specification:'ComicSpice Bold'"
         x="853.99072"
         y="1719.2924"
         id="tspan139">Cám ơn cho</tspan><tspan
         sodipodi:role="line"
         style="font-style:normal;font-variant:normal;font-weight:bold;font-stretch:normal;font-size:32.53683472px;line-height:1.20000005;font-family:ComicSpice;-inkscape-font-specification:'ComicSpice Bold'"
         x="853.99072"
         y="1758.3365"
         id="tspan29916">đường thoát,</tspan><tspan
         sodipodi:role="line"
         style="font-style:normal;font-variant:normal;font-weight:bold;font-stretch:normal;font-size:32.53683472px;line-height:1.20000005;font-family:ComicSpice;-inkscape-font-specification:'ComicSpice Bold'"
         x="857.10461"
         y="1797.3807"
         id="tspan29918">Củ Đỏ! </tspan></text>
    <text
       xml:space="preserve"
       style="font-style:normal;font-variant:normal;font-weight:normal;font-stretch:normal;line-height:0%;font-family:ComicSpice;-inkscape-font-specification:ComicSpice;text-align:center;letter-spacing:0px;word-spacing:0px;text-anchor:middle;fill:#000000;fill-opacity:1;stroke:none"
       x="607.36902"
       y="1993.876"
       id="text4246-8-34-3"
       transform="skewX(-8.8849092)"><tspan
         sodipodi:role="line"
         style="font-style:normal;font-variant:normal;font-weight:bold;font-stretch:normal;font-size:42.3227272px;line-height:1.20000005;font-family:ComicSpice;-inkscape-font-specification:ComicSpice;fill:#000000"
         x="607.36902"
         y="1993.876"
         id="tspan4252-0-4-6">Chịu thất bại,</tspan><tspan
         sodipodi:role="line"
         style="font-style:normal;font-variant:normal;font-weight:bold;font-stretch:normal;font-size:42.3227272px;line-height:1.20000005;font-family:ComicSpice;-inkscape-font-specification:ComicSpice;fill:#000000"
         x="607.36902"
         y="2044.6632"
         id="tspan1119">sư phụ Cây Yến Nhi!</tspan></text>
    <text
       xml:space="preserve"
       style="font-style:normal;font-variant:normal;font-weight:normal;font-stretch:normal;font-size:11.19042206px;line-height:0%;font-family:Lavi;-inkscape-font-specification:Lavi;text-align:center;letter-spacing:0px;word-spacing:0px;text-anchor:middle;fill:#ffffff;fill-opacity:1;stroke:none;stroke-width:1"
       x="829.81268"
       y="2589.9919"
       id="text4180"
       transform="matrix(0.9309508,0,-0.18708319,1.0741706,0,0)"><tspan
         sodipodi:role="line"
         id="tspan4182"
         x="829.81268"
         y="2589.9919"
         style="font-style:normal;font-variant:normal;font-weight:normal;font-stretch:normal;font-size:65.56303406px;line-height:1.25;font-family:Drukah;-inkscape-font-specification:Drukah;stroke-width:1">CHUYỂN...</tspan></text>
    <text
       xml:space="preserve"
       style="font-style:normal;font-variant:normal;font-weight:normal;font-stretch:normal;font-size:9.91302967px;line-height:0%;font-family:Lavi;-inkscape-font-specification:Lavi;text-align:center;letter-spacing:0px;word-spacing:0px;text-anchor:middle;fill:#ffffff;fill-opacity:1;stroke:none;stroke-width:1"
       x="1038.2111"
       y="1962.8992"
       id="text4180-6"
       transform="matrix(0.79640938,-0.20668134,-0.00787298,1.2576788,0,0)"
       inkscape:transform-center-x="-0.022676274"
       inkscape:transform-center-y="16.252087"><tspan
         sodipodi:role="line"
         id="tspan4182-1"
         x="1038.2111"
         y="1962.8992"
         style="font-style:normal;font-variant:normal;font-weight:normal;font-stretch:normal;font-size:86.75611115px;line-height:1.25;font-family:Drukah;-inkscape-font-specification:Drukah;stroke-width:1">...VẬN ĐỘNG!</tspan><tspan
         sodipodi:role="line"
         x="1049.0555"
         y="2071.592"
         style="font-style:normal;font-variant:normal;font-weight:normal;font-stretch:normal;font-size:86.75611115px;line-height:1.25;font-family:Drukah;-inkscape-font-specification:Drukah;stroke-width:1"
         id="tspan1187"> </tspan></text>
    <text
       xml:space="preserve"
       style="color:#000000;font-style:normal;font-variant:normal;font-weight:normal;font-stretch:normal;font-size:59.04512405px;line-height:0%;font-family:ComicSpice;-inkscape-font-specification:ComicSpice;text-align:start;letter-spacing:0.01008532px;word-spacing:0px;writing-mode:lr-tb;text-anchor:start;display:inline;overflow:visible;visibility:visible;opacity:0.6;fill:#ffffff;fill-opacity:1;fill-rule:nonzero;stroke:#ffffff;stroke-width:2.65056729;stroke-linecap:butt;stroke-linejoin:miter;stroke-miterlimit:4;stroke-dasharray:none;stroke-dashoffset:0;stroke-opacity:1;marker:none;filter:url(#filter4375-4-1-1-15-1-3-0);enable-background:accumulate"
       id="text1702-6"
       x="-15"
       y="-10"
       transform="matrix(0.98154839,0,-0.00560868,1,25.472084,-13.109641)"><textPath
         xlink:href="#path1304"
         id="textPath1306"
         style="font-style:italic;font-variant:normal;font-weight:normal;font-stretch:normal;font-size:66.66666412px;font-family:ComicSpice;-inkscape-font-specification:ComicSpice;letter-spacing:8px;stroke:#ffffff;stroke-width:2.65056729;stroke-miterlimit:4;stroke-dasharray:none;stroke-opacity:1">Xoooooắắắắắnnn!!!</textPath></text>
    <text
       xml:space="preserve"
       style="font-style:normal;font-variant:normal;font-weight:normal;font-stretch:normal;line-height:0%;font-family:Lavi;-inkscape-font-specification:Lavi;letter-spacing:0px;word-spacing:0px;display:inline;fill:#637cab;fill-opacity:1;stroke:#000000;stroke-width:0.52220279;stroke-miterlimit:4;stroke-dasharray:none;stroke-opacity:1;filter:url(#filter4375-4-1-1-1-9-5-8-3-8)"
       x="787.65729"
       y="1584.5073"
       id="text4580-6-0-8-8"
       transform="matrix(0.90992457,1.0129518,-0.51490843,2.121195,1764.206,-2002.3113)"><tspan
         sodipodi:role="line"
         id="tspan4582-1-1-8-2"
         x="787.65729"
         y="1584.5073"
         style="font-style:normal;font-variant:normal;font-weight:bold;font-stretch:normal;font-size:70px;line-height:1.25;font-family:'Noto Sans';-inkscape-font-specification:'Noto Sans Bold';letter-spacing:5.87610865px;fill:#637cab;fill-opacity:1;stroke:#000000;stroke-width:0.52220279;stroke-opacity:1"><tspan
           style="font-style:normal;font-variant:normal;font-weight:bold;font-stretch:normal;font-size:93.14950562px;font-family:'Noto Sans';-inkscape-font-specification:'Noto Sans Bold';letter-spacing:5.87610865px;fill:#637cab;fill-opacity:1;stroke:#000000;stroke-width:0.52220279;stroke-opacity:1"
           id="tspan4315-8-97-3">PHHỊỊỊT!</tspan><tspan
           style="font-style:normal;font-variant:normal;font-weight:bold;font-stretch:normal;font-size:114.73223114px;font-family:'Noto Sans';-inkscape-font-specification:'Noto Sans Bold';letter-spacing:5.87610865px;fill:#637cab;fill-opacity:1;stroke:#000000;stroke-width:0.52220279;stroke-opacity:1"
           id="tspan4313-2-76-0">!!</tspan></tspan></text>
    <text
       xml:space="preserve"
       style="font-style:normal;font-variant:normal;font-weight:bold;font-stretch:normal;line-height:0%;font-family:ComicSpice;-inkscape-font-specification:'ComicSpice Bold';text-align:center;letter-spacing:0px;word-spacing:0px;text-anchor:middle;fill:#000000;fill-opacity:1;stroke:none"
       x="2824.2957"
       y="3102.0398"
       id="text4246-1-44"
       transform="matrix(0.96784554,0,-0.20410544,1.0332227,0,0)"><tspan
         sodipodi:role="line"
         style="font-style:normal;font-variant:normal;font-weight:bold;font-stretch:normal;font-size:61.03826904px;line-height:1.25;font-family:ComicSpice;-inkscape-font-specification:'ComicSpice Bold'"
         x="2824.2957"
         y="3102.0398"
         id="tspan1013-76"><tspan
           style="font-style:normal;font-variant:normal;font-weight:bold;font-stretch:normal;font-size:80.57958221px;font-family:ComicSpice;-inkscape-font-specification:'ComicSpice Bold'"
           id="tspan867-1">DỪNG LẠI!!!</tspan><tspan
           id="tspan885-1"
           style="font-style:normal;font-variant:normal;font-weight:bold;font-stretch:normal;font-size:118.74884033px;font-family:ComicSpice;-inkscape-font-specification:'ComicSpice Bold'"><tspan
             style="font-style:normal;font-variant:normal;font-weight:bold;font-stretch:normal;font-size:125.31429291px;font-family:ComicSpice;-inkscape-font-specification:'ComicSpice Bold'"
             id="tspan48-8" /></tspan></tspan></text>
  </g>
</svg>
