<?xml version="1.0" encoding="UTF-8" standalone="no"?>
<!-- Created with Inkscape (http://www.inkscape.org/) -->

<svg
   xmlns:dc="http://purl.org/dc/elements/1.1/"
   xmlns:cc="http://creativecommons.org/ns#"
   xmlns:rdf="http://www.w3.org/1999/02/22-rdf-syntax-ns#"
   xmlns:svg="http://www.w3.org/2000/svg"
   xmlns="http://www.w3.org/2000/svg"
   xmlns:xlink="http://www.w3.org/1999/xlink"
   xmlns:sodipodi="http://sodipodi.sourceforge.net/DTD/sodipodi-0.dtd"
   xmlns:inkscape="http://www.inkscape.org/namespaces/inkscape"
   id="svg2"
   version="1.1"
   inkscape:version="0.48.5 r10040"
   width="2481"
   height="3503"
   sodipodi:docname="E24P01.svg">
  <metadata
     id="metadata8">
    <rdf:RDF>
      <cc:Work
         rdf:about="">
        <dc:format>image/svg+xml</dc:format>
        <dc:type
           rdf:resource="http://purl.org/dc/dcmitype/StillImage" />
        <dc:title />
      </cc:Work>
    </rdf:RDF>
  </metadata>
  <defs
     id="defs6">
    <filter
       style="color-interpolation-filters:sRGB"
       id="filter4375-4-1-1-1-9"
       inkscape:label="deevad outline effect">
      <feFlood
         id="feFlood4377-7-9-0-8-1"
         flood-opacity="1"
         flood-color="rgb(0,0,0)"
         result="flood" />
      <feComposite
         id="feComposite4379-3-8-8-2-77"
         in2="SourceGraphic"
         in="flood"
         operator="in"
         result="composite1" />
      <feMorphology
         id="feMorphology4393-1-0-49-8-9"
         operator="dilate"
         radius="4"
         result="result3" />
      <feComposite
         id="feComposite4385-9-5-7-0-8"
         in2="result3"
         in="SourceGraphic"
         operator="over"
         result="composite2" />
    </filter>
  </defs>
  <sodipodi:namedview
     pagecolor="#ffffff"
     bordercolor="#666666"
     borderopacity="1"
     objecttolerance="10"
     gridtolerance="10"
     guidetolerance="10"
     inkscape:pageopacity="0"
     inkscape:pageshadow="2"
     inkscape:window-width="1292"
     inkscape:window-height="745"
     id="namedview4"
     showgrid="false"
     inkscape:zoom="0.38275283"
     inkscape:cx="906.9039"
     inkscape:cy="1141.08"
     inkscape:window-x="66"
     inkscape:window-y="-8"
     inkscape:window-maximized="1"
     inkscape:current-layer="layer1"
     inkscape:snap-global="false" />
  <g
     inkscape:groupmode="layer"
     id="layer2"
     inkscape:label="artwork"
     sodipodi:insensitive="true">
    <image
       sodipodi:absref="C:\Users\Gwen\Documents\Academie_du_Gallo\Traduction_BD\peppercarrot_ep24_The-Unity-Tree_lang-pack\lang\go\../gfx_Pepper-and-Carrot_by-David-Revoy_E24P01.png"
       xlink:href="../gfx_Pepper-and-Carrot_by-David-Revoy_E24P01.png"
       y="0"
       x="0"
       id="image10"
       height="3503"
       width="2481" />
  </g>
  <g
     inkscape:groupmode="layer"
     id="layer3"
     inkscape:label="speechbubbles">
    <path
       style="fill:#ffffff;fill-rule:evenodd;stroke:none"
       d="m 549.88231,433.57768 c 39.74575,11.47297 75.67312,18.606 63.45854,-28.97999 70.35253,64.60509 60.26048,20.35937 71.39085,4.82995 41.82714,45.63682 77.81601,39.13325 109.06934,-9.65992 17.66798,70.38185 54.63991,36.28136 87.25542,25.75997 -0.0804,19.79248 -8.98486,42.48807 87.25555,30.59004 -27.51765,17.87603 -37.78184,34.10404 23.79695,43.47008 -42.77542,14.37291 -66.26692,29.66677 -19.83087,48.30016 -24.66879,27.14441 -8.16933,43.27624 25.78008,54.74004 -79.48971,1.58753 -89.81227,4.22399 -77.05955,18.29288 -67.67695,-28.92556 -47.68011,-5.0477 -41.92518,17.12714 -31.49969,-12.72056 -54.78208,-42.78686 -111.05236,-3.21991 -16.73546,-13.13166 -32.16187,-29.71704 -69.40782,11.26997 -2.62743,-35.75193 -29.85883,-34.40699 -69.40779,-14.48999 -10.43127,-33.52868 -49.60094,-16.50506 -91.22165,4.83007 33.97199,-32.7247 36.43376,-60.06356 -29.74618,-75.67019 64.13391,-18.72089 52.45568,-33.82131 27.7631,-48.30005 24.39547,-13.61513 40.30159,-28.44642 -23.79694,-54.74014 37.47685,4.08771 77.38094,9.35785 37.67851,-24.15011 z"
       id="path4582"
       inkscape:connector-curvature="0"
       sodipodi:nodetypes="ccccccccccccccccccc" />
    <path
       style="color:#000000;display:inline;overflow:visible;visibility:visible;fill:#ffffff;fill-opacity:1;fill-rule:nonzero;stroke:none;stroke-width:0.99999994px;marker:none;enable-background:accumulate"
       d="m 1120.4405,700.1743 c -32.2265,-17.97546 -75.6905,-29.21797 -94.8601,-55.01638 l -18.7309,38.20697 c -21.19647,-1.31166 -26.2338,-14.07539 -36.75813,-22.95055 l -18.52445,25.72405 C 902.21848,682.47077 878.08971,666.613 844.32571,653.77368 l -19.93547,22.60875 c 41.44339,8.00317 86.22663,23.6167 121.36515,31.70826 l 22.07602,-17.34663 c 14.0695,3.48337 27.30829,7.5971 36.83679,14.52656 l 23.5694,-31.97386 z"
       id="path4032"
       inkscape:connector-curvature="0"
       sodipodi:nodetypes="cccccccccccc" />
    <path
       style="color:#000000;fill:#ffffff;fill-opacity:1;fill-rule:nonzero;stroke:none;stroke-width:1.07370353px;marker:none;visibility:visible;display:inline;overflow:visible;enable-background:accumulate"
       d="m 1331.3435,1868.2437 c 11.1083,-9.7125 59.1138,-38.1858 52.0527,-2.8925 77.1275,-40.7237 130.9267,-19.7478 186.0515,-2.279 19.1038,-12.6147 26.6393,-33.6803 75.0972,-24.8521 -3.3021,-14.2261 15.9996,-22.3319 55.4704,-24.9771 -48.2313,-12.1753 -55.197,-21.4194 40.9533,-23.3387 -71.0487,-6.4098 -137.0797,-13.3859 -45.0301,-38.2017 -26.0351,-2.7899 -95.3083,18.5023 -45.7347,-55.6693 -51.6973,20.9695 -103.4485,30.7421 -150.0377,-25.1816 -23.9955,28.4255 -55.4009,61.4305 -101.3498,-1.4307 -7.6909,62.6326 -81.1233,18.4543 -104.2692,9.955 41.7347,26.1695 36.3406,39.9988 -29.1086,37.1416 97.8946,48.921 10.6399,35.9296 -9.655,44.8395 81.6618,20.5715 38.7816,34.9547 18.9262,51.0658 98.0159,8.1989 58.431,33.428 56.6338,55.8208 z"
       id="path3549-3"
       inkscape:connector-curvature="0"
       sodipodi:nodetypes="ccccccccccccccc" />
    <path
       style="color:#000000;fill:#ffffff;fill-opacity:1;fill-rule:nonzero;stroke:none;stroke-width:1.04861128px;marker:none;visibility:visible;display:inline;overflow:visible;enable-background:accumulate"
       d="m 1275.2194,1940.1061 c 6.4374,-81.1163 106.9813,-145.5833 331.9234,-127.6882 120.4915,9.5856 272.8012,12.3651 264.768,131.2112 -8.0328,118.8457 -220.1298,117.6789 -260.6858,119.9877 -40.5562,2.3092 -261.6862,-2.5143 -298.9462,-43.4074 -23.3247,-25.5982 -37.5343,-54.9634 -37.0594,-80.1033 z"
       id="path4546-6"
       inkscape:connector-curvature="0"
       sodipodi:nodetypes="cssssc" />
    <path
       style="color:#000000;display:inline;overflow:visible;visibility:visible;fill:#ffffff;fill-opacity:1;fill-rule:nonzero;stroke:none;stroke-width:1px;marker:none;enable-background:accumulate"
       d="m 1725.1844,1861.3342 c 6.612,11.2759 86.9477,-29.2003 85.8796,-32.4046 0,0 27.5174,7.7754 31.5141,6.9248 1.9994,-6.4636 4.2729,-17.2204 4.2729,-17.2204 l 43.1705,1.271 -34.6999,8.0734 0.1804,21.2585 -36.6531,-7.0896 c -19.044,13.242 -51.208,25.1719 -50.7716,40.3619 z"
       id="path4448"
       inkscape:connector-curvature="0"
       sodipodi:nodetypes="cccccccccc" />
    <path
       style="color:#000000;fill:#ffffff;fill-opacity:1;fill-rule:nonzero;stroke:none;stroke-width:0.99999994px;marker:none;visibility:visible;display:inline;overflow:visible;enable-background:accumulate"
       d="m 31.480858,3121.4305 c 47.202647,12.4498 43.22789,57.9392 30.378547,73.6429 52.818365,-56.0975 80.472305,-34.8188 53.581835,21.5835 91.85583,-77.4205 123.80532,-21.8703 108.36613,8.2421 38.80299,-62.4086 109.38563,-66.6692 145.92663,0.7922 23.04841,-81.4626 55.22404,-51.0353 99.26173,-30.8767 -33.44662,-30.6239 -52.74027,-60.9217 37.10603,-100.1083 -48.1547,11.3478 -95.62691,-28.399 -12.84311,-60.0727 -82.07792,-1.5224 -87.84908,-45.8103 -0.69107,-66.5427 -84.65595,0.1512 -82.66266,-29.6923 -44.02781,-67.8917 -59.42332,10.6634 -74.22343,-24.4978 -18.73573,-80.7936 -92.99232,50.6475 -97.58668,19.3737 -91.37895,-45.8627 -52.46532,71.4312 -48.13608,38.1501 -58.63747,-29.5308 -11.06526,49.7571 -39.53013,86.9381 -98.31753,28.8515 9.05755,32.3375 -4.02584,68.9101 -84.330971,32.0115 42.974171,38.883 73.832021,105.5771 -51.368353,104.7092 58.416134,25.6934 82.893184,63.2251 2.767058,71.2454 32.040568,8.4507 40.436464,32.1014 38.530554,51.3522 -14.431297,6.1909 -33.601427,12.1839 -58.354589,18.0034 46.673191,17.4856 76.290061,39.9631 2.767069,71.2453 z"
       id="path3549-3-7"
       inkscape:connector-curvature="0"
       sodipodi:nodetypes="cccccccccccccccccccc" />
    <path
       style="fill:#ffffff;stroke:none;stroke-width:1"
       d="m 1312.0471,2636.6402 c 24.8572,-23.3618 23.0898,-34.098 20.1693,-46.0928 -2.9204,-11.9949 -6.7783,-22.4564 -2.996,-29.6912 3.7822,-7.2345 11.9314,-13.7504 18.5182,-17.7105 6.5867,-3.9602 0.6895,-11.8462 0.1992,-20.4782 -0.4905,-8.632 11.6694,-54.4912 11.6694,-54.4912 0,0 15.4128,29.8223 17.3984,40.7257 1.9857,10.9032 2.7616,14.8752 2.4762,19.5352 -0.2855,4.6599 -2.4809,16.1126 -8.3834,22.0982 -5.9026,5.9855 -13.8607,8.5198 -19.1677,11.9592 -5.307,3.4394 -4.2207,13.2301 -3.7625,22.963 0.4583,9.7331 -0.6146,16.9839 -10.2491,30.0137 -8.2583,11.169 -25.872,21.1689 -25.872,21.1689 z"
       id="path3023-2"
       inkscape:connector-curvature="0"
       sodipodi:nodetypes="csssscssssssc" />
    <path
       style="color:#000000;display:inline;overflow:visible;visibility:visible;fill:#ffffff;fill-opacity:1;fill-rule:nonzero;stroke:none;stroke-width:0.99999994px;marker:none;enable-background:accumulate"
       d="m 1316.0029,3034.7179 c 5.2109,-36.069 14.5234,-83.1655 -40.179,-91.5576 2.7742,1.4246 74.681,-16.1526 71.113,92.3401 -3.568,108.4926 -13.868,120.9339 -13.868,120.9339 z"
       id="path4064"
       inkscape:connector-curvature="0"
       sodipodi:nodetypes="ccscc" />
    <path
       style="color:#000000;fill:#ffffff;fill-opacity:1;fill-rule:nonzero;stroke:none;stroke-width:1.04584563px;marker:none;visibility:visible;display:inline;overflow:visible;enable-background:accumulate"
       d="m 1056.9469,3299.3514 c -1.2946,-63.6398 41.063,-102.1878 49.1844,-107.4808 73.3002,-47.7704 301.628,-30.1153 341.7047,2.8284 33.6527,26.8703 41.4189,45.2551 37.5357,69.297 -3.883,24.0417 -24.5925,87.6816 -72.4828,106.0665 -47.8903,18.3848 -159.2032,26.8702 -217.4484,12.7279 -58.2451,-14.1422 -143.6712,-28.2843 -138.4936,-83.439 z"
       id="path3517"
       inkscape:connector-curvature="0"
       sodipodi:nodetypes="cscsccc" />
    <path
       style="color:#000000;display:inline;overflow:visible;visibility:visible;fill:#ffffff;fill-opacity:1;fill-rule:nonzero;stroke:none;stroke-width:1px;marker:none;enable-background:accumulate"
       d="m 1142.427,3113.0866 c -1.2544,-33.2644 22.7778,-67.9139 35.3216,-78.5584 12.544,-10.6447 88.6634,-21.0616 117.5143,-21.0616 28.8508,0 162.2194,1.3875 183.5439,25.338 21.3245,23.9504 34.719,60.0674 20.9208,99.9848 -13.7983,39.9172 -100.3507,46.3216 -119.1665,50.3132 -18.8159,3.9918 -72.7545,6.6529 -90.3159,5.3224 -17.5614,-1.3306 -151.5813,-26.7847 -147.8182,-81.3384 z"
       id="path3357"
       inkscape:connector-curvature="0"
       inkscape:transform-center-x="-268.43153"
       inkscape:transform-center-y="-154.93877"
       sodipodi:nodetypes="ccsscccc" />
    <path
       style="fill:#ffffff;fill-rule:evenodd;stroke:none;stroke-width:0.99999988px;stroke-linecap:butt;stroke-linejoin:miter;stroke-opacity:1"
       d="m 1146.2648,2478.7083 c 8.9148,-23.8569 32.9214,-41.9579 59.049,-54.0414 12.4339,-5.8338 26.6461,-10.1089 41.1894,-8.9844 14.448,0.6719 28.5601,4.6835 43.1678,3.2901 17.7627,-0.4602 35.8372,-2.4681 53.3959,0.401 15.609,3.1306 31.6907,4.752 47.7982,4.846 11.3633,-1.9871 21.7614,3.3092 31.9096,6.4769 9.1104,3.4218 18.4159,7.0119 26.0681,12.3048 7.05,7.4302 15.4914,13.8943 22.6237,21.2583 4.6669,4.0258 4.2185,9.5866 4.0035,14.7331 -0.6061,10.5387 -1.6325,21.2437 -5.4423,31.3969 -2.2798,6.4459 -10.7065,8.5792 -17.1814,11.5412 -15.3207,6.2528 -31.5892,10.9944 -46.2109,18.3527 -14.4858,3.7677 -29.8803,2.0054 -44.7362,1.436 -12.4483,-1.1215 -24.9706,-2.6855 -37.5258,-1.3813 -15.9798,0.9544 -31.9111,3.4258 -47.9482,3.1093 -20.0899,-2.1722 -39.3306,-7.5207 -58.7995,-11.8111 -17.4671,-3.7817 -33.387,-10.8926 -48.6624,-18.4995 -8.1596,-4.3197 -16.7975,-9.3407 -19.6772,-17.3014 -2.3606,-5.4816 -2.9168,-11.3511 -3.0213,-17.1272 z"
       id="path4365"
       inkscape:connector-curvature="0" />
    <path
       style="color:#000000;fill:#ffffff;fill-opacity:1;fill-rule:nonzero;stroke:none;stroke-width:0.99999988px;marker:none;visibility:visible;display:inline;overflow:visible;enable-background:accumulate"
       d="m 2429.6987,2354.135 c -236.3739,5.664 -443.6808,-1.8619 -579.0548,-3.1385 1.0944,29.3316 -28.0047,22.3328 -55.5531,7.7184 21.9321,58.3937 -14.439,62.9492 -69.5349,35.1452 55.6098,58.2469 -0.1789,49.8371 -68.6082,12.6621 65.9834,58.0333 117.3132,112.238 -12.1597,77.0671 76.72,38.4263 110.9893,56.9179 40.7112,76.3342 68.3876,22.4893 55.6967,50.5184 -12.5947,54.5251 122.4974,34.8331 36.0945,51.3361 -13.9233,62.847 138.1906,19.0258 46.9956,43.9617 -27.8541,91.1423 86.5677,-14.4985 169.4655,-32.293 81.7807,30.3246 157.0699,-36.4889 110.1103,-6.9285 23.1526,53.6563 49.6628,-18.2784 179.8424,-47.6005 141.5428,0.214 63.3906,-30.2272 37.0162,10.9886 32.3246,35.204 8.2988,-7.9446 35.4409,-55.4847 44.3121,-23.2885 16.1714,-23.2376 29.8141,-18.7159 28.0893,14.1633 13.9481,-19.1042 46.8101,-39.4281 34.9406,0.758 20.6619,-40.21 25.7339,-7.3497 15.8444,24.8185 51.6557,-62.5107 59.1223,-65.5945 63.849,4.2952 21.5605,-39.3517 47.3853,-79.5171 89.5285,-12.348 0.055,-22.3292 7.3982,-60.1712 76.2482,8.4578 -27.7207,-70.6232 40.1898,-56.912 68.9489,10.957 -35.0983,-86.5033 10.1931,-126.4741 67.2055,-36.0341 5.6056,-118.7449 32.3212,-426.102 30.8044,-525.481 z"
       id="path4024"
       inkscape:connector-curvature="0"
       sodipodi:nodetypes="cccccccccccccccccccccccc" />
    <path
       style="fill:#ffffff;fill-rule:evenodd;stroke:none;stroke-width:0.99999994px;stroke-linecap:butt;stroke-linejoin:miter;stroke-opacity:1"
       d="m 2320.0189,2966.9466 -102.8737,31.1414 30.781,-65.8394 -54.3109,13.511 73.467,-174.0894 -83.4186,10.4305 -22.2012,199.1888 46.5569,-15.7553 -28.3923,68.2411 z"
       id="path5002"
       inkscape:connector-curvature="0"
       sodipodi:nodetypes="cccccccccc" />
    <text
       xml:space="preserve"
       style="font-style:normal;font-variant:normal;font-weight:normal;font-stretch:normal;line-height:0%;font-family:Lavi;-inkscape-font-specification:Lavi;letter-spacing:0px;word-spacing:0px;fill:#ffffff;fill-opacity:1;stroke:#000000;stroke-width:0.57625628;stroke-miterlimit:4;stroke-dasharray:none;stroke-opacity:1;filter:url(#filter4375-4-1-1-1-9)"
       x="787.65729"
       y="1584.5073"
       id="text4580"
       transform="matrix(0.47590856,-0.23101257,-0.08785973,0.61214035,2051.4196,1281.2253)"><tspan
         sodipodi:role="line"
         id="tspan4582"
         x="787.65729"
         y="1584.5073"
         style="font-size:70px;line-height:1.25;letter-spacing:5.62810278px;fill:#ffffff;stroke-width:0.57625628;stroke-miterlimit:4;stroke-dasharray:none"><tspan
           style="font-size:61.46733856px"
           id="tspan896">PAF </tspan><tspan
           style="font-size:80.40014648px;letter-spacing:5.62810278px;fill:#ffffff;stroke-width:0.57625628;stroke-miterlimit:4;stroke-dasharray:none"
           id="tspan4617">!</tspan></tspan></text>
    <path
       style="fill:#ffffff;fill-rule:evenodd;stroke:none"
       d="m 553.35311,696.71883 c 74.49087,-16.27585 64.15821,22.36823 57.24202,58.80024 52.36442,-48.23931 76.55169,-33.02861 85.86311,15.68007 46.57503,-68.84854 82.07799,-34.1986 118.88735,-11.76004 1.41748,-33.83596 23.218,-51.17542 107.87924,-17.64007 -44.58877,-48.91039 -39.69782,-79.39997 55.04042,-76.44032 -85.68376,-17.67518 -84.54343,-46.59338 -30.82265,-82.32035 -62.84782,29.75441 -103.26507,34.21471 -90.26629,-21.5601 -63.16919,55.0664 -72.28834,20.7699 -83.66147,-9.80003 -26.26518,64.011 -62.41625,45.29237 -101.27441,3.92 1.0472,39.89227 -14.13129,63.27596 -83.66143,31.36014 11.90759,28.97697 46.74259,68.94464 -35.22589,52.92023 43.91525,17.03963 59.64063,35.30347 0,56.84023 z"
       id="path907"
       inkscape:connector-curvature="0"
       sodipodi:nodetypes="ccccccccccccc" />
  </g>
  <g
     inkscape:groupmode="layer"
     id="layer1"
     inkscape:label="txt"
     style="display:inline">
    <path
       style="color:#000000;display:inline;overflow:visible;visibility:visible;fill:#ffffff;fill-opacity:1;fill-rule:nonzero;stroke:none;stroke-width:1px;marker:none;enable-background:accumulate"
       d="m 581.83722,3044.6997 c -16.45129,42.7371 -57.34368,52.6864 -79.08413,59.0603 -3.49561,-4.6209 -10.29733,-21.207 -10.29733,-21.207 0,0 -51.12826,31.5026 -68.86582,33.4378 -17.73755,1.9353 -19.57138,-14.8728 -19.57138,-14.8728 0,0 80.29422,-31.7712 95.58278,-42.4436 8.90084,13.0355 11.06276,18.6403 15.92522,23.5722 13.47897,-4.7946 53.36319,-19.1261 66.31066,-37.5469 z"
       id="path4456"
       inkscape:connector-curvature="0"
       sodipodi:nodetypes="cccscccc" />
    <text
       xml:space="preserve"
       style="font-style:normal;font-variant:normal;font-weight:normal;font-stretch:normal;text-align:center;line-height:0%;letter-spacing:0px;word-spacing:0px;text-anchor:middle;fill:#000000;fill-opacity:1;stroke:none;font-family:Lavi;-inkscape-font-specification:Lavi"
       x="744.51819"
       y="506.52133"
       id="text4246"
       sodipodi:linespacing="0%"><tspan
         sodipodi:role="line"
         style="font-size:45px;line-height:1.25"
         x="752.42834"
         y="506.52133"
         id="tspan974">Un Arbr a </tspan><tspan
         sodipodi:role="line"
         style="font-size:45px;line-height:1.25"
         x="744.51819"
         y="562.7713"
         id="tspan3204">s’entr assenter ?</tspan></text>
    <text
       xml:space="preserve"
       style="font-style:normal;font-variant:normal;font-weight:normal;font-stretch:normal;text-align:center;line-height:0%;letter-spacing:0px;word-spacing:0px;text-anchor:middle;fill:#000000;fill-opacity:1;stroke:none;font-family:Lavi;-inkscape-font-specification:Lavi"
       x="1570.701"
       y="1896.5959"
       id="text4246-7"
       sodipodi:linespacing="0%"><tspan
         sodipodi:role="line"
         style="font-size:45px;line-height:1.25"
         x="1578.6112"
         y="1896.5959"
         id="tspan3215">Je som dez sorcieres </tspan><tspan
         sodipodi:role="line"
         style="font-size:45px;line-height:1.25"
         x="1578.6112"
         y="1952.8459"
         id="tspan3219">de Qenenmeyle; Je menom </tspan><tspan
         sodipodi:role="line"
         style="font-size:45px;line-height:1.25"
         x="1570.701"
         y="2009.0959"
         id="tspan3221">pas dez jeus de memme.</tspan></text>
    <text
       xml:space="preserve"
       style="font-style:normal;font-variant:normal;font-weight:normal;font-stretch:normal;text-align:center;line-height:0%;letter-spacing:0px;word-spacing:0px;text-anchor:middle;fill:#000000;fill-opacity:1;stroke:none;font-family:Lavi;-inkscape-font-specification:Lavi"
       x="257.39804"
       y="2897.4121"
       id="text4246-7-6"
       sodipodi:linespacing="0%"><tspan
         sodipodi:role="line"
         style="font-size:45px;line-height:1.25"
         x="265.3082"
         y="2897.4121"
         id="tspan916">T’araes </tspan><tspan
         sodipodi:role="line"
         style="font-size:45px;line-height:1.25"
         x="265.3082"
         y="2953.6621"
         id="tspan3243">meilhour temp </tspan><tspan
         sodipodi:role="line"
         style="font-size:45px;line-height:1.25"
         x="265.3082"
         y="3009.9121"
         id="tspan3241">a ben aprendr </tspan><tspan
         sodipodi:role="line"
         style="font-size:45px;line-height:1.25"
         x="265.3082"
         y="3066.1621"
         id="tspan3239">tez « Faeynances </tspan><tspan
         sodipodi:role="line"
         style="font-size:45px;line-height:1.25"
         x="257.39804"
         y="3122.4121"
         id="tspan3237">de Hacheriy » !</tspan></text>
    <text
       xml:space="preserve"
       style="font-style:normal;font-variant:normal;font-weight:normal;font-stretch:normal;text-align:center;line-height:0%;letter-spacing:0px;word-spacing:0px;text-anchor:middle;fill:#000000;fill-opacity:1;stroke:none;font-family:Lavi;-inkscape-font-specification:Lavi"
       x="1309.3973"
       y="2493.7979"
       id="text4246-7-6-2"
       sodipodi:linespacing="0%"><tspan
         sodipodi:role="line"
         style="font-size:45px;line-height:1.25"
         x="1309.3973"
         y="2493.7979"
         id="tspan1069-6">de Hacheriy ?</tspan></text>
    <text
       xml:space="preserve"
       style="font-style:normal;font-variant:normal;font-weight:normal;font-stretch:normal;text-align:center;line-height:0%;letter-spacing:0px;word-spacing:0px;text-anchor:middle;fill:#000000;fill-opacity:1;stroke:none;font-family:Lavi;-inkscape-font-specification:Lavi"
       x="1323.0408"
       y="3108.6672"
       id="text4246-7-6-2-0"
       sodipodi:linespacing="0%"><tspan
         sodipodi:role="line"
         style="font-size:45px;line-height:1.25"
         x="1323.0408"
         y="3108.6672"
         id="tspan949">A la saezon-ci ?</tspan></text>
    <text
       xml:space="preserve"
       style="font-style:normal;font-variant:normal;font-weight:normal;font-stretch:normal;text-align:center;line-height:0%;letter-spacing:0px;word-spacing:0px;text-anchor:middle;fill:#000000;fill-opacity:1;stroke:none;font-family:Lavi;-inkscape-font-specification:Lavi"
       x="1278.27"
       y="3235.5964"
       id="text4246-7-6-2-0-5"
       sodipodi:linespacing="0%"><tspan
         sodipodi:role="line"
         style="font-size:45px;line-height:1.25"
         x="1286.1802"
         y="3235.5964"
         id="tspan3254">Pourqhi pas dez </tspan><tspan
         sodipodi:role="line"
         style="font-size:45px;line-height:1.25"
         x="1286.1802"
         y="3291.8464"
         id="tspan3260">sorts a concrayer, </tspan><tspan
         sodipodi:role="line"
         style="font-size:45px;line-height:1.25"
         x="1278.27"
         y="3348.0964"
         id="tspan3262">pour chanjer ?</tspan></text>
    <text
       xml:space="preserve"
       style="font-style:normal;font-variant:normal;font-weight:normal;font-stretch:normal;text-align:center;line-height:0%;letter-spacing:0px;word-spacing:0px;text-anchor:middle;fill:#000000;fill-opacity:1;stroke:none;font-family:Lavi;-inkscape-font-specification:Lavi"
       x="2089.9304"
       y="2459.3547"
       id="text4246-7-6-2-04"
       sodipodi:linespacing="0%"><tspan
         sodipodi:role="line"
         style="font-size:45px;line-height:1.25;stroke:none"
         x="2097.8406"
         y="2459.3547"
         id="tspan1043">Le perchaen consaelh </tspan><tspan
         sodipodi:role="line"
         style="font-size:45px;line-height:1.25;stroke:none"
         x="2097.8406"
         y="2515.6047"
         id="tspan3282">dez Treiz Lûnes q’aperche, </tspan><tspan
         sodipodi:role="line"
         style="font-size:45px;line-height:1.25;stroke:none"
         x="2097.8406"
         y="2571.8547"
         id="tspan3284">tez eczamens etou. </tspan><tspan
         sodipodi:role="line"
         style="font-size:45px;line-height:1.25;stroke:#000000;stroke-width:1.60000002;stroke-miterlimit:4;stroke-opacity:1;stroke-dasharray:none"
         x="2097.8406"
         y="2628.1047"
         id="tspan1052"><tspan
   id="tspan3305"
   style="font-size:45px;line-height:1.25;stroke:none">Etudie ! Aprend ben ! </tspan>A l'ouvraije !!  </tspan><tspan
         sodipodi:role="line"
         style="font-size:45px;line-height:1.25;stroke:#000000;stroke-width:1.60000002;stroke-miterlimit:4;stroke-opacity:1;stroke-dasharray:none"
         x="2097.8406"
         y="2684.3547"
         id="tspan3308">E DECESSE DE TE DÉTOURBER </tspan><tspan
         sodipodi:role="line"
         style="font-size:45px;line-height:1.25;stroke:#000000;stroke-width:1.60000002;stroke-miterlimit:4;stroke-opacity:1;stroke-dasharray:none"
         x="2097.8406"
         y="2740.6047"
         id="tspan3310">OD TEZ DROLES </tspan><tspan
         sodipodi:role="line"
         style="font-size:45px;line-height:1.25;stroke:#000000;stroke-width:1.60000002;stroke-miterlimit:4;stroke-opacity:1;stroke-dasharray:none"
         x="2089.9304"
         y="2796.8547"
         id="tspan3318">DE RUBRIQES !!!</tspan></text>
    <flowRoot
       xml:space="preserve"
       id="flowRoot862"
       style="font-style:normal;font-variant:normal;font-weight:normal;font-stretch:normal;font-size:0.66666669px;line-height:318.00000668%;font-family:Neuropolitical;-inkscape-font-specification:Neuropolitical;text-align:center;letter-spacing:0px;word-spacing:0px;writing-mode:lr-tb;text-anchor:middle;fill:#000000;fill-opacity:1;stroke:none;stroke-width:1px;stroke-linecap:butt;stroke-linejoin:miter;stroke-opacity:1"><flowRegion
         id="flowRegion864"><rect
           id="rect866"
           width="103.5"
           height="5.75"
           x="1181.625"
           y="3275.875" /></flowRegion><flowPara
         id="flowPara868" /></flowRoot>    <text
       xml:space="preserve"
       style="font-size:14.71681118px;font-style:normal;font-variant:normal;font-weight:normal;font-stretch:normal;text-align:center;line-height:0%;letter-spacing:0px;word-spacing:0px;text-anchor:middle;fill:#000000;fill-opacity:1;stroke:none;font-family:Lavi;-inkscape-font-specification:Lavi"
       x="867.80847"
       y="682.29504"
       id="text4246-36"
       transform="matrix(1,0,-0.17625694,1,0,0)"
       sodipodi:linespacing="0%"><tspan
         sodipodi:role="line"
         style="font-size:55.18804169px;line-height:1.25"
         x="867.80847"
         y="682.29504"
         id="tspan837-3">Cez nouz ?!</tspan></text>
    <text
       xml:space="preserve"
       style="font-size:19.04891968px;font-style:normal;font-variant:normal;font-weight:normal;font-stretch:normal;text-align:center;line-height:0%;letter-spacing:0px;word-spacing:0px;text-anchor:middle;fill:#000000;fill-opacity:1;stroke:none;font-family:Lavi;-inkscape-font-specification:Lavi"
       x="1721.4999"
       y="1826.5649"
       id="text4246-3"
       transform="matrix(1.0148714,0,-0.1559129,0.98534652,0,0)"
       sodipodi:linespacing="0%"><tspan
         sodipodi:role="line"
         style="font-size:71.43344879px;line-height:1.25;stroke:#000000;stroke-width:1.99999988;stroke-miterlimit:4;stroke-opacity:1;stroke-dasharray:none"
         x="1721.4999"
         y="1826.5649"
         id="tspan4252-6">NOUNA !</tspan></text>
    <flowRoot
       xml:space="preserve"
       id="flowRoot880"
       style="fill:black;stroke:none;stroke-opacity:1;stroke-width:1px;stroke-linejoin:miter;stroke-linecap:butt;fill-opacity:1;font-family:Sans;font-style:normal;font-weight:normal;font-size:18px;-inkscape-font-specification:Sans;font-stretch:normal;font-variant:normal;line-height:125%;letter-spacing:0px;word-spacing:0px"><flowRegion
         id="flowRegion882"><rect
           id="rect884"
           width="221.26053"
           height="237.06485"
           x="161.99431"
           y="2888.6069" /></flowRegion><flowPara
         id="flowPara886" /></flowRoot>    <flowRoot
       xml:space="preserve"
       id="flowRoot918"
       style="fill:black;stroke:none;stroke-opacity:1;stroke-width:1px;stroke-linejoin:miter;stroke-linecap:butt;fill-opacity:1;font-family:Sans;font-style:normal;font-weight:normal;font-size:18px;-inkscape-font-specification:Sans;font-stretch:normal;font-variant:normal;line-height:125%;letter-spacing:0px;word-spacing:0px"><flowRegion
         id="flowRegion920"><rect
           id="rect922"
           width="3.9510808"
           height="39.510807"
           x="256.82025"
           y="2878.7292" /></flowRegion><flowPara
         id="flowPara924" /></flowRoot>    <flowRoot
       xml:space="preserve"
       id="flowRoot926"
       style="fill:black;stroke:none;stroke-opacity:1;stroke-width:1px;stroke-linejoin:miter;stroke-linecap:butt;fill-opacity:1;font-family:Sans;font-style:normal;font-weight:normal;font-size:18px;-inkscape-font-specification:Sans;font-stretch:normal;font-variant:normal;line-height:125%;letter-spacing:0px;word-spacing:0px"><flowRegion
         id="flowRegion928"><rect
           id="rect930"
           width="1.9755404"
           height="35.559727"
           x="254.84471"
           y="2880.7048" /></flowRegion><flowPara
         id="flowPara932" /></flowRoot>  </g>
</svg>
