<?xml version="1.0" encoding="UTF-8" standalone="no"?>
<!-- Created with Inkscape (http://www.inkscape.org/) -->

<svg
   xmlns:dc="http://purl.org/dc/elements/1.1/"
   xmlns:cc="http://creativecommons.org/ns#"
   xmlns:rdf="http://www.w3.org/1999/02/22-rdf-syntax-ns#"
   xmlns:svg="http://www.w3.org/2000/svg"
   xmlns="http://www.w3.org/2000/svg"
   xmlns:xlink="http://www.w3.org/1999/xlink"
   xmlns:sodipodi="http://sodipodi.sourceforge.net/DTD/sodipodi-0.dtd"
   xmlns:inkscape="http://www.inkscape.org/namespaces/inkscape"
   id="svg2"
   version="1.1"
   inkscape:version="0.92.3 (2405546, 2018-03-11)"
   width="2481"
   height="3503"
   sodipodi:docname="E23P06.svg">
  <metadata
     id="metadata8">
    <rdf:RDF>
      <cc:Work
         rdf:about="">
        <dc:format>image/svg+xml</dc:format>
        <dc:type
           rdf:resource="http://purl.org/dc/dcmitype/StillImage" />
        <dc:title />
      </cc:Work>
    </rdf:RDF>
  </metadata>
  <defs
     id="defs6" />
  <sodipodi:namedview
     pagecolor="#ffffff"
     bordercolor="#666666"
     borderopacity="1"
     objecttolerance="10"
     gridtolerance="10"
     guidetolerance="10"
     inkscape:pageopacity="0"
     inkscape:pageshadow="2"
     inkscape:window-width="1856"
     inkscape:window-height="1151"
     id="namedview4"
     showgrid="false"
     inkscape:zoom="0.34980127"
     inkscape:cx="1881.5953"
     inkscape:cy="1490.8989"
     inkscape:window-x="64"
     inkscape:window-y="0"
     inkscape:window-maximized="1"
     inkscape:current-layer="layer1"
     inkscape:document-rotation="0" />
  <g
     inkscape:groupmode="layer"
     id="layer2"
     inkscape:label="artwork"
     sodipodi:insensitive="true"
     style="display:inline">
    <image
       sodipodi:absref="/home/fici/Desktop/P&amp;C/all/sl/../gfx_Pepper-and-Carrot_by-David-Revoy_E23P06.png"
       xlink:href="../gfx_Pepper-and-Carrot_by-David-Revoy_E23P06.png"
       y="0"
       x="0"
       id="image10"
       height="3503"
       width="2481" />
  </g>
  <g
     inkscape:groupmode="layer"
     id="layer3"
     inkscape:label="speechbubbles"
     style="display:inline">
    <path
       style="fill:#ffffff;fill-rule:evenodd;stroke:none;stroke-width:0.83339739px;stroke-linecap:butt;stroke-linejoin:miter;stroke-opacity:1"
       d="m 196.1079,2076.7143 c 4.73481,-55.7907 29.59253,-90.822 54.45027,-94.7144 24.85771,-3.8923 267.51648,0 291.19051,9.0822 23.67404,9.0821 58.00139,46.7084 56.81767,75.2525 -1.1837,28.544 3.28883,71.4938 -33.14364,105.094 -25.89755,23.8841 -175.1878,18.1644 -200.04552,18.1644 -24.85774,0 -93.36138,12.624 -132.57455,-19.4618 -39.57504,-32.382 -36.69474,-93.4169 -36.69474,-93.4169 z"
       id="path4272"
       inkscape:connector-curvature="0"
       sodipodi:nodetypes="cssssssc" />
    <path
       style="fill:#ffffff;fill-rule:evenodd;stroke:none;stroke-width:0.92984933px;stroke-linecap:butt;stroke-linejoin:miter;stroke-opacity:1"
       d="m 1329.5228,2083.5281 c -4.6951,59.1405 -40.4666,93.7948 -69.1121,98.4202 -28.6453,4.6254 -316.41512,8.3713 -343.87338,-0.7587 -27.45816,-9.1299 -82.72355,-49.7147 -81.75156,-79.9475 0.97209,-30.2327 1.51148,-74.1332 43.10971,-110.4343 29.56961,-25.8042 210.82623,-22.7895 239.52533,-23.2956 28.6994,-0.506 125.2467,-0.6306 170.9635,32.5284 46.1387,33.4647 41.1385,83.4875 41.1385,83.4875 z"
       id="path4272-6"
       inkscape:connector-curvature="0"
       sodipodi:nodetypes="cssssssc" />
    <path
       style="fill:#ffffff;fill-rule:evenodd;stroke:none;stroke-width:1px;stroke-linecap:butt;stroke-linejoin:miter;stroke-opacity:1"
       d="m 1174.8502,2374.625 c 53.2945,-58.4181 71.3886,-137.4736 64.8491,-196.709 -6.4438,-58.3689 -35.667,-20.5356 -35.667,-20.5356 0,0 -7.6853,2.1941 0,30.2629 7.8496,28.6688 31.1185,75.2067 -29.1821,186.9817 z"
       id="path4289"
       inkscape:connector-curvature="0"
       sodipodi:nodetypes="cscsc" />
    <path
       style="fill:#ffffff;fill-rule:evenodd;stroke:none;stroke-width:0.78178996px;stroke-linecap:butt;stroke-linejoin:miter;stroke-opacity:1"
       d="m 1965.9046,2004.8684 c 16.135,-29.279 46.5622,-48.6957 78.867,-57.4444 32.3012,-9.1537 66.3859,-9.847 99.7099,-7.581 50.4898,-1.8131 102.3799,-6.1413 151.5229,8.1251 21.7518,6.5991 43.0109,16.8841 59.1881,32.7493 21.5902,24.8676 29.6023,60.3794 21.2003,91.849 -5.3214,20.5425 -21.2818,38.6597 -42.5384,44.4971 -41.04,10.8152 -83.4657,15.9461 -125.912,17.3468 -37.0725,1.2569 -74.1994,0.8663 -111.2702,0.063 -32.8811,-2.473 -67.2111,-6.1288 -96.1055,-22.8856 -18.5745,-10.5807 -32.0392,-29.1713 -35.2972,-49.9709 -4.4008,-18.6174 -3.8996,-38.204 0.6351,-56.7484 z"
       id="path4291"
       inkscape:connector-curvature="0" />
    <path
       style="fill:#ffffff;fill-rule:evenodd;stroke:none;stroke-width:1px;stroke-linecap:butt;stroke-linejoin:miter;stroke-opacity:1"
       d="m 2052.243,2313.6306 c 82.8984,-66.34 106.5261,-143.449 95.9101,-183.1463 -10.6161,-39.6974 -33.8005,-47.6631 -32.4753,-16.2222 1.3251,31.441 37.5831,84.9459 -63.4348,199.3685 z"
       id="path4293"
       inkscape:connector-curvature="0" />
  </g>
  <g
     inkscape:groupmode="layer"
     id="layer1"
     inkscape:label="txt"
     style="display:inline">
    <text
       xml:space="preserve"
       style="font-style:normal;font-variant:normal;font-weight:normal;font-stretch:normal;line-height:0%;font-family:Lavi;-inkscape-font-specification:Lavi;text-align:center;letter-spacing:0px;word-spacing:0px;text-anchor:middle;fill:#000000;fill-opacity:1;stroke:#000000;stroke-width:0.41015574;stroke-miterlimit:4;stroke-dasharray:none;stroke-opacity:1"
       x="1952.7708"
       y="1485.6932"
       id="text4246-8"
       transform="matrix(0.76133526,-0.51280204,0.4098681,1.0374126,0,0)"><tspan
         sodipodi:role="line"
         style="font-size:41.48361969px;line-height:1.25;fill:#000000;stroke:#000000;stroke-width:0.41015574;stroke-miterlimit:4;stroke-dasharray:none;stroke-opacity:1"
         x="1952.7708"
         y="1485.6932"
         id="tspan4150-8">Čiiv!</tspan></text>
    <text
       xml:space="preserve"
       style="font-style:normal;font-variant:normal;font-weight:normal;font-stretch:normal;line-height:0%;font-family:Lavi;-inkscape-font-specification:Lavi;text-align:center;letter-spacing:0px;word-spacing:0px;text-anchor:middle;fill:#000000;fill-opacity:1;stroke:#000000;stroke-width:0.41015574;stroke-miterlimit:4;stroke-dasharray:none;stroke-opacity:1"
       x="2095.8384"
       y="1367.7908"
       id="text4246-8-3"
       transform="matrix(0.8070703,-0.42305912,0.27884184,1.092883,0,0)"><tspan
         sodipodi:role="line"
         style="font-size:38.3127861px;line-height:1.25;fill:#000000;stroke:#000000;stroke-width:0.41015574;stroke-miterlimit:4;stroke-dasharray:none;stroke-opacity:1"
         x="2095.8384"
         y="1367.7908"
         id="tspan4150-8-6">Kuu!</tspan></text>
    <text
       xml:space="preserve"
       style="font-style:normal;font-variant:normal;font-weight:normal;font-stretch:normal;line-height:0%;font-family:Lavi;-inkscape-font-specification:Lavi;text-align:center;letter-spacing:0px;word-spacing:0px;text-anchor:middle;fill:#000000;fill-opacity:1;stroke:#000000;stroke-width:0.41015574;stroke-miterlimit:4;stroke-dasharray:none;stroke-opacity:1"
       x="2131.8132"
       y="1413.1631"
       id="text4246-8-3-7"
       transform="matrix(0.8070703,-0.42305912,0.27884184,1.092883,0,0)"><tspan
         sodipodi:role="line"
         style="font-size:38.3127861px;line-height:1.25;fill:#000000;stroke:#000000;stroke-width:0.41015574;stroke-miterlimit:4;stroke-dasharray:none;stroke-opacity:1"
         x="2131.8132"
         y="1413.1631"
         id="tspan4150-8-6-5">Kuuu!</tspan></text>
    <text
       xml:space="preserve"
       style="font-style:normal;font-variant:normal;font-weight:normal;font-stretch:normal;line-height:0%;font-family:Lavi;-inkscape-font-specification:Lavi;text-align:center;letter-spacing:0px;word-spacing:0px;text-anchor:middle;fill:#000000;fill-opacity:1;stroke:#000000;stroke-width:0.41015574;stroke-miterlimit:4;stroke-dasharray:none;stroke-opacity:1"
       x="1868.1534"
       y="1659.7085"
       id="text4246-8-3-3"
       transform="matrix(0.73266151,-0.54180126,0.44311163,1.0372069,0,0)"><tspan
         sodipodi:role="line"
         style="font-size:38.3127861px;line-height:1.25;fill:#000000;stroke:#000000;stroke-width:0.41015574;stroke-miterlimit:4;stroke-dasharray:none;stroke-opacity:1"
         x="1868.1534"
         y="1659.7085"
         id="tspan4150-8-6-56">Čiiv!</tspan></text>
    <text
       xml:space="preserve"
       style="font-style:normal;font-variant:normal;font-weight:normal;font-stretch:normal;line-height:0%;font-family:Lavi;-inkscape-font-specification:Lavi;text-align:center;letter-spacing:0px;word-spacing:0px;text-anchor:middle;fill:#000000;fill-opacity:1;stroke:none"
       x="402.75455"
       y="2039.0616"
       id="text4246"><tspan
         sodipodi:role="line"
         style="font-size:45px;line-height:1.25"
         x="402.75455"
         y="2039.0616"
         id="tspan4169">Vidiš korenček,</tspan><tspan
         sodipodi:role="line"
         style="font-size:45px;line-height:1.25"
         x="402.75455"
         y="2095.3115"
         id="tspan47">to mislim da</tspan><tspan
         sodipodi:role="line"
         style="font-size:45px;line-height:1.25"
         x="402.75455"
         y="2151.5615"
         id="tspan37">pomeni odrasti.</tspan></text>
    <text
       xml:space="preserve"
       style="font-style:normal;font-variant:normal;font-weight:normal;font-stretch:normal;line-height:0%;font-family:Lavi;-inkscape-font-specification:Lavi;text-align:center;letter-spacing:0px;word-spacing:0px;text-anchor:middle;fill:#000000;fill-opacity:1;stroke:none"
       x="1083.2485"
       y="2040.931"
       id="text4246-2"><tspan
         sodipodi:role="line"
         style="font-size:45px;line-height:1.25"
         x="1083.2485"
         y="2040.931"
         id="tspan41">Ne hodi po bližnjicah,</tspan><tspan
         sodipodi:role="line"
         style="font-size:45px;line-height:1.25"
         x="1083.2485"
         y="2097.1812"
         id="tspan48">uživaj v sadovih</tspan><tspan
         sodipodi:role="line"
         style="font-size:45px;line-height:1.25"
         x="1083.2485"
         y="2153.4312"
         id="tspan50">lastnega truda…</tspan></text>
    <text
       xml:space="preserve"
       style="font-style:normal;font-variant:normal;font-weight:normal;font-stretch:normal;line-height:0%;font-family:Lavi;-inkscape-font-specification:Lavi;text-align:center;letter-spacing:0px;word-spacing:0px;text-anchor:middle;fill:#000000;fill-opacity:1;stroke:none"
       x="2167.0212"
       y="1988.2179"
       id="text4246-2-7"><tspan
         sodipodi:role="line"
         style="font-size:45px;line-height:1.25"
         x="2167.0212"
         y="1988.2179"
         id="tspan4270">…nima smisla</tspan><tspan
         sodipodi:role="line"
         style="font-size:45px;line-height:1.25"
         x="2167.0212"
         y="2044.4679"
         id="tspan67">biti nevoščljiv nad</tspan><tspan
         sodipodi:role="line"
         style="font-size:45px;line-height:1.25"
         x="2167.0212"
         y="2100.7178"
         id="tspan58">uspehom drugih!</tspan></text>
  </g>
</svg>
