<?xml version="1.0" encoding="UTF-8" standalone="no"?>
<!-- Created with Inkscape (http://www.inkscape.org/) -->

<svg
   xmlns:dc="http://purl.org/dc/elements/1.1/"
   xmlns:cc="http://creativecommons.org/ns#"
   xmlns:rdf="http://www.w3.org/1999/02/22-rdf-syntax-ns#"
   xmlns:svg="http://www.w3.org/2000/svg"
   xmlns="http://www.w3.org/2000/svg"
   xmlns:xlink="http://www.w3.org/1999/xlink"
   xmlns:sodipodi="http://sodipodi.sourceforge.net/DTD/sodipodi-0.dtd"
   xmlns:inkscape="http://www.inkscape.org/namespaces/inkscape"
   id="svg2"
   version="1.1"
   inkscape:version="0.92.4 5da689c313, 2019-01-14"
   width="2481"
   height="3503"
   sodipodi:docname="E24P04.svg">
  <metadata
     id="metadata8">
    <rdf:RDF>
      <cc:Work
         rdf:about="">
        <dc:format>image/svg+xml</dc:format>
        <dc:type
           rdf:resource="http://purl.org/dc/dcmitype/StillImage" />
        <dc:title />
      </cc:Work>
    </rdf:RDF>
  </metadata>
  <defs
     id="defs6">
    <filter
       style="color-interpolation-filters:sRGB"
       id="filter4375-4-1-1-1-9-5-8"
       inkscape:label="Drop Shadow">
      <feFlood
         id="feFlood4377-7-9-0-8-1-7-3"
         flood-opacity="1"
         flood-color="rgb(200,55,55)"
         result="flood" />
      <feComposite
         id="feComposite4379-3-8-8-2-77-4-1"
         in2="SourceGraphic"
         in="flood"
         operator="in"
         result="composite1" />
      <feMorphology
         id="feMorphology4393-1-0-49-8-9-3-0"
         operator="dilate"
         radius="6.2000000000000002"
         result="result3" />
      <feComposite
         id="feComposite4385-9-5-7-0-8-8-7"
         in2="result3"
         in="SourceGraphic"
         operator="over"
         result="fbSourceGraphic" />
      <feColorMatrix
         result="fbSourceGraphicAlpha"
         in="fbSourceGraphic"
         values="0 0 0 -1 0 0 0 0 -1 0 0 0 0 -1 0 0 0 0 1 0"
         id="feColorMatrix4544" />
      <feTurbulence
         id="feTurbulence4546"
         type="fractalNoise"
         numOctaves="3"
         seed="37"
         baseFrequency="0.129 0.0050000000000000001"
         result="turbulence" />
      <feDisplacementMap
         id="feDisplacementMap4548"
         in2="turbulence"
         in="fbSourceGraphic"
         scale="6.6"
         yChannelSelector="G"
         xChannelSelector="R"
         result="fbSourceGraphic" />
      <feColorMatrix
         result="fbSourceGraphicAlpha"
         in="fbSourceGraphic"
         values="0 0 0 -1 0 0 0 0 -1 0 0 0 0 -1 0 0 0 0 1 0"
         id="feColorMatrix4670" />
      <feFlood
         id="feFlood4672"
         flood-opacity="1"
         flood-color="rgb(80,22,22)"
         result="flood"
         in="fbSourceGraphic" />
      <feComposite
         id="feComposite4674"
         in2="fbSourceGraphic"
         in="flood"
         operator="in"
         result="composite1" />
      <feGaussianBlur
         id="feGaussianBlur4676"
         in="composite1"
         stdDeviation="0"
         result="blur" />
      <feOffset
         id="feOffset4678"
         dx="6"
         dy="6"
         result="offset" />
      <feComposite
         id="feComposite4680"
         in2="offset"
         in="fbSourceGraphic"
         operator="over"
         result="composite2" />
    </filter>
    <filter
       style="color-interpolation-filters:sRGB"
       id="filter4375-4-1-1-1-9-5-8-0"
       inkscape:label="Drop Shadow">
      <feFlood
         id="feFlood4377-7-9-0-8-1-7-3-9"
         flood-opacity="1"
         flood-color="rgb(200,55,55)"
         result="flood" />
      <feComposite
         id="feComposite4379-3-8-8-2-77-4-1-3"
         in2="SourceGraphic"
         in="flood"
         operator="in"
         result="composite1" />
      <feMorphology
         id="feMorphology4393-1-0-49-8-9-3-0-6"
         operator="dilate"
         radius="6.2000000000000002"
         result="result3" />
      <feComposite
         id="feComposite4385-9-5-7-0-8-8-7-0"
         in2="result3"
         in="SourceGraphic"
         operator="over"
         result="fbSourceGraphic" />
      <feColorMatrix
         result="fbSourceGraphicAlpha"
         in="fbSourceGraphic"
         values="0 0 0 -1 0 0 0 0 -1 0 0 0 0 -1 0 0 0 0 1 0"
         id="feColorMatrix4544-6" />
      <feTurbulence
         id="feTurbulence4546-2"
         type="fractalNoise"
         numOctaves="3"
         seed="37"
         baseFrequency="0.129 0.0050000000000000001"
         result="turbulence" />
      <feDisplacementMap
         id="feDisplacementMap4548-6"
         in2="turbulence"
         in="fbSourceGraphic"
         scale="6.6"
         yChannelSelector="G"
         xChannelSelector="R"
         result="fbSourceGraphic" />
      <feColorMatrix
         result="fbSourceGraphicAlpha"
         in="fbSourceGraphic"
         values="0 0 0 -1 0 0 0 0 -1 0 0 0 0 -1 0 0 0 0 1 0"
         id="feColorMatrix4670-1" />
      <feFlood
         id="feFlood4672-8"
         flood-opacity="1"
         flood-color="rgb(80,22,22)"
         result="flood"
         in="fbSourceGraphic" />
      <feComposite
         id="feComposite4674-7"
         in2="fbSourceGraphic"
         in="flood"
         operator="in"
         result="composite1" />
      <feGaussianBlur
         id="feGaussianBlur4676-9"
         in="composite1"
         stdDeviation="0"
         result="blur" />
      <feOffset
         id="feOffset4678-2"
         dx="6"
         dy="6"
         result="offset" />
      <feComposite
         id="feComposite4680-0"
         in2="offset"
         in="fbSourceGraphic"
         operator="over"
         result="composite2" />
    </filter>
    <filter
       style="color-interpolation-filters:sRGB"
       id="filter4375-4-1-1-1-9-5-8-0-9"
       inkscape:label="Drop Shadow">
      <feFlood
         id="feFlood4377-7-9-0-8-1-7-3-9-2"
         flood-opacity="1"
         flood-color="rgb(200,55,55)"
         result="flood" />
      <feComposite
         id="feComposite4379-3-8-8-2-77-4-1-3-2"
         in2="SourceGraphic"
         in="flood"
         operator="in"
         result="composite1" />
      <feMorphology
         id="feMorphology4393-1-0-49-8-9-3-0-6-8"
         operator="dilate"
         radius="6.2000000000000002"
         result="result3" />
      <feComposite
         id="feComposite4385-9-5-7-0-8-8-7-0-9"
         in2="result3"
         in="SourceGraphic"
         operator="over"
         result="fbSourceGraphic" />
      <feColorMatrix
         result="fbSourceGraphicAlpha"
         in="fbSourceGraphic"
         values="0 0 0 -1 0 0 0 0 -1 0 0 0 0 -1 0 0 0 0 1 0"
         id="feColorMatrix4544-6-7" />
      <feTurbulence
         id="feTurbulence4546-2-3"
         type="fractalNoise"
         numOctaves="3"
         seed="37"
         baseFrequency="0.129 0.0050000000000000001"
         result="turbulence" />
      <feDisplacementMap
         id="feDisplacementMap4548-6-6"
         in2="turbulence"
         in="fbSourceGraphic"
         scale="6.6"
         yChannelSelector="G"
         xChannelSelector="R"
         result="fbSourceGraphic" />
      <feColorMatrix
         result="fbSourceGraphicAlpha"
         in="fbSourceGraphic"
         values="0 0 0 -1 0 0 0 0 -1 0 0 0 0 -1 0 0 0 0 1 0"
         id="feColorMatrix4670-1-1" />
      <feFlood
         id="feFlood4672-8-2"
         flood-opacity="1"
         flood-color="rgb(80,22,22)"
         result="flood"
         in="fbSourceGraphic" />
      <feComposite
         id="feComposite4674-7-9"
         in2="fbSourceGraphic"
         in="flood"
         operator="in"
         result="composite1" />
      <feGaussianBlur
         id="feGaussianBlur4676-9-3"
         in="composite1"
         stdDeviation="0"
         result="blur" />
      <feOffset
         id="feOffset4678-2-1"
         dx="6"
         dy="6"
         result="offset" />
      <feComposite
         id="feComposite4680-0-9"
         in2="offset"
         in="fbSourceGraphic"
         operator="over"
         result="composite2" />
    </filter>
  </defs>
  <sodipodi:namedview
     pagecolor="#ffffff"
     bordercolor="#666666"
     borderopacity="1"
     objecttolerance="10"
     gridtolerance="10"
     guidetolerance="10"
     inkscape:pageopacity="0"
     inkscape:pageshadow="2"
     inkscape:window-width="1280"
     inkscape:window-height="756"
     id="namedview4"
     showgrid="false"
     inkscape:zoom="0.40000002"
     inkscape:cx="997.5883"
     inkscape:cy="-202.90098"
     inkscape:window-x="0"
     inkscape:window-y="0"
     inkscape:window-maximized="1"
     inkscape:current-layer="layer1"
     inkscape:snap-global="false" />
  <g
     inkscape:groupmode="layer"
     id="layer2"
     inkscape:label="artwork"
     sodipodi:insensitive="true">
    <image
       sodipodi:absref="/home/wolfy/tmp/pepper/lang/cs/../gfx_Pepper-and-Carrot_by-David-Revoy_E24P04.png"
       xlink:href="../gfx_Pepper-and-Carrot_by-David-Revoy_E24P04.png"
       y="0"
       x="0"
       id="image10"
       height="3503"
       width="2481" />
  </g>
  <g
     inkscape:groupmode="layer"
     id="layer3"
     inkscape:label="speechbubbles"
     style="display:inline">
    <path
       style="color:#000000;display:inline;overflow:visible;visibility:visible;fill:#ffffff;fill-opacity:1;fill-rule:nonzero;stroke:none;stroke-width:1px;marker:none;enable-background:accumulate"
       d="m 275.07152,175.91178 c -6.17177,18.3782 -40.98141,19.91929 -53.7958,16.1836 25.83084,20.5594 24.93032,33.33329 -10.1407,35.31667 58.8147,37.05342 10.75212,31.44637 1.27211,40.84206 46.18043,12.76942 25.51883,28.6613 17.29711,44.48137 53.07983,0.54339 35.70922,25.90245 37.94644,46.09931 4.49988,-9.47726 25.87761,-38.33026 27.1639,-6.20439 35.10922,-30.64981 77.39738,-50.44806 80.75518,3.18923 14.1461,-26.98345 28.24974,-38.38776 27.16391,-6.20439 35.04959,-41.85853 66.5465,-26.79142 98.23007,-14.96063 8.32153,-12.63389 9.29115,-32.04321 36.21324,-27.49474 -3.77479,-12.52246 5.31523,-21.13035 25.84353,-26.24207 -27.27885,-7.56446 -32.30625,-15.36702 18.34445,-23.76378 -38.54221,-0.8122 -74.4831,-2.47623 -29.26468,-31.11163 -14.18627,-0.6929 -47.8447,23.20127 -32.15181,-46.72553 -24.39409,22.38601 -50.4204,34.74151 -83.05973,-12.15147 -15.44659,23.4268 -42.23834,35.01932 -53.89408,5.75738 -4.18931,12.47488 -21.56042,17.16648 -36.3072,17.73544 -5.70261,-4.95527 -11.58418,-11.68577 -17.72187,-20.50381 -10.03155,18.51555 -25.03765,31.02013 -53.89407,5.75738 z"
       id="path3549-3-7"
       inkscape:connector-curvature="0"
       sodipodi:nodetypes="cccccccccccccccccccc" />
    <path
       style="fill:#ffffff;fill-opacity:1;stroke:none;stroke-width:1"
       d="m 123.05502,483.31933 c -8.58037,-142.68983 79.74762,-215.58612 318.28199,-209.10021 238.53436,6.48578 258.4293,63.30729 293.95781,110.98558 32.9045,86.48895 -7.47304,185.46873 -155.05544,240.59894 -147.5824,55.12999 -326.47418,10.93513 -380.97917,-29.60179 -41.05359,-30.53273 -74.48913,-75.58867 -76.20519,-112.88252 z"
       id="path3238"
       inkscape:connector-curvature="0"
       sodipodi:nodetypes="csccsc" />
    <path
       style="color:#000000;display:inline;overflow:visible;visibility:visible;fill:#ffffff;fill-opacity:1;fill-rule:nonzero;stroke:none;stroke-width:0.99999994px;marker:none;enable-background:accumulate"
       d="M 596.21217,741.80339 C 501.79196,722.52725 437.83691,642.18346 443.09216,578.88932 l -19.71491,23.41057 c -31.12393,-38.05864 -21.85913,123.01364 172.83492,139.5035 z"
       id="path3072-1"
       inkscape:connector-curvature="0"
       sodipodi:nodetypes="cccc" />
    <path
       style="fill:#ffffff;fill-opacity:1;stroke:none;stroke-width:1.05288744"
       d="m 2318.3619,1763.7671 c 2.3138,76.4565 -41.3001,117.3109 -212.7057,119.0791 -107.7686,1.1116 -180.1756,-43.0726 -197.6094,-95.9431 -17.4337,-52.8705 -28.8447,-124.1186 76.7553,-165.7604 105.6001,-41.6417 252.8973,-6.336 292.3493,23.0783 29.7156,22.1552 38.8968,43.0899 41.2105,119.5461 z"
       id="path3238-4"
       inkscape:connector-curvature="0"
       sodipodi:nodetypes="zszcsz" />
    <path
       style="color:#000000;display:inline;overflow:visible;visibility:visible;fill:#ffffff;fill-opacity:1;fill-rule:nonzero;stroke:none;stroke-width:0.99999994px;marker:none;enable-background:accumulate"
       d="m 1974.4716,1474.8738 c 77.6678,42.426 102.483,122.4068 71.5737,169.065 l 27.5491,-12.0352 c 12.5064,38.13 70.6344,-87.2598 -99.1228,-157.0298 z"
       id="path3072-1-7"
       inkscape:connector-curvature="0"
       sodipodi:nodetypes="cccc" />
    <path
       style="color:#000000;display:inline;overflow:visible;visibility:visible;fill:#ffffff;fill-opacity:1;fill-rule:nonzero;stroke:none;stroke-width:1.04766285px;marker:none;enable-background:accumulate"
       d="m 49.059223,2085.0889 c 9.385139,-64.1017 88.103397,-108.8022 286.247557,-90.6267 106.1367,9.7356 230.95773,20.6354 218.44425,114.5777 -12.51361,93.9423 -204.51965,80.3558 -240.49615,81.4609 -35.97652,1.1055 -214.297599,3.1723 -245.393018,-29.865 -19.465015,-20.6806 -20.366809,-55.6531 -18.802639,-75.5469 z"
       id="path4546"
       inkscape:connector-curvature="0"
       sodipodi:nodetypes="cssssc" />
    <path
       style="fill:#ffffff;fill-opacity:1;fill-rule:evenodd;stroke:none;stroke-width:1.17346585px;stroke-linecap:butt;stroke-linejoin:miter;stroke-opacity:1"
       d="m 722.05884,3297.9669 c -11.64538,-8.3218 2.81238,-18.7638 14.33967,-22.4599 12.92302,-6.8744 29.52662,-6.8194 45.04422,-6.3027 15.43656,1.352 26.75294,-5.27 36.77636,-12.1154 15.86486,-8.8817 38.90052,-11.9296 57.62185,-5.4527 13.91385,4.415 30.00344,9.8428 45.25432,4.778 18.18733,-5.1258 41.3377,-9.611 58.89296,-1.1515 12.48825,9.8244 33.22198,5.6471 48.49968,1.7701 19.6227,-4.5481 41.099,-7.3093 61.3671,-2.8986 13.4388,2.5816 30.105,3.8416 36.735,13.568 8.0023,10.6522 16.6113,23.368 35.3524,26.5604 13.2656,2.7568 32.3481,4.4272 35.6876,15.516 -0.3887,9.8954 -7.4123,19.6529 -13.8003,28.2714 -18.8864,11.1665 -47.8538,2.5793 -71.8386,5.6713 -15.6825,1.9912 -30.4365,6.3681 -43.4234,12.6071 -21.1827,7.2786 -45.5729,1.3595 -67.6068,6.1031 -25.98471,4.4331 -53.87038,3.7873 -78.49045,11.7691 -28.03508,7.417 -61.01855,5.0132 -85.61802,-6.9075 -10.5577,-5.9244 -23.9316,-8.1452 -37.37546,-7.0123 -17.95777,0.3998 -27.17085,2.3025 -40.43505,-7.8758 -10.6331,-7.2593 -7.77273,-4.964 -14.85554,-13.0375 -7.40492,-7.9711 -24.60326,-9.7059 -29.77303,-19.1363 -3.95991,-7.794 9.77233,-14.1129 7.64549,-22.2643 z"
       id="path4367"
       inkscape:connector-curvature="0"
       sodipodi:nodetypes="ccccccccccccccccccccccc" />
    <path
       style="fill:#ffffff;fill-rule:evenodd;stroke:none;stroke-width:1px;stroke-linecap:butt;stroke-linejoin:miter;stroke-opacity:1"
       d="m 1605.781,3246.9359 c -12.1699,11.4769 -25.5961,24.3584 -44.149,28 -15.0876,1.9565 -26.6269,-9.6392 -31.8499,-20.2344 -1.6743,-3.1554 -3.121,-6.3912 -4.5318,-9.6347 -4.3835,12.0165 -10.4423,26.6343 -25.943,31.1093 -5.8489,1.0411 -12.17,-2.367 -16.2972,-4.0683 -12.9761,32.1359 -20.5531,22.5138 -37.6411,7.2398 9.7459,26.7848 -8.7248,38.1323 -22.4919,36.7289 -1.5723,0.1445 -5.6942,-1.4271 -3.1543,0.8223 27.2929,6.283 26.4234,19.5504 4.1608,31.2285 11.7003,-3.697 28.1689,-3.7176 35.2871,6.4297 3.0388,4.2736 3.893,9.3395 4.3416,14.2246 9.228,-7.8534 25.3137,-13.4118 36.9616,-5.9141 8.2073,4.4462 12.6326,13.5829 16.5987,19.5371 7.5025,-10.2823 17.9903,-22.6899 33.8933,-22.6679 6.8044,0.7087 12.0382,5.1892 15.453,9.8965 7.2131,-10.2342 23.7533,-17.3179 37.029,-10.8789 6.8467,2.7743 12.2215,7.4356 17.735,11.7148 0.3084,-11.3584 11.0988,-23.4604 25.6323,-22.4121 2.9443,-0.216 7.3525,0.6738 9.1446,0.5058 -9.9464,-9.5522 -12.8035,-25.0864 -2.5464,-35.2578 0.8637,-1.9073 6.3619,-5.1257 4.52,-5.8379 -18.0864,1.5435 -36.2989,-5.929 -23.227,-22.4257 -24.643,5.429 -36.8577,-12.8191 -26.8102,-40.1485 -0.7051,0.681 -1.4101,1.362 -2.1152,2.043 z"
       id="path1331"
       inkscape:connector-curvature="0"
       sodipodi:nodetypes="ccccccccccccccccccccccccc" />
    <path
       style="display:inline;fill:#ffffff;fill-rule:evenodd;stroke:none;stroke-width:1px;stroke-linecap:butt;stroke-linejoin:miter;stroke-opacity:1"
       d="m 1898.0036,3200.4328 c 49.5569,27.5237 77.7851,16.331 76.9345,-47.6471 23.6433,69.1361 40.0507,84.5986 49.7812,50.5348 31.3021,29.2792 50.853,21.0662 66.375,0 5.7854,27.0926 18.1924,16.1598 28.93,14.814 3.5365,6.1295 -8.61,21.3579 40.4619,1.0684 3.1787,8.113 7.4605,15.0997 36.2044,-2.8877 7.4467,32.9299 31.3389,-1.825 55.8154,-38.984 -15.2495,45.6837 -8.9262,52.1363 10.5596,34.6524 -8.9088,18.8129 -14.237,33.3763 19.6108,1.4439 -11.5878,34.7248 18.8127,10.8898 67.8834,-38.9839 -24.5459,36.8663 -89.6361,99.0018 -46.7641,93.8501 -5.9787,10.8684 -27.3047,20.3376 36.2045,37.5401 -11.8563,7.3751 -48.0533,-3.4021 -17.8585,27.824 4.0455,3.6501 -9.4979,5.879 16.35,15.4914 -15.2583,-0.6538 -24.6158,1.6824 -10.5597,15.8825 -27.8519,-0.7678 -17.4309,14.1637 3.017,33.2085 -40.3335,-24.429 -42.5531,-15.5505 -43.7472,-5.7754 -50.5496,-33.305 -53.5169,-22.8191 -60.3406,-15.8823 -24.6392,0.2598 -49.2785,-3.9343 -73.9177,33.2085 -6.4526,-23.1019 -19.3895,-40.8842 -73.9174,-24.5454 23.942,-29.3896 -10.1186,-10.6653 -36.2044,1.4438 14.2851,-36.7149 -21.9687,-12.619 -67.8836,23.1016 25.7122,-40.5435 -3.4908,-25.8982 -46.7641,2.8877 16.3499,-39.8299 -10.2776,-59.0922 -73.9176,-60.6416 30.4601,-14.3672 48.2226,-32.4479 16.5938,-64.9734 35.6547,9.5773 46.2901,0.6814 21.1193,-34.6523 38.8898,29.0016 21.208,-13.0639 6.0341,-51.9786 z"
       id="path4508"
       inkscape:connector-curvature="0"
       sodipodi:nodetypes="cccccccccccccccccccccccccccc" />
    <path
       style="fill:#ffffff;stroke:none;stroke-width:1"
       d="m 1864.5318,2287.2927 c -1.3098,-30.402 22.7422,-103.1204 204.0495,-109.7658 184.4587,-6.7609 268.3119,49.2394 272.2682,103.3145 6.2589,85.5453 -99.5672,81.6161 -236.6967,84.9466 -141.3657,3.4335 -231.8898,-1.599 -239.621,-78.4953 z"
       id="path3280"
       inkscape:connector-curvature="0"
       sodipodi:nodetypes="csssc" />
    <path
       style="fill:#ffffff;stroke:none;stroke-width:1"
       d="m 237.28676,2264.0468 c -54.38249,-17.8219 -66.33148,-52.9511 -74.01784,-123.2551 -4.65716,-42.5973 9.48134,-57.6606 9.48134,-57.6606 l -35.68519,18.4405 -0.11203,17.0646 c 0,0 -15.3368,56.7167 16.55537,100.1244 15.1088,20.5643 40.81747,38.1415 83.77835,45.2862 z"
       id="path3063"
       inkscape:connector-curvature="0"
       sodipodi:nodetypes="cscccsc" />
  </g>
  <g
     inkscape:groupmode="layer"
     id="layer1"
     inkscape:label="txt"
     style="display:inline">
    <text
       xml:space="preserve"
       style="font-style:normal;font-variant:normal;font-weight:normal;font-stretch:normal;font-size:16.23249817px;line-height:0%;font-family:Lavi;-inkscape-font-specification:Lavi;text-align:center;letter-spacing:0px;word-spacing:0px;text-anchor:middle;fill:#000000;fill-opacity:1;stroke:none;stroke-width:1"
       x="381.57074"
       y="275.12958"
       id="text4246"><tspan
         sodipodi:role="line"
         style="font-size:60.87186813px;line-height:1.25;stroke-width:1"
         x="381.57074"
         y="275.12958"
         id="tspan4252">Paráda!</tspan></text>
    <text
       xml:space="preserve"
       style="font-style:normal;font-variant:normal;font-weight:normal;font-stretch:normal;line-height:0%;font-family:Lavi;-inkscape-font-specification:Lavi;text-align:center;letter-spacing:0px;word-spacing:0px;text-anchor:middle;fill:#000000;fill-opacity:1;stroke:none"
       x="428.78906"
       y="368.84122"
       id="text4246-3"><tspan
         sodipodi:role="line"
         style="font-size:45px;line-height:1.25"
         x="428.78906"
         y="368.84122"
         id="tspan843">Je to jako kontejner,</tspan><tspan
         sodipodi:role="line"
         style="font-size:45px;line-height:1.25"
         x="428.78906"
         y="425.09122"
         id="tspan851">právě s tou částí knihovny</tspan><tspan
         sodipodi:role="line"
         style="font-size:45px;line-height:1.25"
         x="435.94116"
         y="481.34122"
         id="tspan855"> kterou potřebuju. A je </tspan><tspan
         sodipodi:role="line"
         style="font-size:45px;line-height:1.25"
         x="428.78906"
         y="537.59119"
         id="tspan281">kompletně izolovaný od</tspan><tspan
         sodipodi:role="line"
         style="font-size:45px;line-height:1.25"
         x="428.78906"
         y="593.84119"
         id="tspan283">reálného světa.</tspan></text>
    <text
       xml:space="preserve"
       style="font-style:normal;font-variant:normal;font-weight:normal;font-stretch:normal;line-height:0%;font-family:Lavi;-inkscape-font-specification:Lavi;text-align:center;letter-spacing:0px;word-spacing:0px;text-anchor:middle;fill:#000000;fill-opacity:1;stroke:none"
       x="2113.3555"
       y="1689.1895"
       id="text4246-3-7"><tspan
         sodipodi:role="line"
         style="font-size:45px;line-height:1.25"
         x="2113.3555"
         y="1689.1895"
         id="tspan907">Perfektní</tspan><tspan
         sodipodi:role="line"
         style="font-size:45px;line-height:1.25"
         x="2113.3555"
         y="1745.4395"
         id="tspan290">pískoviště</tspan><tspan
         sodipodi:role="line"
         style="font-size:45px;line-height:1.25"
         x="2113.3555"
         y="1801.6895"
         id="tspan292">pro testování</tspan><tspan
         sodipodi:role="line"
         style="font-size:45px;line-height:1.25"
         x="2113.3555"
         y="1857.9395"
         id="tspan294">kouzel.</tspan></text>
    <text
       xml:space="preserve"
       style="font-style:normal;font-variant:normal;font-weight:normal;font-stretch:normal;line-height:0%;font-family:Lavi;-inkscape-font-specification:Lavi;text-align:center;letter-spacing:0px;word-spacing:0px;text-anchor:middle;fill:#000000;fill-opacity:1;stroke:none"
       x="312.66486"
       y="2083.4849"
       id="text4246-3-7-9"><tspan
         sodipodi:role="line"
         style="font-size:45px;line-height:1.25"
         x="312.66486"
         y="2083.4849"
         id="tspan940">Čas začít pracovat</tspan><tspan
         sodipodi:role="line"
         style="font-size:45px;line-height:1.25"
         x="312.66486"
         y="2139.7349"
         id="tspan298">na mém veledíle!</tspan></text>
    <text
       xml:space="preserve"
       style="font-style:normal;font-variant:normal;font-weight:normal;font-stretch:normal;font-size:51.73136902px;line-height:0.01%;font-family:Arial;-inkscape-font-specification:Arial;letter-spacing:0.0088361px;word-spacing:0px;display:inline;fill:#faedf6;fill-opacity:1;stroke:#fff3fa;stroke-width:1.62600005;stroke-miterlimit:4;stroke-dasharray:none;stroke-opacity:1"
       x="1308.5319"
       y="3636.3977"
       id="text1105"
       transform="matrix(1.1211525,-0.41389973,-0.28840838,0.99841201,0,0)"><tspan
         sodipodi:role="line"
         x="1329.4746"
         y="3636.3977"
         id="tspan1103"
         style="font-style:normal;font-variant:normal;font-weight:normal;font-stretch:normal;font-family:Lavi;-inkscape-font-specification:Lavi;fill:#faedf6;fill-opacity:1;stroke:#fff3fa;stroke-width:1.62600005;stroke-miterlimit:4;stroke-dasharray:none;stroke-opacity:1"><tspan
           x="1329.4746"
           y="3636.3977"
           style="font-style:normal;font-variant:normal;font-weight:normal;font-stretch:normal;font-size:42.71826553px;font-family:Lavi;-inkscape-font-specification:Lavi;fill:#faedf6;fill-opacity:1;stroke:#fff3fa;stroke-width:1.62600005;stroke-miterlimit:4;stroke-dasharray:none;stroke-opacity:1"
           id="tspan1095">BzinG</tspan></tspan></text>
    <text
       xml:space="preserve"
       style="font-style:normal;font-variant:normal;font-weight:normal;font-stretch:normal;line-height:0%;font-family:Lavi;-inkscape-font-specification:Lavi;letter-spacing:0px;word-spacing:0px;fill:#ffffff;fill-opacity:1;stroke:#c83737;stroke-width:0.99236238;stroke-miterlimit:4;stroke-dasharray:none;stroke-opacity:1;filter:url(#filter4375-4-1-1-1-9-5-8)"
       x="787.65729"
       y="1584.5073"
       id="text4580-6-0"
       transform="matrix(0.83434398,-0.14790328,-0.40858731,0.88612324,768.47254,904.8039)"><tspan
         sodipodi:role="line"
         id="tspan4582-1-1"
         x="787.65729"
         y="1584.5073"
         style="font-size:70px;line-height:1.25;fill:#ffffff;fill-opacity:1;stroke:#c83737;stroke-opacity:1"><tspan
           style="font-size:93.14950562px;fill:#ffffff;fill-opacity:1;stroke:#c83737;stroke-opacity:1"
           id="tspan4315-8">PLOooom!</tspan><tspan
           style="font-size:114.73223114px;fill:#ffffff;fill-opacity:1;stroke:#c83737;stroke-opacity:1"
           id="tspan4313-2">!</tspan></tspan></text>
    <text
       xml:space="preserve"
       style="font-style:normal;font-variant:normal;font-weight:normal;font-stretch:normal;line-height:0%;font-family:Lavi;-inkscape-font-specification:Lavi;letter-spacing:0px;word-spacing:0px;fill:#ffffff;fill-opacity:1;stroke:#c83737;stroke-width:0.99236238;stroke-miterlimit:4;stroke-dasharray:none;stroke-opacity:1;filter:url(#filter4375-4-1-1-1-9-5-8-0)"
       x="787.65729"
       y="1584.5073"
       id="text4580-6-0-2"
       transform="matrix(0.83434398,-0.14790328,-0.40858731,0.88612324,1358.123,876.325)"><tspan
         sodipodi:role="line"
         id="tspan4582-1-1-3"
         x="787.65729"
         y="1584.5073"
         style="font-size:70px;line-height:1.25;fill:#ffffff;fill-opacity:1;stroke:#c83737;stroke-opacity:1"><tspan
           style="font-size:93.14950562px;fill:#ffffff;fill-opacity:1;stroke:#c83737;stroke-opacity:1"
           id="tspan4315-8-7">Dhoooff!</tspan><tspan
           style="font-size:114.73223114px;fill:#ffffff;fill-opacity:1;stroke:#c83737;stroke-opacity:1"
           id="tspan4313-2-5">!</tspan></tspan></text>
    <text
       xml:space="preserve"
       style="font-style:normal;font-variant:normal;font-weight:normal;font-stretch:normal;line-height:0%;font-family:Lavi;-inkscape-font-specification:Lavi;letter-spacing:0px;word-spacing:0px;fill:#ffffff;fill-opacity:1;stroke:#c83737;stroke-width:0.99236238;stroke-miterlimit:4;stroke-dasharray:none;stroke-opacity:1;filter:url(#filter4375-4-1-1-1-9-5-8-0-9)"
       x="787.65729"
       y="1584.5073"
       id="text4580-6-0-2-4"
       transform="matrix(0.83434398,-0.14790328,-0.40858731,0.88612324,1943.5394,867.70579)"><tspan
         sodipodi:role="line"
         id="tspan4582-1-1-3-7"
         x="787.65729"
         y="1584.5073"
         style="font-size:70px;line-height:1.25;fill:#ffffff;fill-opacity:1;stroke:#c83737;stroke-opacity:1"><tspan
           style="font-size:93.14950562px;fill:#ffffff;fill-opacity:1;stroke:#c83737;stroke-opacity:1"
           id="tspan4315-8-7-8">Chting!</tspan><tspan
           style="font-size:114.73223114px;fill:#ffffff;fill-opacity:1;stroke:#c83737;stroke-opacity:1"
           id="tspan4313-2-5-4">!</tspan></tspan></text>
    <text
       xml:space="preserve"
       style="font-style:normal;font-variant:normal;font-weight:normal;font-stretch:normal;line-height:0%;font-family:Lavi;-inkscape-font-specification:Lavi;text-align:center;letter-spacing:0px;word-spacing:0px;text-anchor:middle;fill:#000000;fill-opacity:1;stroke:none"
       x="970.4834"
       y="3324.7639"
       id="text4246-3-7-9-5"><tspan
         sodipodi:role="line"
         style="font-size:45px;line-height:1.25"
         x="970.4834"
         y="3324.7639"
         id="tspan1157">Heh. Takhle asi ne.</tspan></text>
    <text
       xml:space="preserve"
       style="font-style:normal;font-variant:normal;font-weight:normal;font-stretch:normal;line-height:0%;font-family:Lavi;-inkscape-font-specification:Lavi;text-align:center;letter-spacing:0px;word-spacing:0px;text-anchor:middle;fill:#000000;fill-opacity:1;stroke:none"
       x="1547.7905"
       y="3333.6245"
       id="text4246-3-7-9-5-1"><tspan
         sodipodi:role="line"
         style="font-size:45px;line-height:1.25"
         x="1547.7905"
         y="3333.6245"
         id="tspan1157-0">Uch!</tspan></text>
    <text
       xml:space="preserve"
       style="font-style:normal;font-variant:normal;font-weight:normal;font-stretch:normal;line-height:0%;font-family:Lavi;-inkscape-font-specification:Lavi;text-align:center;letter-spacing:0px;word-spacing:0px;text-anchor:middle;fill:#000000;fill-opacity:1;stroke:none"
       x="2107.2458"
       y="2264.656"
       id="text4246-3-7-9-5-1-6"><tspan
         sodipodi:role="line"
         style="font-size:45px;line-height:1.25"
         x="2107.2458"
         y="2264.656"
         id="tspan1157-0-3">Ano! Vypadá dobře,</tspan><tspan
         sodipodi:role="line"
         style="font-size:45px;line-height:1.25"
         x="2107.2458"
         y="2320.906"
         id="tspan1197">ale je příliš malý...</tspan></text>
    <text
       xml:space="preserve"
       style="font-style:normal;font-variant:normal;font-weight:normal;font-stretch:normal;font-size:11.64131737px;line-height:0%;font-family:Lavi;-inkscape-font-specification:Lavi;text-align:center;letter-spacing:0px;word-spacing:0px;text-anchor:middle;fill:#000000;fill-opacity:1;stroke:#000000;stroke-width:1.79999995;stroke-miterlimit:4;stroke-dasharray:none;stroke-opacity:1"
       x="2697.5513"
       y="3249.49"
       id="text4246-3-7-9-5-1-6-2"
       transform="matrix(0.987836,0,-0.17384645,1.0123138,0,0)"><tspan
         sodipodi:role="line"
         style="font-size:43.65493774px;line-height:1.25;stroke:#000000;stroke-width:1.79999995;stroke-miterlimit:4;stroke-dasharray:none;stroke-opacity:1"
         x="2704.4895"
         y="3249.49"
         id="tspan1222">KAROTKO! </tspan><tspan
         sodipodi:role="line"
         style="font-size:43.65493774px;line-height:1.25;stroke:#000000;stroke-width:1.79999995;stroke-miterlimit:4;stroke-dasharray:none;stroke-opacity:1"
         x="2697.5513"
         y="3304.0586"
         id="tspan302">NESAHEJ NA TO!</tspan></text>
    <text
       xml:space="preserve"
       style="font-style:normal;font-variant:normal;font-weight:normal;font-stretch:normal;font-size:14.55866337px;line-height:0%;font-family:Lavi;-inkscape-font-specification:Lavi;text-align:center;letter-spacing:0px;word-spacing:0px;text-anchor:middle;fill:#f49474;fill-opacity:1;stroke:none;stroke-width:1"
       x="2459.8232"
       y="3396.968"
       id="text4246-3-7-9-5-1-6-2-1"
       transform="matrix(1.0600479,-0.23035956,-0.08957656,0.9628195,0,0)"><tspan
         sodipodi:role="line"
         style="font-size:54.59498596px;line-height:1.25;fill:#f49474;fill-opacity:1;stroke-width:0.82425153"
         x="2459.8232"
         y="3396.968"
         id="tspan1222-5">?</tspan></text>
  </g>
</svg>
