<?xml version="1.0" encoding="UTF-8" standalone="no"?>
<!-- Created with Inkscape (http://www.inkscape.org/) -->

<svg
   xmlns:dc="http://purl.org/dc/elements/1.1/"
   xmlns:cc="http://creativecommons.org/ns#"
   xmlns:rdf="http://www.w3.org/1999/02/22-rdf-syntax-ns#"
   xmlns:svg="http://www.w3.org/2000/svg"
   xmlns="http://www.w3.org/2000/svg"
   xmlns:xlink="http://www.w3.org/1999/xlink"
   xmlns:sodipodi="http://sodipodi.sourceforge.net/DTD/sodipodi-0.dtd"
   xmlns:inkscape="http://www.inkscape.org/namespaces/inkscape"
   id="svg2"
   version="1.1"
   inkscape:version="0.92.2 5c3e80d, 2017-08-06"
   width="2481"
   height="3503"
   sodipodi:docname="E24P01.svg">
  <metadata
     id="metadata8">
    <rdf:RDF>
      <cc:Work
         rdf:about="">
        <dc:format>image/svg+xml</dc:format>
        <dc:type
           rdf:resource="http://purl.org/dc/dcmitype/StillImage" />
        <dc:title />
      </cc:Work>
    </rdf:RDF>
  </metadata>
  <defs
     id="defs6">
    <filter
       style="color-interpolation-filters:sRGB"
       id="filter4375-4-1-1-1-9"
       inkscape:label="deevad outline effect">
      <feFlood
         id="feFlood4377-7-9-0-8-1"
         flood-opacity="1"
         flood-color="rgb(0,0,0)"
         result="flood" />
      <feComposite
         id="feComposite4379-3-8-8-2-77"
         in2="SourceGraphic"
         in="flood"
         operator="in"
         result="composite1" />
      <feMorphology
         id="feMorphology4393-1-0-49-8-9"
         operator="dilate"
         radius="4"
         result="result3" />
      <feComposite
         id="feComposite4385-9-5-7-0-8"
         in2="result3"
         in="SourceGraphic"
         operator="over"
         result="composite2" />
    </filter>
  </defs>
  <sodipodi:namedview
     pagecolor="#ffffff"
     bordercolor="#666666"
     borderopacity="1"
     objecttolerance="10"
     gridtolerance="10"
     guidetolerance="10"
     inkscape:pageopacity="0"
     inkscape:pageshadow="2"
     inkscape:window-width="1680"
     inkscape:window-height="1001"
     id="namedview4"
     showgrid="false"
     inkscape:zoom="0.34782609"
     inkscape:cx="1075.7797"
     inkscape:cy="860.63441"
     inkscape:window-x="0"
     inkscape:window-y="1"
     inkscape:window-maximized="1"
     inkscape:current-layer="layer1"
     inkscape:snap-global="false" />
  <g
     inkscape:groupmode="layer"
     id="layer2"
     inkscape:label="artwork"
     sodipodi:insensitive="true">
    <image
       sodipodi:absref="/Users/gand/Downloads/lang/it/../gfx_Pepper-and-Carrot_by-David-Revoy_E24P01.png"
       xlink:href="../gfx_Pepper-and-Carrot_by-David-Revoy_E24P01.png"
       y="0"
       x="0"
       id="image10"
       height="3503"
       width="2481" />
  </g>
  <g
     inkscape:groupmode="layer"
     id="layer3"
     inkscape:label="speechbubbles">
    <path
       style="fill:#ffffff;fill-rule:evenodd;stroke:none;stroke-width:1.01873434px;stroke-linecap:butt;stroke-linejoin:miter;stroke-opacity:1"
       d="m 558.61453,444.82799 c 32.00819,10.3778 60.94136,16.82994 51.10466,-26.21365 56.65657,58.4381 48.52921,18.41593 57.49276,4.3689 33.68439,41.28048 62.66708,35.39772 87.83614,-8.73782 14.22844,63.66343 44.00282,32.81806 70.26886,23.30101 -0.0648,17.90316 -7.23572,38.4323 70.26897,27.67002 -22.16061,16.16964 -30.42661,30.84858 19.16426,39.32057 -34.44807,13.00092 -53.36633,26.83488 -15.97027,43.68959 -19.86637,24.55329 -6.57896,39.14523 20.76131,49.51474 -64.01495,1.43599 -72.32796,3.82078 -62.05789,16.5467 -54.50186,-26.16442 -38.39794,-4.56586 -33.76335,15.49224 -25.36745,-11.5063 -44.11731,-38.70257 -89.43311,-2.91255 -13.47746,-11.87815 -25.90072,-26.88035 -55.89576,10.19418 -2.11594,-32.33917 -24.04604,-31.12261 -55.89576,-13.10682 -8.40054,-30.32815 -39.94482,-14.92955 -73.46296,4.369 27.35845,-29.60091 29.34096,-54.33009 -23.95531,-68.44696 51.64856,-16.93386 42.2438,-30.59285 22.35829,-43.68949 19.64625,-12.31548 32.45583,-25.73102 -19.16424,-49.51483 30.18099,3.69751 62.3167,8.46458 30.3434,-21.84483 z"
       id="path4582"
       inkscape:connector-curvature="0"
       sodipodi:nodetypes="ccccccccccccccccccc" />
    <path
       style="color:#000000;display:inline;overflow:visible;visibility:visible;fill:#ffffff;fill-opacity:1;fill-rule:nonzero;stroke:none;stroke-width:0.99999994px;marker:none;enable-background:accumulate"
       d="m 1120.4405,700.1743 c -32.2265,-17.97546 -75.6905,-29.21797 -94.8601,-55.01638 l -18.7309,38.20697 c -21.19647,-1.31166 -26.2338,-14.07539 -36.75813,-22.95055 l -18.52445,25.72405 C 902.21848,682.47077 878.08971,666.613 844.32571,653.77368 l -19.93547,22.60875 c 41.44339,8.00317 86.22663,23.6167 121.36515,31.70826 l 22.07602,-17.34663 c 14.0695,3.48337 27.30829,7.5971 36.83679,14.52656 l 23.5694,-31.97386 z"
       id="path4032"
       inkscape:connector-curvature="0"
       sodipodi:nodetypes="cccccccccccc" />
    <path
       style="color:#000000;display:inline;overflow:visible;visibility:visible;fill:#ffffff;fill-opacity:1;fill-rule:nonzero;stroke:none;stroke-width:0.99999994px;marker:none;enable-background:accumulate"
       d="m 1373.3502,1868.2437 c 6.6851,-9.6035 35.5763,-37.7572 31.3268,-2.86 46.4175,-40.2666 78.7953,-19.5262 111.971,-2.2535 11.4973,-12.4731 16.0323,-33.3022 45.1957,-24.5731 -1.9873,-14.0664 9.629,-22.0812 33.3836,-24.6967 -29.027,-12.0387 -33.2191,-21.179 24.6468,-23.0767 -42.759,-6.3379 -82.4984,-13.2357 -27.1003,-37.773 -15.6687,-2.7585 -57.3593,18.2946 -27.5245,-55.0444 -31.1129,20.7342 -62.2582,30.3971 -90.297,-24.8989 -14.441,18.5866 -33.3418,29.9721 -60.9951,-1.4146 -10.1201,18.985 -49.1487,15.6954 -62.7522,9.8432 25.1172,25.8757 21.8709,39.5499 -17.5185,36.7247 58.9158,48.3718 6.4035,35.5263 -5.8106,44.3362 49.1464,20.3406 23.3399,34.5624 11.3904,50.4926 58.9887,8.1069 35.1654,33.0527 34.0839,55.1942 z"
       id="path3549-3"
       inkscape:connector-curvature="0"
       sodipodi:nodetypes="ccccccccccccccc" />
    <path
       style="color:#000000;display:inline;overflow:visible;visibility:visible;fill:#ffffff;fill-opacity:1;fill-rule:nonzero;stroke:none;stroke-width:1.07001269px;marker:none;enable-background:accumulate"
       d="m 1335.6889,1965.708 c 5.1172,-86.8078 85.041,-155.7982 263.8508,-136.6474 95.7804,10.258 216.8537,13.2326 210.468,140.4176 -6.3854,127.1846 -174.9845,125.9358 -207.223,128.4066 -32.2388,2.4712 -208.0182,-2.6907 -237.6367,-46.453 -18.5412,-27.3942 -29.8367,-58.82 -29.4591,-85.7238 z"
       id="path4546-6"
       inkscape:connector-curvature="0"
       sodipodi:nodetypes="cssssc" />
    <path
       style="color:#000000;display:inline;overflow:visible;visibility:visible;fill:#ffffff;fill-opacity:1;fill-rule:nonzero;stroke:none;stroke-width:1px;marker:none;enable-background:accumulate"
       d="m 1725.1844,1861.3342 c 6.612,11.2759 86.9477,-29.2003 85.8796,-32.4046 0,0 27.5174,7.7754 31.5141,6.9248 1.9994,-6.4636 4.2729,-17.2204 4.2729,-17.2204 l 43.1705,1.271 -34.6999,8.0734 0.1804,21.2585 -36.6531,-7.0896 c -19.044,13.242 -51.208,25.1719 -50.7716,40.3619 z"
       id="path4448"
       inkscape:connector-curvature="0"
       sodipodi:nodetypes="cccccccccc" />
    <path
       style="color:#000000;display:inline;overflow:visible;visibility:visible;fill:#ffffff;fill-opacity:1;fill-rule:nonzero;stroke:none;stroke-width:1.09687543px;marker:none;enable-background:accumulate"
       d="m 19.727909,3091.2937 c 53.664133,11.6788 49.145279,54.3514 34.537012,69.0828 60.048569,-52.6239 91.488009,-32.6627 60.916549,20.247 104.42982,-72.6265 140.75282,-20.516 123.20017,7.7317 44.11466,-58.5442 124.35924,-62.5409 165.90227,0.7432 26.20347,-76.4184 62.78355,-47.8751 112.84949,-28.9648 -38.02507,-28.7276 -59.9598,-57.1493 42.18541,-93.9094 -54.74651,10.6451 -108.71711,-26.6405 -14.60118,-56.3529 -93.31341,-1.4282 -99.87458,-42.9737 -0.78566,-62.4223 -96.24436,0.1418 -75.68181,-32.936 -31.75831,-68.77 -67.55768,10.0031 -96.58134,-25.0138 -33.49803,-77.8237 -105.72186,47.5113 -107.89574,19.1905 -100.83826,-42.0064 -59.6472,67.0081 -63.87354,41.8866 -75.81243,-21.6034 -12.57997,46.6761 -44.94134,81.5547 -111.77605,27.065 10.29743,30.335 -4.57691,64.643 -95.874878,30.0292 48.856828,36.4754 83.938738,99.0397 -58.400074,98.2255 66.412612,24.1024 94.240282,59.3101 3.145835,66.8338 36.426543,7.9274 45.971738,30.1136 43.804932,48.1724 -16.406772,5.8075 -38.201066,11.4294 -66.342644,16.8886 53.0622,16.4028 86.733269,37.4885 3.145848,66.8337 z"
       id="path3549-3-7"
       inkscape:connector-curvature="0"
       sodipodi:nodetypes="cccccccccccccccccccc" />
    <path
       style="fill:#ffffff;stroke:none;stroke-width:1"
       d="m 1312.0471,2636.6402 c 24.8572,-23.3618 23.0898,-34.098 20.1693,-46.0928 -2.9204,-11.9949 -6.7783,-22.4564 -2.996,-29.6912 3.7822,-7.2345 11.9314,-13.7504 18.5182,-17.7105 6.5867,-3.9602 0.6895,-11.8462 0.1992,-20.4782 -0.4905,-8.632 11.6694,-54.4912 11.6694,-54.4912 0,0 15.4128,29.8223 17.3984,40.7257 1.9857,10.9032 2.7616,14.8752 2.4762,19.5352 -0.2855,4.6599 -2.4809,16.1126 -8.3834,22.0982 -5.9026,5.9855 -13.8607,8.5198 -19.1677,11.9592 -5.307,3.4394 -4.2207,13.2301 -3.7625,22.963 0.4583,9.7331 -0.6146,16.9839 -10.2491,30.0137 -8.2583,11.169 -25.872,21.1689 -25.872,21.1689 z"
       id="path3023-2"
       inkscape:connector-curvature="0"
       sodipodi:nodetypes="csssscssssssc" />
    <path
       style="color:#000000;display:inline;overflow:visible;visibility:visible;fill:#ffffff;fill-opacity:1;fill-rule:nonzero;stroke:none;stroke-width:0.99999994px;marker:none;enable-background:accumulate"
       d="m 1316.0029,3034.7179 c 5.2109,-36.069 14.5234,-83.1655 -40.179,-91.5576 2.7742,1.4246 74.681,-16.1526 71.113,92.3401 -3.568,108.4926 -13.868,120.9339 -13.868,120.9339 z"
       id="path4064"
       inkscape:connector-curvature="0"
       sodipodi:nodetypes="ccscc" />
    <path
       style="color:#000000;display:inline;overflow:visible;visibility:visible;fill:#ffffff;fill-opacity:1;fill-rule:nonzero;stroke:none;stroke-width:1px;marker:none;enable-background:accumulate"
       d="m 1077.2562,3295.7847 c -1.1856,-61.9807 37.6091,-99.5237 45.0474,-104.6787 67.1345,-46.525 276.2566,-29.3302 312.9622,2.7546 30.822,26.1698 37.9349,44.0753 34.3784,67.4904 -3.5564,23.4149 -22.5239,85.3957 -66.386,103.3013 -43.8619,17.9055 -145.8117,26.1697 -199.1577,12.3961 -53.3458,-13.7735 -131.5863,-27.5469 -126.8443,-81.2637 z"
       id="path3517"
       inkscape:connector-curvature="0"
       sodipodi:nodetypes="cscsccc" />
    <path
       style="color:#000000;display:inline;overflow:visible;visibility:visible;fill:#ffffff;fill-opacity:1;fill-rule:nonzero;stroke:none;stroke-width:1px;marker:none;enable-background:accumulate"
       d="m 1142.4257,3108.1619 c -1.2337,-31.62 22.4012,-64.5566 34.7376,-74.6749 12.3366,-10.1185 87.1974,-20.0204 115.5712,-20.0204 28.3738,0 148.4287,5.6137 169.4007,28.3802 20.9719,22.7664 45.2533,39.919 31.6833,77.863 -13.5702,37.9439 -98.6915,56.916 -117.1962,60.7103 -18.5047,3.7944 -71.5515,6.324 -88.8225,5.0593 -17.271,-1.2649 -149.075,-25.4606 -145.3741,-77.3175 z"
       id="path3357"
       inkscape:connector-curvature="0"
       inkscape:transform-center-x="-263.99311"
       inkscape:transform-center-y="-147.27939"
       sodipodi:nodetypes="ccsscccc" />
    <path
       style="fill:#ffffff;fill-rule:evenodd;stroke:none;stroke-width:0.99999988px;stroke-linecap:butt;stroke-linejoin:miter;stroke-opacity:1"
       d="m 1146.2648,2478.7083 c 8.9148,-23.8569 32.9214,-41.9579 59.049,-54.0414 12.4339,-5.8338 26.6461,-10.1089 41.1894,-8.9844 14.448,0.6719 28.5601,4.6835 43.1678,3.2901 17.7627,-0.4602 35.8372,-2.4681 53.3959,0.401 15.609,3.1306 31.6907,4.752 47.7982,4.846 11.3633,-1.9871 21.7614,3.3092 31.9096,6.4769 9.1104,3.4218 18.4159,7.0119 26.0681,12.3048 7.05,7.4302 15.4914,13.8943 22.6237,21.2583 4.6669,4.0258 4.2185,9.5866 4.0035,14.7331 -0.6061,10.5387 -1.6325,21.2437 -5.4423,31.3969 -2.2798,6.4459 -10.7065,8.5792 -17.1814,11.5412 -15.3207,6.2528 -31.5892,10.9944 -46.2109,18.3527 -14.4858,3.7677 -29.8803,2.0054 -44.7362,1.436 -12.4483,-1.1215 -24.9706,-2.6855 -37.5258,-1.3813 -15.9798,0.9544 -31.9111,3.4258 -47.9482,3.1093 -20.0899,-2.1722 -39.3306,-7.5207 -58.7995,-11.8111 -17.4671,-3.7817 -33.387,-10.8926 -48.6624,-18.4995 -8.1596,-4.3197 -16.7975,-9.3407 -19.6772,-17.3014 -2.3606,-5.4816 -2.9168,-11.3511 -3.0213,-17.1272 z"
       id="path4365"
       inkscape:connector-curvature="0" />
    <path
       style="color:#000000;display:inline;overflow:visible;visibility:visible;fill:#ffffff;fill-opacity:1;fill-rule:nonzero;stroke:none;stroke-width:1.0134387px;marker:none;enable-background:accumulate"
       d="m 2429.7014,2354.135 c -226.0916,5.664 -424.3806,-1.8619 -553.8658,-3.1385 1.0467,29.3316 -26.7865,22.3328 -53.1365,7.7184 20.978,58.3937 -13.811,62.9492 -66.5102,35.1452 53.1908,58.2469 -0.1711,49.8371 -65.6237,12.6621 63.1131,58.0333 112.2101,112.238 -11.6308,77.0671 73.3827,38.4263 106.1613,56.9179 38.9403,76.3342 65.4128,22.4893 53.2739,50.5184 -12.0468,54.5251 117.1687,34.8331 34.5243,51.3361 -13.3177,62.847 132.1793,19.0258 44.9514,43.9617 -26.6424,91.1423 82.8019,-14.4985 162.0937,-32.293 78.2232,30.3246 150.2374,-36.4889 105.3205,-6.9285 22.1454,53.6563 47.5025,-18.2784 172.0193,-47.6005 135.3857,0.214 60.6331,-30.2272 35.406,10.9886 30.9185,35.204 7.9378,-7.9446 33.8993,-55.4847 42.3845,-23.2885 15.468,-23.2376 28.5172,-18.7159 26.8674,14.1633 13.3414,-19.1042 44.7739,-39.4281 33.4207,0.758 19.7631,-40.21 24.6145,-7.3497 15.1552,24.8185 49.4087,-62.5107 56.5504,-65.5945 61.0715,4.2952 20.6226,-39.3517 45.3241,-79.5171 85.6341,-12.348 0.052,-22.3292 7.0763,-60.1712 72.9313,8.4578 -26.5149,-70.6232 38.4415,-56.912 65.9497,10.957 -33.5716,-86.5033 9.7496,-126.4741 64.282,-36.0341 5.3617,-118.7449 30.9153,-426.102 29.4644,-525.481 z"
       id="path4024"
       inkscape:connector-curvature="0"
       sodipodi:nodetypes="cccccccccccccccccccccccc" />
    <path
       style="fill:#ffffff;fill-rule:evenodd;stroke:none;stroke-width:0.99999994px;stroke-linecap:butt;stroke-linejoin:miter;stroke-opacity:1"
       d="m 2320.0189,2966.9466 -102.8737,31.1414 30.781,-65.8394 -54.3109,13.511 73.467,-174.0894 -83.4186,10.4305 -22.2012,199.1888 46.5569,-15.7553 -28.3923,68.2411 z"
       id="path5002"
       inkscape:connector-curvature="0"
       sodipodi:nodetypes="cccccccccc" />
    <text
       xml:space="preserve"
       style="font-style:normal;font-variant:normal;font-weight:normal;font-stretch:normal;line-height:0%;font-family:Lavi;-inkscape-font-specification:Lavi;letter-spacing:0px;word-spacing:0px;fill:#ffffff;fill-opacity:1;stroke:#000000;stroke-width:0.57625628;stroke-miterlimit:4;stroke-dasharray:none;stroke-opacity:1;filter:url(#filter4375-4-1-1-1-9)"
       x="787.65729"
       y="1584.5073"
       id="text4580"
       transform="matrix(0.47590856,-0.23101257,-0.08785973,0.61214035,2051.4196,1281.2253)"><tspan
         sodipodi:role="line"
         id="tspan4582"
         x="787.65729"
         y="1584.5073"
         style="font-size:70px;line-height:1.25;letter-spacing:5.62810278px;fill:#ffffff;stroke-width:0.57625628;stroke-miterlimit:4;stroke-dasharray:none"><tspan
           style="font-size:61.46733856px"
           id="tspan896">PAF</tspan><tspan
           style="font-size:80.40014648px;letter-spacing:5.62810278px;fill:#ffffff;stroke-width:0.57625628;stroke-miterlimit:4;stroke-dasharray:none"
           id="tspan4617">!</tspan></tspan></text>
    <path
       style="fill:#ffffff;fill-rule:evenodd;stroke:none;stroke-width:1px;stroke-linecap:butt;stroke-linejoin:miter;stroke-opacity:1"
       d="m 606.64438,688.13568 c 53.77935,-14.71022 46.31957,20.21656 41.32639,53.14407 37.80494,-43.59903 55.26716,-29.85149 61.98961,14.17175 33.62525,-62.22579 59.25693,-30.90893 85.83175,-10.62881 1.02337,-30.58118 16.76245,-46.25269 77.88437,-15.94322 -32.19125,-44.20554 -28.66018,-71.76224 39.73691,-69.08729 -61.86013,-15.97494 -61.03687,-42.11142 -22.25267,-74.4017 -45.37354,26.89223 -74.55312,30.92349 -65.16855,-19.48617 -45.60554,49.76939 -52.18919,18.77197 -60.40013,-8.85734 -18.96237,57.85359 -45.06195,40.93556 -73.11593,3.54293 0.75602,36.0549 -10.20221,57.18925 -60.40012,28.34351 8.5968,26.18958 33.74624,62.31265 -25.43163,47.82967 31.70501,15.40054 43.05808,31.90752 0,51.3726 z"
       id="path907"
       inkscape:connector-curvature="0"
       sodipodi:nodetypes="ccccccccccccc" />
  </g>
  <g
     inkscape:groupmode="layer"
     id="layer1"
     inkscape:label="txt"
     style="display:inline">
    <path
       style="color:#000000;display:inline;overflow:visible;visibility:visible;fill:#ffffff;fill-opacity:1;fill-rule:nonzero;stroke:none;stroke-width:1px;marker:none;enable-background:accumulate"
       d="m 636.46222,3030.3247 c -16.45129,42.7371 -57.34368,52.6864 -79.08413,59.0603 -3.49561,-4.6209 -10.29733,-21.207 -10.29733,-21.207 0,0 -51.12826,31.5026 -68.86582,33.4378 -17.73755,1.9353 -19.57138,-14.8728 -19.57138,-14.8728 0,0 80.29422,-31.7712 95.58278,-42.4436 8.90084,13.0355 11.06276,18.6403 15.92522,23.5722 13.47897,-4.7946 53.36319,-19.1261 66.31066,-37.5469 z"
       id="path4456"
       inkscape:connector-curvature="0"
       sodipodi:nodetypes="cccscccc" />
    <text
       xml:space="preserve"
       style="font-style:normal;font-variant:normal;font-weight:normal;font-stretch:normal;line-height:0%;font-family:Lavi;-inkscape-font-specification:Lavi;text-align:center;letter-spacing:0px;word-spacing:0px;text-anchor:middle;fill:#000000;fill-opacity:1;stroke:none"
       x="720.86694"
       y="514.9978"
       id="text4246"><tspan
         sodipodi:role="line"
         style="font-size:45px;line-height:1.25"
         x="720.86694"
         y="514.9978"
         id="tspan4252">Vuoi un Albero</tspan><tspan
         sodipodi:role="line"
         style="font-size:45px;line-height:1.25"
         x="720.86694"
         y="571.2478"
         id="tspan837">dell'Unità?</tspan></text>
    <text
       xml:space="preserve"
       style="font-style:normal;font-variant:normal;font-weight:normal;font-stretch:normal;line-height:0%;font-family:Lavi;-inkscape-font-specification:Lavi;text-align:center;letter-spacing:0px;word-spacing:0px;text-anchor:middle;fill:#000000;fill-opacity:1;stroke:none"
       x="1575.9264"
       y="1893.9833"
       id="text4246-7"><tspan
         sodipodi:role="line"
         style="font-size:45px;line-height:1.25"
         x="1575.9264"
         y="1893.9833"
         id="tspan4414">Siamo streghe</tspan><tspan
         sodipodi:role="line"
         style="font-size:45px;line-height:1.25"
         x="1575.9264"
         y="1950.2333"
         id="tspan880">di Chaos;</tspan><tspan
         sodipodi:role="line"
         style="font-size:45px;line-height:1.25"
         x="1575.9264"
         y="2006.4833"
         id="tspan934">noi NON FACCIAMO</tspan><tspan
         sodipodi:role="line"
         style="font-size:45px;line-height:1.25"
         x="1575.9264"
         y="2062.7334"
         id="tspan882">queste cose.</tspan></text>
    <text
       xml:space="preserve"
       style="font-style:normal;font-variant:normal;font-weight:normal;font-stretch:normal;line-height:0%;font-family:Lavi;-inkscape-font-specification:Lavi;text-align:center;letter-spacing:0px;word-spacing:0px;text-anchor:middle;fill:#000000;fill-opacity:1;stroke:none"
       x="286.64133"
       y="2880.6572"
       id="text4246-7-6"><tspan
         sodipodi:role="line"
         style="font-size:45px;line-height:1.25"
         x="286.64133"
         y="2880.6572"
         id="tspan4426">Faresti meglio</tspan><tspan
         sodipodi:role="line"
         style="font-size:45px;line-height:1.25"
         x="286.64133"
         y="2936.9072"
         id="tspan889">a concentrarti</tspan><tspan
         sodipodi:role="line"
         style="font-size:45px;line-height:1.25"
         x="294.55148"
         y="2993.1572"
         id="tspan891">sullo studio dei </tspan><tspan
         sodipodi:role="line"
         style="font-size:45px;line-height:1.25"
         x="286.64133"
         y="3049.4072"
         id="tspan1059">tuoi “Incantesimi</tspan><tspan
         sodipodi:role="line"
         style="font-size:45px;line-height:1.25"
         x="286.64133"
         y="3105.6572"
         id="tspan1069">di Distruzione”!</tspan></text>
    <text
       xml:space="preserve"
       style="font-style:normal;font-variant:normal;font-weight:normal;font-stretch:normal;line-height:0%;font-family:Lavi;-inkscape-font-specification:Lavi;text-align:center;letter-spacing:0px;word-spacing:0px;text-anchor:middle;fill:#000000;fill-opacity:1;stroke:none"
       x="1309.3973"
       y="2493.7979"
       id="text4246-7-6-2"><tspan
         sodipodi:role="line"
         style="font-size:45px;line-height:1.25"
         x="1309.3973"
         y="2493.7979"
         id="tspan1069-6">Distruzione?</tspan></text>
    <text
       xml:space="preserve"
       style="font-style:normal;font-variant:normal;font-weight:normal;font-stretch:normal;line-height:0%;font-family:Lavi;-inkscape-font-specification:Lavi;text-align:center;letter-spacing:0px;word-spacing:0px;text-anchor:middle;fill:#000000;fill-opacity:1;stroke:none"
       x="1313.0408"
       y="3082.3787"
       id="text4246-7-6-2-0"><tspan
         sodipodi:role="line"
         style="font-size:45px;line-height:1.25"
         x="1313.0408"
         y="3082.3787"
         id="tspan4434">In questa</tspan><tspan
         sodipodi:role="line"
         style="font-size:45px;line-height:1.25"
         x="1313.0408"
         y="3138.6287"
         id="tspan895">stagione?</tspan></text>
    <text
       xml:space="preserve"
       style="font-style:normal;font-variant:normal;font-weight:normal;font-stretch:normal;line-height:0%;font-family:Lavi;-inkscape-font-specification:Lavi;text-align:center;letter-spacing:0px;word-spacing:0px;text-anchor:middle;fill:#000000;fill-opacity:1;stroke:none"
       x="1268.27"
       y="3233.5964"
       id="text4246-7-6-2-0-5"><tspan
         sodipodi:role="line"
         style="font-size:45px;line-height:1.25"
         x="1268.27"
         y="3233.5964"
         id="tspan4441">Perché non gli</tspan><tspan
         sodipodi:role="line"
         style="font-size:45px;line-height:1.25"
         x="1268.27"
         y="3289.8464"
         id="tspan897">Incantesimi di</tspan><tspan
         sodipodi:role="line"
         style="font-size:45px;line-height:1.25"
         x="1268.27"
         y="3308.3799"
         id="tspan4445" /><tspan
         sodipodi:role="line"
         style="font-size:45px;line-height:1.25"
         x="1268.27"
         y="3346.0964"
         id="tspan4447">Creazione?</tspan></text>
    <text
       xml:space="preserve"
       style="font-style:normal;font-variant:normal;font-weight:normal;font-stretch:normal;line-height:0%;font-family:Lavi;-inkscape-font-specification:Lavi;text-align:center;letter-spacing:0px;word-spacing:0px;text-anchor:middle;fill:#000000;fill-opacity:1;stroke:none;stroke-width:1.60000002;stroke-miterlimit:4;stroke-dasharray:none"
       x="2089.9304"
       y="2459.3547"
       id="text4246-7-6-2-04"><tspan
         sodipodi:role="line"
         style="font-size:45px;line-height:1.25;stroke:none;stroke-width:1.60000002;stroke-miterlimit:4;stroke-dasharray:none"
         x="2089.9304"
         y="2459.3547"
         id="tspan4976">Si sta avvicinando il prossimo</tspan><tspan
         sodipodi:role="line"
         style="font-size:45px;line-height:1.25;stroke:none;stroke-width:1.60000002;stroke-miterlimit:4;stroke-dasharray:none"
         x="2089.9304"
         y="2515.6047"
         id="tspan901">Concilio delle Tre Lune</tspan><tspan
         sodipodi:role="line"
         style="font-size:45px;line-height:1.25;stroke:none;stroke-width:1.60000002;stroke-miterlimit:4;stroke-dasharray:none"
         x="2089.9304"
         y="2571.8547"
         id="tspan5000">e così pure gli esami.</tspan><tspan
         sodipodi:role="line"
         style="font-size:45px;line-height:1.25;stroke:none;stroke-width:1.60000002;stroke-miterlimit:4;stroke-dasharray:none"
         x="2097.8406"
         y="2628.1047"
         id="tspan4986"> Studia! <tspan
   style="stroke:#000000;stroke-width:1.60000002;stroke-miterlimit:4;stroke-dasharray:none;stroke-opacity:1"
   id="tspan874">Studia! STUDIA!!! </tspan></tspan><tspan
         sodipodi:role="line"
         style="font-size:45px;line-height:1.25;stroke:#000000;stroke-width:1.60000002;stroke-miterlimit:4;stroke-dasharray:none;stroke-opacity:1"
         x="2089.9304"
         y="2684.3547"
         id="tspan914">E SMETTILA DI DISTRARTI</tspan><tspan
         sodipodi:role="line"
         style="font-size:45px;line-height:1.25;stroke:#000000;stroke-width:1.60000002;stroke-miterlimit:4;stroke-dasharray:none;stroke-opacity:1"
         x="2089.9304"
         y="2740.6047"
         id="tspan4456">CON QUESTE</tspan><tspan
         sodipodi:role="line"
         style="font-size:45px;line-height:1.25;stroke:#000000;stroke-width:1.60000002;stroke-miterlimit:4;stroke-dasharray:none;stroke-opacity:1"
         x="2089.9304"
         y="2796.8547"
         id="tspan916">STUPIDATE!!!</tspan></text>
    <flowRoot
       xml:space="preserve"
       id="flowRoot862"
       style="font-style:normal;font-variant:normal;font-weight:normal;font-stretch:normal;font-size:0.66666669px;line-height:318.00000668%;font-family:Neuropolitical;-inkscape-font-specification:Neuropolitical;text-align:center;letter-spacing:0px;word-spacing:0px;writing-mode:lr-tb;text-anchor:middle;fill:#000000;fill-opacity:1;stroke:none;stroke-width:1px;stroke-linecap:butt;stroke-linejoin:miter;stroke-opacity:1"><flowRegion
         id="flowRegion864"><rect
           id="rect866"
           width="103.5"
           height="5.75"
           x="1181.625"
           y="3275.875" /></flowRegion><flowPara
         id="flowPara868" /></flowRoot>    <text
       xml:space="preserve"
       style="font-style:normal;font-variant:normal;font-weight:normal;font-stretch:normal;font-size:14.71681118px;line-height:0%;font-family:Lavi;-inkscape-font-specification:Lavi;text-align:center;letter-spacing:0px;word-spacing:0px;text-anchor:middle;fill:#000000;fill-opacity:1;stroke:none;stroke-width:1"
       x="875.80847"
       y="682.29504"
       id="text4246-36"
       transform="skewX(-9.9961078)"><tspan
         sodipodi:role="line"
         style="font-size:55.18804169px;line-height:1.25;stroke-width:1"
         x="875.80847"
         y="682.29504"
         id="tspan837-3">Qui?!?</tspan></text>
    <text
       xml:space="preserve"
       style="font-style:normal;font-variant:normal;font-weight:normal;font-stretch:normal;font-size:19.04891968px;line-height:0%;font-family:Lavi;-inkscape-font-specification:Lavi;text-align:center;letter-spacing:0px;word-spacing:0px;text-anchor:middle;fill:#000000;fill-opacity:1;stroke:none;stroke-width:1.99999988;stroke-miterlimit:4;stroke-dasharray:none"
       x="1711.0228"
       y="1822.5054"
       id="text4246-3"
       transform="matrix(1.0148714,0,-0.1559129,0.98534652,0,0)"><tspan
         sodipodi:role="line"
         style="font-size:71.43344879px;line-height:1.25;stroke:#000000;stroke-width:1.99999988;stroke-miterlimit:4;stroke-dasharray:none;stroke-opacity:1"
         x="1711.0228"
         y="1822.5054"
         id="tspan4252-6">NO!</tspan></text>
  </g>
</svg>
